homework/homework11/03clk/test.vcd
$date
	Tue Nov 17 10:30:47 2020
$end
$version
	Icarus Verilog
$end
$timescale
	1ns
$end
$scope module test $end
$var reg 1 ! clk $end
$scope module u $end
$var wire 1 ! CLOCK_50 $end
$var wire 18 " SW [17:0] $end
$var wire 1 # reset $end
$var wire 4 $ bcd_100 [3:0] $end
$var wire 4 % bcd_10 [3:0] $end
$var wire 4 & bcd_1 [3:0] $end
$var wire 7 ' HEX2 [6:0] $end
$var wire 7 ( HEX1 [6:0] $end
$var wire 7 ) HEX0 [6:0] $end
$var reg 32 * cnt [31:0] $end
$var reg 8 + tik [7:0] $end
$scope module u_1 $end
$var wire 7 , HEX0 [6:0] $end
$var wire 4 - SW [3:0] $end
$var reg 7 . HEX [6:0] $end
$upscope $end
$scope module u_10 $end
$var wire 7 / HEX0 [6:0] $end
$var wire 4 0 SW [3:0] $end
$var reg 7 1 HEX [6:0] $end
$upscope $end
$scope module u_100 $end
$var wire 7 2 HEX0 [6:0] $end
$var wire 4 3 SW [3:0] $end
$var reg 7 4 HEX [6:0] $end
$upscope $end
$scope module u_bcd $end
$var wire 4 5 bcd_hun [3:0] $end
$var wire 4 6 bcd_one [3:0] $end
$var wire 4 7 bcd_ten [3:0] $end
$var wire 8 8 bin [7:0] $end
$var reg 4 9 bcd_hun_r [3:0] $end
$var reg 4 : bcd_one_r [3:0] $end
$var reg 4 ; bcd_ten_r [3:0] $end
$var reg 8 < bin_r [7:0] $end
$var integer 32 = i [31:0] $end
$scope task check_all $end
$upscope $end
$scope task init_all $end
$upscope $end
$scope task shift_all $end
$upscope $end
$upscope $end
$upscope $end
$upscope $end
$enddefinitions $end
#0
$dumpvars
bx =
bx <
bx ;
bx :
bx 9
bx 8
bx 7
bx 6
bx 5
bx 4
bx 3
bx 2
bx 1
bx 0
bx /
bx .
bx -
bx ,
bx +
bx *
bx )
bx (
bx '
bx &
bx %
bx $
z#
bz "
0!
$end
#1
b1000000 )
b1000000 ,
b1000000 (
b1000000 /
b1000000 '
b1000000 2
b111111 .
b111111 1
b111111 4
b1000 =
b0 &
b0 -
b0 6
b0 :
b0 %
b0 0
b0 7
b0 ;
b0 $
b0 3
b0 5
b0 9
b0 <
b0 +
b0 8
b0 *
1!
#2
0!
#3
b1 *
1!
#4
0!
#5
b1111001 )
b1111001 ,
b110 .
b1 &
b1 -
b1 6
b1 :
b1000 =
b0 <
b1 +
b1 8
b0 *
1!
#6
0!
#7
b1 *
1!
#8
0!
#9
b100100 )
b100100 ,
b1011011 .
b1000 =
b10 &
b10 -
b10 6
b10 :
b0 <
b10 +
b10 8
b0 *
1!
#10
0!
#11
b1 *
1!
#12
0!
#13
b110000 )
b110000 ,
b1001111 .
b1000 =
b11 &
b11 -
b11 6
b11 :
b0 <
b11 +
b11 8
b0 *
1!
#14
0!
#15
b1 *
1!
#16
0!
#17
b11001 )
b11001 ,
b1100110 .
b1000 =
b100 &
b100 -
b100 6
b100 :
b0 <
b100 +
b100 8
b0 *
1!
#18
0!
#19
b1 *
1!
#20
0!
#21
b10010 )
b10010 ,
b1101101 .
b1000 =
b101 &
b101 -
b101 6
b101 :
b0 <
b101 +
b101 8
b0 *
1!
#22
0!
#23
b1 *
1!
#24
0!
#25
b10 )
b10 ,
b1111101 .
b1000 =
b110 &
b110 -
b110 6
b110 :
b0 <
b110 +
b110 8
b0 *
1!
#26
0!
#27
b1 *
1!
#28
0!
#29
b1111000 )
b1111000 ,
b111 .
b1000 =
b111 &
b111 -
b111 6
b111 :
b0 <
b111 +
b111 8
b0 *
1!
#30
0!
#31
b1 *
1!
#32
0!
#33
b0 )
b0 ,
b1111111 .
b1000 =
b1000 &
b1000 -
b1000 6
b1000 :
b0 <
b1000 +
b1000 8
b0 *
1!
#34
0!
#35
b1 *
1!
#36
0!
#37
b10000 )
b10000 ,
b1101111 .
b1000 =
b1001 &
b1001 -
b1001 6
b1001 :
b0 <
b1001 +
b1001 8
b0 *
1!
#38
0!
#39
b1 *
1!
#40
0!
#41
b1111001 (
b1111001 /
b1000000 )
b1000000 ,
b110 1
b111111 .
b1 %
b1 0
b1 7
b1 ;
b1000 =
b0 &
b0 -
b0 6
b0 :
b0 <
b1010 +
b1010 8
b0 *
1!
#42
0!
#43
b1 *
1!
#44
0!
#45
b1111001 )
b1111001 ,
b110 .
b1 &
b1 -
b1 6
b1 :
b1000 =
b1 %
b1 0
b1 7
b1 ;
b0 <
b1011 +
b1011 8
b0 *
1!
#46
0!
#47
b1 *
1!
#48
0!
#49
b100100 )
b100100 ,
b1011011 .
b1000 =
b10 &
b10 -
b10 6
b10 :
b1 %
b1 0
b1 7
b1 ;
b0 <
b1100 +
b1100 8
b0 *
1!
#50
0!
#51
b1 *
1!
#52
0!
#53
b110000 )
b110000 ,
b1001111 .
b1000 =
b11 &
b11 -
b11 6
b11 :
b1 %
b1 0
b1 7
b1 ;
b0 <
b1101 +
b1101 8
b0 *
1!
#54
0!
#55
b1 *
1!
#56
0!
#57
b11001 )
b11001 ,
b1100110 .
b1000 =
b100 &
b100 -
b100 6
b100 :
b1 %
b1 0
b1 7
b1 ;
b0 <
b1110 +
b1110 8
b0 *
1!
#58
0!
#59
b1 *
1!
#60
0!
#61
b10010 )
b10010 ,
b1101101 .
b1000 =
b101 &
b101 -
b101 6
b101 :
b1 %
b1 0
b1 7
b1 ;
b0 <
b1111 +
b1111 8
b0 *
1!
#62
0!
#63
b1 *
1!
#64
0!
#65
b10 )
b10 ,
b1111101 .
b1000 =
b110 &
b110 -
b110 6
b110 :
b1 %
b1 0
b1 7
b1 ;
b0 <
b10000 +
b10000 8
b0 *
1!
#66
0!
#67
b1 *
1!
#68
0!
#69
b1111000 )
b1111000 ,
b111 .
b1000 =
b111 &
b111 -
b111 6
b111 :
b1 %
b1 0
b1 7
b1 ;
b0 <
b10001 +
b10001 8
b0 *
1!
#70
0!
#71
b1 *
1!
#72
0!
#73
b0 )
b0 ,
b1111111 .
b1000 =
b1000 &
b1000 -
b1000 6
b1000 :
b1 %
b1 0
b1 7
b1 ;
b0 <
b10010 +
b10010 8
b0 *
1!
#74
0!
#75
b1 *
1!
#76
0!
#77
b10000 )
b10000 ,
b1101111 .
b1000 =
b1001 &
b1001 -
b1001 6
b1001 :
b1 %
b1 0
b1 7
b1 ;
b0 <
b10011 +
b10011 8
b0 *
1!
#78
0!
#79
b1 *
1!
#80
0!
#81
b1000000 )
b1000000 ,
b100100 (
b100100 /
b111111 .
b1011011 1
b1000 =
b0 &
b0 -
b0 6
b0 :
b10 %
b10 0
b10 7
b10 ;
b0 <
b10100 +
b10100 8
b0 *
1!
#82
0!
#83
b1 *
1!
#84
0!
#85
b1111001 )
b1111001 ,
b110 .
b1 &
b1 -
b1 6
b1 :
b1000 =
b10 %
b10 0
b10 7
b10 ;
b0 <
b10101 +
b10101 8
b0 *
1!
#86
0!
#87
b1 *
1!
#88
0!
#89
b100100 )
b100100 ,
b1011011 .
b1000 =
b10 &
b10 -
b10 6
b10 :
b10 %
b10 0
b10 7
b10 ;
b0 <
b10110 +
b10110 8
b0 *
1!
#90
0!
#91
b1 *
1!
#92
0!
#93
b110000 )
b110000 ,
b1001111 .
b1000 =
b11 &
b11 -
b11 6
b11 :
b10 %
b10 0
b10 7
b10 ;
b0 <
b10111 +
b10111 8
b0 *
1!
#94
0!
#95
b1 *
1!
#96
0!
#97
b11001 )
b11001 ,
b1100110 .
b1000 =
b100 &
b100 -
b100 6
b100 :
b10 %
b10 0
b10 7
b10 ;
b0 <
b11000 +
b11000 8
b0 *
1!
#98
0!
#99
b1 *
1!
#100
0!
#101
b10010 )
b10010 ,
b1101101 .
b1000 =
b101 &
b101 -
b101 6
b101 :
b10 %
b10 0
b10 7
b10 ;
b0 <
b11001 +
b11001 8
b0 *
1!
#102
0!
#103
b1 *
1!
#104
0!
#105
b10 )
b10 ,
b1111101 .
b1000 =
b110 &
b110 -
b110 6
b110 :
b10 %
b10 0
b10 7
b10 ;
b0 <
b11010 +
b11010 8
b0 *
1!
#106
0!
#107
b1 *
1!
#108
0!
#109
b1111000 )
b1111000 ,
b111 .
b1000 =
b111 &
b111 -
b111 6
b111 :
b10 %
b10 0
b10 7
b10 ;
b0 <
b11011 +
b11011 8
b0 *
1!
#110
0!
#111
b1 *
1!
#112
0!
#113
b0 )
b0 ,
b1111111 .
b1000 =
b1000 &
b1000 -
b1000 6
b1000 :
b10 %
b10 0
b10 7
b10 ;
b0 <
b11100 +
b11100 8
b0 *
1!
#114
0!
#115
b1 *
1!
#116
0!
#117
b10000 )
b10000 ,
b1101111 .
b1000 =
b1001 &
b1001 -
b1001 6
b1001 :
b10 %
b10 0
b10 7
b10 ;
b0 <
b11101 +
b11101 8
b0 *
1!
#118
0!
#119
b1 *
1!
#120
0!
#121
b1000000 )
b1000000 ,
b110000 (
b110000 /
b111111 .
b1001111 1
b1000 =
b0 &
b0 -
b0 6
b0 :
b11 %
b11 0
b11 7
b11 ;
b0 <
b11110 +
b11110 8
b0 *
1!
#122
0!
#123
b1 *
1!
#124
0!
#125
b1111001 )
b1111001 ,
b110 .
b1 &
b1 -
b1 6
b1 :
b1000 =
b11 %
b11 0
b11 7
b11 ;
b0 <
b11111 +
b11111 8
b0 *
1!
#126
0!
#127
b1 *
1!
#128
0!
#129
b100100 )
b100100 ,
b1011011 .
b1000 =
b10 &
b10 -
b10 6
b10 :
b11 %
b11 0
b11 7
b11 ;
b0 <
b100000 +
b100000 8
b0 *
1!
#130
0!
#131
b1 *
1!
#132
0!
#133
b110000 )
b110000 ,
b1001111 .
b1000 =
b11 &
b11 -
b11 6
b11 :
b11 %
b11 0
b11 7
b11 ;
b0 <
b100001 +
b100001 8
b0 *
1!
#134
0!
#135
b1 *
1!
#136
0!
#137
b11001 )
b11001 ,
b1100110 .
b1000 =
b100 &
b100 -
b100 6
b100 :
b11 %
b11 0
b11 7
b11 ;
b0 <
b100010 +
b100010 8
b0 *
1!
#138
0!
#139
b1 *
1!
#140
0!
#141
b10010 )
b10010 ,
b1101101 .
b1000 =
b101 &
b101 -
b101 6
b101 :
b11 %
b11 0
b11 7
b11 ;
b0 <
b100011 +
b100011 8
b0 *
1!
#142
0!
#143
b1 *
1!
#144
0!
#145
b10 )
b10 ,
b1111101 .
b1000 =
b110 &
b110 -
b110 6
b110 :
b11 %
b11 0
b11 7
b11 ;
b0 <
b100100 +
b100100 8
b0 *
1!
#146
0!
#147
b1 *
1!
#148
0!
#149
b1111000 )
b1111000 ,
b111 .
b1000 =
b111 &
b111 -
b111 6
b111 :
b11 %
b11 0
b11 7
b11 ;
b0 <
b100101 +
b100101 8
b0 *
1!
#150
0!
#151
b1 *
1!
#152
0!
#153
b0 )
b0 ,
b1111111 .
b1000 =
b1000 &
b1000 -
b1000 6
b1000 :
b11 %
b11 0
b11 7
b11 ;
b0 <
b100110 +
b100110 8
b0 *
1!
#154
0!
#155
b1 *
1!
#156
0!
#157
b10000 )
b10000 ,
b1101111 .
b1000 =
b1001 &
b1001 -
b1001 6
b1001 :
b11 %
b11 0
b11 7
b11 ;
b0 <
b100111 +
b100111 8
b0 *
1!
#158
0!
#159
b1 *
1!
#160
0!
#161
b1000000 )
b1000000 ,
b11001 (
b11001 /
b111111 .
b1100110 1
b1000 =
b0 &
b0 -
b0 6
b0 :
b100 %
b100 0
b100 7
b100 ;
b0 <
b101000 +
b101000 8
b0 *
1!
#162
0!
#163
b1 *
1!
#164
0!
#165
b1111001 )
b1111001 ,
b110 .
b1 &
b1 -
b1 6
b1 :
b1000 =
b100 %
b100 0
b100 7
b100 ;
b0 <
b101001 +
b101001 8
b0 *
1!
#166
0!
#167
b1 *
1!
#168
0!
#169
b100100 )
b100100 ,
b1011011 .
b1000 =
b10 &
b10 -
b10 6
b10 :
b100 %
b100 0
b100 7
b100 ;
b0 <
b101010 +
b101010 8
b0 *
1!
#170
0!
#171
b1 *
1!
#172
0!
#173
b110000 )
b110000 ,
b1001111 .
b1000 =
b11 &
b11 -
b11 6
b11 :
b100 %
b100 0
b100 7
b100 ;
b0 <
b101011 +
b101011 8
b0 *
1!
#174
0!
#175
b1 *
1!
#176
0!
#177
b11001 )
b11001 ,
b1100110 .
b1000 =
b100 &
b100 -
b100 6
b100 :
b100 %
b100 0
b100 7
b100 ;
b0 <
b101100 +
b101100 8
b0 *
1!
#178
0!
#179
b1 *
1!
#180
0!
#181
b10010 )
b10010 ,
b1101101 .
b1000 =
b101 &
b101 -
b101 6
b101 :
b100 %
b100 0
b100 7
b100 ;
b0 <
b101101 +
b101101 8
b0 *
1!
#182
0!
#183
b1 *
1!
#184
0!
#185
b10 )
b10 ,
b1111101 .
b1000 =
b110 &
b110 -
b110 6
b110 :
b100 %
b100 0
b100 7
b100 ;
b0 <
b101110 +
b101110 8
b0 *
1!
#186
0!
#187
b1 *
1!
#188
0!
#189
b1111000 )
b1111000 ,
b111 .
b1000 =
b111 &
b111 -
b111 6
b111 :
b100 %
b100 0
b100 7
b100 ;
b0 <
b101111 +
b101111 8
b0 *
1!
#190
0!
#191
b1 *
1!
#192
0!
#193
b0 )
b0 ,
b1111111 .
b1000 =
b1000 &
b1000 -
b1000 6
b1000 :
b100 %
b100 0
b100 7
b100 ;
b0 <
b110000 +
b110000 8
b0 *
1!
#194
0!
#195
b1 *
1!
#196
0!
#197
b10000 )
b10000 ,
b1101111 .
b1000 =
b1001 &
b1001 -
b1001 6
b1001 :
b100 %
b100 0
b100 7
b100 ;
b0 <
b110001 +
b110001 8
b0 *
1!
#198
0!
#199
b1 *
1!
