homework/homework11/03clk/test.vcd
$date
	Wed Nov 18 21:38:54 2020
$end
$version
	Icarus Verilog
$end
$timescale
	1ns
$end
$scope module test $end
$var wire 1 ! tik $end
$var reg 1 " clk $end
$var reg 1 # reset $end
$scope module u $end
$var wire 1 " CLOCK_50 $end
$var wire 1 # reset $end
$var reg 32 $ cnt [31:0] $end
$var reg 1 ! tik $end
$upscope $end
$upscope $end
$enddefinitions $end
#0
$dumpvars
b0 $
1#
0"
0!
$end
#1
b1 $
0#
1"
#2
0"
#3
b10 $
1"
#4
0"
#5
b11 $
1"
#6
0"
#7
b100 $
1"
#8
0"
#9
1!
b0 $
1"
#10
0"
#11
b1 $
1"
#12
0"
#13
b10 $
1"
#14
0"
#15
b11 $
1"
#16
0"
#17
b100 $
1"
#18
0"
#19
0!
b0 $
1"
#20
0"
#21
b1 $
1"
#22
0"
#23
b10 $
1"
#24
0"
#25
b11 $
1"
#26
0"
#27
b100 $
1"
#28
0"
#29
1!
b0 $
1"
#30
0"
#31
b1 $
1"
#32
0"
#33
b10 $
1"
#34
0"
#35
b11 $
1"
#36
0"
#37
b100 $
1"
#38
0"
#39
0!
b0 $
1"
#40
0"
#41
b1 $
1"
#42
0"
#43
b10 $
1"
#44
0"
#45
b11 $
1"
#46
0"
#47
b100 $
1"
#48
0"
#49
1!
b0 $
1"
#50
0"
#51
b1 $
1"
#52
0"
#53
b10 $
1"
#54
0"
#55
b11 $
1"
#56
0"
#57
b100 $
1"
#58
0"
#59
0!
b0 $
1"
#60
0"
#61
b1 $
1"
#62
0"
#63
b10 $
1"
#64
0"
#65
b11 $
1"
#66
0"
#67
b100 $
1"
#68
0"
#69
1!
b0 $
1"
#70
0"
#71
b1 $
1"
#72
0"
#73
b10 $
1"
#74
0"
#75
b11 $
1"
#76
0"
#77
b100 $
1"
#78
0"
#79
0!
b0 $
1"
#80
0"
#81
b1 $
1"
#82
0"
#83
b10 $
1"
#84
0"
#85
b11 $
1"
#86
0"
#87
b100 $
1"
#88
0"
#89
1!
b0 $
1"
#90
0"
#91
b1 $
1"
#92
0"
#93
b10 $
1"
#94
0"
#95
b11 $
1"
#96
0"
#97
b100 $
1"
#98
0"
#99
0!
b0 $
1"
#100
0"
#101
b1 $
1"
#102
0"
#103
b10 $
1"
#104
0"
#105
b11 $
1"
#106
0"
#107
b100 $
1"
#108
0"
#109
1!
b0 $
1"
#110
0"
#111
b1 $
1"
#112
0"
#113
b10 $
1"
#114
0"
#115
b11 $
1"
#116
0"
#117
b100 $
1"
#118
0"
#119
0!
b0 $
1"
#120
0"
#121
b1 $
1"
#122
0"
#123
b10 $
1"
#124
0"
#125
b11 $
1"
#126
0"
#127
b100 $
1"
#128
0"
#129
1!
b0 $
1"
#130
0"
#131
b1 $
1"
#132
0"
#133
b10 $
1"
#134
0"
#135
b11 $
1"
#136
0"
#137
b100 $
1"
#138
0"
#139
0!
b0 $
1"
#140
0"
#141
b1 $
1"
#142
0"
#143
b10 $
1"
#144
0"
#145
b11 $
1"
#146
0"
#147
b100 $
1"
#148
0"
#149
1!
b0 $
1"
#150
0"
#151
b1 $
1"
#152
0"
#153
b10 $
1"
#154
0"
#155
b11 $
1"
#156
0"
#157
b100 $
1"
#158
0"
#159
0!
b0 $
1"
#160
0"
#161
b1 $
1"
#162
0"
#163
b10 $
1"
#164
0"
#165
b11 $
1"
#166
0"
#167
b100 $
1"
#168
0"
#169
1!
b0 $
1"
#170
0"
#171
b1 $
1"
#172
0"
#173
b10 $
1"
#174
0"
#175
b11 $
1"
#176
0"
#177
b100 $
1"
#178
0"
#179
0!
b0 $
1"
#180
0"
#181
b1 $
1"
#182
0"
#183
b10 $
1"
#184
0"
#185
b11 $
1"
#186
0"
#187
b100 $
1"
#188
0"
#189
1!
b0 $
1"
#190
0"
#191
b1 $
1"
#192
0"
#193
b10 $
1"
#194
0"
#195
b11 $
1"
#196
0"
#197
b100 $
1"
#198
0"
#199
0!
b0 $
1"
#200
0"
#201
b1 $
1"
