homework/homework11/05buaa/test.vcd
$date
	Thu Nov 19 10:05:55 2020
$end
$version
	Icarus Verilog
$end
$timescale
	1s
$end
$scope module test $end
$var reg 1 ! SW [17:17] $end
$var reg 1 " clk $end
$scope module u $end
$var wire 1 " CLOCK_50 $end
$var wire 1 ! SW [17:17] $end
$var wire 1 # clk $end
$var wire 1 $ reset $end
$var wire 16 % to_show [15:0] $end
$var wire 44 & reg_out [43:0] $end
$var wire 1 ' clk_2 $end
$var wire 4 ( LEDR [10:7] $end
$var wire 7 ) HEX3 [6:0] $end
$var wire 7 * HEX2 [6:0] $end
$var wire 7 + HEX1 [6:0] $end
$var wire 7 , HEX0 [6:0] $end
$scope module u_seg $end
$var wire 16 - SW [15:0] $end
$var wire 7 . HEX3 [6:0] $end
$var wire 7 / HEX2 [6:0] $end
$var wire 7 0 HEX1 [6:0] $end
$var wire 7 1 HEX0 [6:0] $end
$scope module u1 $end
$var wire 7 2 HEX0 [6:0] $end
$var wire 4 3 SW [3:0] $end
$var reg 7 4 HEX [6:0] $end
$upscope $end
$scope module u2 $end
$var wire 7 5 HEX0 [6:0] $end
$var wire 4 6 SW [3:0] $end
$var reg 7 7 HEX [6:0] $end
$upscope $end
$scope module u3 $end
$var wire 7 8 HEX0 [6:0] $end
$var wire 4 9 SW [3:0] $end
$var reg 7 : HEX [6:0] $end
$upscope $end
$scope module u4 $end
$var wire 7 ; HEX0 [6:0] $end
$var wire 4 < SW [3:0] $end
$var reg 7 = HEX [6:0] $end
$upscope $end
$upscope $end
$scope module u_shift $end
$var wire 1 $ reset $end
$var wire 1 ' clk $end
$var reg 44 > out [43:0] $end
$upscope $end
$scope module u_tik $end
$var wire 1 " CLOCK_50 $end
$var wire 1 $ reset $end
$var reg 32 ? cnt [31:0] $end
$var reg 1 ' tik $end
$upscope $end
$upscope $end
$upscope $end
$enddefinitions $end
#0
$dumpvars
b0 ?
b10101011110011000000111110001101111011101111 >
b1110110 =
b1010 <
b1001 ;
b1111001 :
b1011 9
b110 8
b111000 7
b1100 6
b1000111 5
b111000 4
b1100 3
b1000111 2
b1000111 1
b1000111 0
b110 /
b1001 .
b1010101111001100 -
b1000111 ,
b1000111 +
b110 *
b1001 )
b0 (
0'
b10101011110011000000111110001101111011101111 &
b1010101111001100 %
1$
0#
0"
1!
$end
#1
b1000000 ,
b1000000 1
b1000000 2
b1000111 *
b1000111 /
b1000111 8
b110 )
b110 .
b110 ;
b111111 4
b111000 :
b1111001 =
b0 3
b1100 9
b1011 <
b1011110011000000 %
b1011110011000000 -
b10111100110000001111100011011110111011111010 &
b10111100110000001111100011011110111011111010 >
1'
0$
0!
1#
1"
#2
0#
0"
#3
0'
1#
1"
#4
0#
0"
#5
b1111111 ,
b1111111 1
b1111111 2
b1000000 +
b1000000 0
b1000000 5
b1000111 )
b1000111 .
b1000111 ;
b0 4
b111111 7
b111000 =
b1111 3
b0 6
b1100 <
b1100110000001111 %
b1100110000001111 -
b11001100000011111000110111101110111110101011 &
b11001100000011111000110111101110111110101011 >
1'
1#
1"
#6
0#
0"
#7
0'
1#
1"
#8
0#
0"
#9
b0 ,
b0 1
b0 2
b1111111 +
b1111111 0
b1111111 5
b1000000 *
b1000000 /
b1000000 8
b1111111 4
b0 7
b111111 :
b1000 3
b1111 6
b0 9
b1100000011111000 %
b1100000011111000 -
b11000000111110001101111011101111101010111100 &
b11000000111110001101111011101111101010111100 >
1'
1#
1"
#10
0#
0"
#11
0'
1#
1"
#12
0#
0"
#13
b1000001 ,
b1000001 1
b1000001 2
b0 +
b0 0
b0 5
b1111111 *
b1111111 /
b1111111 8
b1000000 )
b1000000 .
b1000000 ;
b111110 4
b1111111 7
b0 :
b111111 =
b1101 3
b1000 6
b1111 9
b0 <
b111110001101 %
b111110001101 -
b1111100011011110111011111010101111001100 &
b1111100011011110111011111010101111001100 >
1'
1#
1"
#14
0#
0"
#15
0'
1#
1"
#16
0#
0"
#17
b1000 ,
b1000 1
b1000 2
b1000001 +
b1000001 0
b1000001 5
b0 *
b0 /
b0 8
b1111111 )
b1111111 .
b1111111 ;
b1110111 4
b111110 7
b1111111 :
b0 =
b1110 3
b1101 6
b1000 9
b1111 <
b1111100011011110 %
b1111100011011110 -
b11111000110111101110111110101011110011000000 &
b11111000110111101110111110101011110011000000 >
1'
1#
1"
#18
0#
0"
#19
0'
1#
1"
#20
0#
0"
#21
b1000 +
b1000 0
b1000 5
b1000001 *
b1000001 /
b1000001 8
b0 )
b0 .
b0 ;
b1110111 7
b111110 :
b1111111 =
b1110 6
b1101 9
b1000 <
b1000110111101110 %
b1000110111101110 -
b10001101111011101111101010111100110000001111 &
b10001101111011101111101010111100110000001111 >
1'
1#
1"
#22
0#
0"
#23
0'
1#
1"
#24
0#
0"
#25
b1111111 ,
b1111111 1
b1111111 2
b1000 *
b1000 /
b1000 8
b1000001 )
b1000001 .
b1000001 ;
b0 4
b1110111 :
b111110 =
b1111 3
b1110 9
b1101 <
b1101111011101111 %
b1101111011101111 -
b11011110111011111010101111001100000011111000 &
b11011110111011111010101111001100000011111000 >
1'
1#
1"
#26
0#
0"
#27
0'
1#
1"
#28
0#
0"
#29
b1001 ,
b1001 1
b1001 2
b1111111 +
b1111111 0
b1111111 5
b1000 )
b1000 .
b1000 ;
b1110110 4
b0 7
b1110111 =
b1 (
b1010 3
b1111 6
b1110 <
b1110111011111010 %
b1110111011111010 -
b11101110111110101011110011000000111110001101 &
b11101110111110101011110011000000111110001101 >
1'
1#
1"
#30
0#
0"
#31
0'
1#
1"
#32
0#
0"
#33
b110 ,
b110 1
b110 2
b1001 +
b1001 0
b1001 5
b1111111 *
b1111111 /
b1111111 8
b1111001 4
b1110110 7
b0 :
b0 (
b1011 3
b1010 6
b1111 9
b1110111110101011 %
b1110111110101011 -
b11101111101010111100110000001111100011011110 &
b11101111101010111100110000001111100011011110 >
1'
1#
1"
#34
0#
0"
#35
0'
1#
1"
#36
0#
0"
#37
b1000111 ,
b1000111 1
b1000111 2
b110 +
b110 0
b110 5
b1001 *
b1001 /
b1001 8
b1111111 )
b1111111 .
b1111111 ;
b111000 4
b1111001 7
b1110110 :
b0 =
b1100 3
b1011 6
b1010 9
b1111 <
b1111101010111100 %
b1111101010111100 -
b11111010101111001100000011111000110111101110 &
b11111010101111001100000011111000110111101110 >
1'
1#
1"
#38
0#
0"
#39
0'
1#
1"
#40
0#
0"
#41
b1000111 +
b1000111 0
b1000111 5
b110 *
b110 /
b110 8
b1001 )
b1001 .
b1001 ;
b111000 7
b1111001 :
b1110110 =
b1100 6
b1011 9
b1010 <
b1010101111001100 %
b1010101111001100 -
b10101011110011000000111110001101111011101111 &
b10101011110011000000111110001101111011101111 >
1'
1#
1"
#42
0#
0"
#43
0'
1#
1"
#44
0#
0"
#45
b1000000 ,
b1000000 1
b1000000 2
b1000111 *
b1000111 /
b1000111 8
b110 )
b110 .
b110 ;
b111111 4
b111000 :
b1111001 =
b0 3
b1100 9
b1011 <
b1011110011000000 %
b1011110011000000 -
b10111100110000001111100011011110111011111010 &
b10111100110000001111100011011110111011111010 >
1'
1#
1"
#46
0#
0"
#47
0'
1#
1"
#48
0#
0"
#49
b1111111 ,
b1111111 1
b1111111 2
b1000000 +
b1000000 0
b1000000 5
b1000111 )
b1000111 .
b1000111 ;
b0 4
b111111 7
b111000 =
b1111 3
b0 6
b1100 <
b1100110000001111 %
b1100110000001111 -
b11001100000011111000110111101110111110101011 &
b11001100000011111000110111101110111110101011 >
1'
1#
1"
#50
0#
0"
#51
0'
1#
1"
#52
0#
0"
#53
b0 ,
b0 1
b0 2
b1111111 +
b1111111 0
b1111111 5
b1000000 *
b1000000 /
b1000000 8
b1111111 4
b0 7
b111111 :
b1000 3
b1111 6
b0 9
b1100000011111000 %
b1100000011111000 -
b11000000111110001101111011101111101010111100 &
b11000000111110001101111011101111101010111100 >
1'
1#
1"
#54
0#
0"
#55
0'
1#
1"
#56
0#
0"
#57
b1000001 ,
b1000001 1
b1000001 2
b0 +
b0 0
b0 5
b1111111 *
b1111111 /
b1111111 8
b1000000 )
b1000000 .
b1000000 ;
b111110 4
b1111111 7
b0 :
b111111 =
b1101 3
b1000 6
b1111 9
b0 <
b111110001101 %
b111110001101 -
b1111100011011110111011111010101111001100 &
b1111100011011110111011111010101111001100 >
1'
1#
1"
#58
0#
0"
#59
0'
1#
1"
#60
0#
0"
#61
b1000 ,
b1000 1
b1000 2
b1000001 +
b1000001 0
b1000001 5
b0 *
b0 /
b0 8
b1111111 )
b1111111 .
b1111111 ;
b1110111 4
b111110 7
b1111111 :
b0 =
b1110 3
b1101 6
b1000 9
b1111 <
b1111100011011110 %
b1111100011011110 -
b11111000110111101110111110101011110011000000 &
b11111000110111101110111110101011110011000000 >
1'
1#
1"
#62
0#
0"
#63
0'
1#
1"
#64
0#
0"
#65
b1000 +
b1000 0
b1000 5
b1000001 *
b1000001 /
b1000001 8
b0 )
b0 .
b0 ;
b1110111 7
b111110 :
b1111111 =
b1110 6
b1101 9
b1000 <
b1000110111101110 %
b1000110111101110 -
b10001101111011101111101010111100110000001111 &
b10001101111011101111101010111100110000001111 >
1'
1#
1"
#66
0#
0"
#67
0'
1#
1"
#68
0#
0"
#69
b1111111 ,
b1111111 1
b1111111 2
b1000 *
b1000 /
b1000 8
b1000001 )
b1000001 .
b1000001 ;
b0 4
b1110111 :
b111110 =
b1111 3
b1110 9
b1101 <
b1101111011101111 %
b1101111011101111 -
b11011110111011111010101111001100000011111000 &
b11011110111011111010101111001100000011111000 >
1'
1#
1"
#70
0#
0"
#71
0'
1#
1"
#72
0#
0"
#73
b1001 ,
b1001 1
b1001 2
b1111111 +
b1111111 0
b1111111 5
b1000 )
b1000 .
b1000 ;
b1110110 4
b0 7
b1110111 =
b1 (
b1010 3
b1111 6
b1110 <
b1110111011111010 %
b1110111011111010 -
b11101110111110101011110011000000111110001101 &
b11101110111110101011110011000000111110001101 >
1'
1#
1"
#74
0#
0"
#75
0'
1#
1"
#76
0#
0"
#77
b110 ,
b110 1
b110 2
b1001 +
b1001 0
b1001 5
b1111111 *
b1111111 /
b1111111 8
b1111001 4
b1110110 7
b0 :
b0 (
b1011 3
b1010 6
b1111 9
b1110111110101011 %
b1110111110101011 -
b11101111101010111100110000001111100011011110 &
b11101111101010111100110000001111100011011110 >
1'
1#
1"
#78
0#
0"
#79
0'
1#
1"
#80
0#
0"
#81
b1000111 ,
b1000111 1
b1000111 2
b110 +
b110 0
b110 5
b1001 *
b1001 /
b1001 8
b1111111 )
b1111111 .
b1111111 ;
b111000 4
b1111001 7
b1110110 :
b0 =
b1100 3
b1011 6
b1010 9
b1111 <
b1111101010111100 %
b1111101010111100 -
b11111010101111001100000011111000110111101110 &
b11111010101111001100000011111000110111101110 >
1'
1#
1"
#82
0#
0"
#83
0'
1#
1"
#84
0#
0"
#85
b1000111 +
b1000111 0
b1000111 5
b110 *
b110 /
b110 8
b1001 )
b1001 .
b1001 ;
b111000 7
b1111001 :
b1110110 =
b1100 6
b1011 9
b1010 <
b1010101111001100 %
b1010101111001100 -
b10101011110011000000111110001101111011101111 &
b10101011110011000000111110001101111011101111 >
1'
1#
1"
#86
0#
0"
#87
0'
1#
1"
#88
0#
0"
#89
b1000000 ,
b1000000 1
b1000000 2
b1000111 *
b1000111 /
b1000111 8
b110 )
b110 .
b110 ;
b111111 4
b111000 :
b1111001 =
b0 3
b1100 9
b1011 <
b1011110011000000 %
b1011110011000000 -
b10111100110000001111100011011110111011111010 &
b10111100110000001111100011011110111011111010 >
1'
1#
1"
#90
0#
0"
#91
0'
1#
1"
#92
0#
0"
#93
b1111111 ,
b1111111 1
b1111111 2
b1000000 +
b1000000 0
b1000000 5
b1000111 )
b1000111 .
b1000111 ;
b0 4
b111111 7
b111000 =
b1111 3
b0 6
b1100 <
b1100110000001111 %
b1100110000001111 -
b11001100000011111000110111101110111110101011 &
b11001100000011111000110111101110111110101011 >
1'
1#
1"
#94
0#
0"
#95
0'
1#
1"
#96
0#
0"
#97
b0 ,
b0 1
b0 2
b1111111 +
b1111111 0
b1111111 5
b1000000 *
b1000000 /
b1000000 8
b1111111 4
b0 7
b111111 :
b1000 3
b1111 6
b0 9
b1100000011111000 %
b1100000011111000 -
b11000000111110001101111011101111101010111100 &
b11000000111110001101111011101111101010111100 >
1'
1#
1"
#98
0#
0"
#99
0'
1#
1"
#100
0#
0"
#101
b1000001 ,
b1000001 1
b1000001 2
b0 +
b0 0
b0 5
b1111111 *
b1111111 /
b1111111 8
b1000000 )
b1000000 .
b1000000 ;
b111110 4
b1111111 7
b0 :
b111111 =
b1101 3
b1000 6
b1111 9
b0 <
b111110001101 %
b111110001101 -
b1111100011011110111011111010101111001100 &
b1111100011011110111011111010101111001100 >
1'
1#
1"
#102
0#
0"
#103
0'
1#
1"
#104
0#
0"
#105
b1000 ,
b1000 1
b1000 2
b1000001 +
b1000001 0
b1000001 5
b0 *
b0 /
b0 8
b1111111 )
b1111111 .
b1111111 ;
b1110111 4
b111110 7
b1111111 :
b0 =
b1110 3
b1101 6
b1000 9
b1111 <
b1111100011011110 %
b1111100011011110 -
b11111000110111101110111110101011110011000000 &
b11111000110111101110111110101011110011000000 >
1'
1#
1"
#106
0#
0"
#107
0'
1#
1"
#108
0#
0"
#109
b1000 +
b1000 0
b1000 5
b1000001 *
b1000001 /
b1000001 8
b0 )
b0 .
b0 ;
b1110111 7
b111110 :
b1111111 =
b1110 6
b1101 9
b1000 <
b1000110111101110 %
b1000110111101110 -
b10001101111011101111101010111100110000001111 &
b10001101111011101111101010111100110000001111 >
1'
1#
1"
#110
0#
0"
#111
0'
1#
1"
#112
0#
0"
#113
b1111111 ,
b1111111 1
b1111111 2
b1000 *
b1000 /
b1000 8
b1000001 )
b1000001 .
b1000001 ;
b0 4
b1110111 :
b111110 =
b1111 3
b1110 9
b1101 <
b1101111011101111 %
b1101111011101111 -
b11011110111011111010101111001100000011111000 &
b11011110111011111010101111001100000011111000 >
1'
1#
1"
#114
0#
0"
#115
0'
1#
1"
#116
0#
0"
#117
b1001 ,
b1001 1
b1001 2
b1111111 +
b1111111 0
b1111111 5
b1000 )
b1000 .
b1000 ;
b1110110 4
b0 7
b1110111 =
b1 (
b1010 3
b1111 6
b1110 <
b1110111011111010 %
b1110111011111010 -
b11101110111110101011110011000000111110001101 &
b11101110111110101011110011000000111110001101 >
1'
1#
1"
#118
0#
0"
#119
0'
1#
1"
#120
0#
0"
#121
b110 ,
b110 1
b110 2
b1001 +
b1001 0
b1001 5
b1111111 *
b1111111 /
b1111111 8
b1111001 4
b1110110 7
b0 :
b0 (
b1011 3
b1010 6
b1111 9
b1110111110101011 %
b1110111110101011 -
b11101111101010111100110000001111100011011110 &
b11101111101010111100110000001111100011011110 >
1'
1#
1"
#122
0#
0"
#123
0'
1#
1"
#124
0#
0"
#125
b1000111 ,
b1000111 1
b1000111 2
b110 +
b110 0
b110 5
b1001 *
b1001 /
b1001 8
b1111111 )
b1111111 .
b1111111 ;
b111000 4
b1111001 7
b1110110 :
b0 =
b1100 3
b1011 6
b1010 9
b1111 <
b1111101010111100 %
b1111101010111100 -
b11111010101111001100000011111000110111101110 &
b11111010101111001100000011111000110111101110 >
1'
1#
1"
#126
0#
0"
#127
0'
1#
1"
#128
0#
0"
#129
b1000111 +
b1000111 0
b1000111 5
b110 *
b110 /
b110 8
b1001 )
b1001 .
b1001 ;
b111000 7
b1111001 :
b1110110 =
b1100 6
b1011 9
b1010 <
b1010101111001100 %
b1010101111001100 -
b10101011110011000000111110001101111011101111 &
b10101011110011000000111110001101111011101111 >
1'
1#
1"
#130
0#
0"
#131
0'
1#
1"
#132
0#
0"
#133
b1000000 ,
b1000000 1
b1000000 2
b1000111 *
b1000111 /
b1000111 8
b110 )
b110 .
b110 ;
b111111 4
b111000 :
b1111001 =
b0 3
b1100 9
b1011 <
b1011110011000000 %
b1011110011000000 -
b10111100110000001111100011011110111011111010 &
b10111100110000001111100011011110111011111010 >
1'
1#
1"
#134
0#
0"
#135
0'
1#
1"
#136
0#
0"
#137
b1111111 ,
b1111111 1
b1111111 2
b1000000 +
b1000000 0
b1000000 5
b1000111 )
b1000111 .
b1000111 ;
b0 4
b111111 7
b111000 =
b1111 3
b0 6
b1100 <
b1100110000001111 %
b1100110000001111 -
b11001100000011111000110111101110111110101011 &
b11001100000011111000110111101110111110101011 >
1'
1#
1"
#138
0#
0"
#139
0'
1#
1"
#140
0#
0"
#141
b0 ,
b0 1
b0 2
b1111111 +
b1111111 0
b1111111 5
b1000000 *
b1000000 /
b1000000 8
b1111111 4
b0 7
b111111 :
b1000 3
b1111 6
b0 9
b1100000011111000 %
b1100000011111000 -
b11000000111110001101111011101111101010111100 &
b11000000111110001101111011101111101010111100 >
1'
1#
1"
#142
0#
0"
#143
0'
1#
1"
#144
0#
0"
#145
b1000001 ,
b1000001 1
b1000001 2
b0 +
b0 0
b0 5
b1111111 *
b1111111 /
b1111111 8
b1000000 )
b1000000 .
b1000000 ;
b111110 4
b1111111 7
b0 :
b111111 =
b1101 3
b1000 6
b1111 9
b0 <
b111110001101 %
b111110001101 -
b1111100011011110111011111010101111001100 &
b1111100011011110111011111010101111001100 >
1'
1#
1"
#146
0#
0"
#147
0'
1#
1"
#148
0#
0"
#149
b1000 ,
b1000 1
b1000 2
b1000001 +
b1000001 0
b1000001 5
b0 *
b0 /
b0 8
b1111111 )
b1111111 .
b1111111 ;
b1110111 4
b111110 7
b1111111 :
b0 =
b1110 3
b1101 6
b1000 9
b1111 <
b1111100011011110 %
b1111100011011110 -
b11111000110111101110111110101011110011000000 &
b11111000110111101110111110101011110011000000 >
1'
1#
1"
#150
0#
0"
#151
0'
1#
1"
#152
0#
0"
#153
b1000 +
b1000 0
b1000 5
b1000001 *
b1000001 /
b1000001 8
b0 )
b0 .
b0 ;
b1110111 7
b111110 :
b1111111 =
b1110 6
b1101 9
b1000 <
b1000110111101110 %
b1000110111101110 -
b10001101111011101111101010111100110000001111 &
b10001101111011101111101010111100110000001111 >
1'
1#
1"
#154
0#
0"
#155
0'
1#
1"
#156
0#
0"
#157
b1111111 ,
b1111111 1
b1111111 2
b1000 *
b1000 /
b1000 8
b1000001 )
b1000001 .
b1000001 ;
b0 4
b1110111 :
b111110 =
b1111 3
b1110 9
b1101 <
b1101111011101111 %
b1101111011101111 -
b11011110111011111010101111001100000011111000 &
b11011110111011111010101111001100000011111000 >
1'
1#
1"
#158
0#
0"
#159
0'
1#
1"
#160
0#
0"
#161
b1001 ,
b1001 1
b1001 2
b1111111 +
b1111111 0
b1111111 5
b1000 )
b1000 .
b1000 ;
b1110110 4
b0 7
b1110111 =
b1 (
b1010 3
b1111 6
b1110 <
b1110111011111010 %
b1110111011111010 -
b11101110111110101011110011000000111110001101 &
b11101110111110101011110011000000111110001101 >
1'
1#
1"
#162
0#
0"
#163
0'
1#
1"
#164
0#
0"
#165
b110 ,
b110 1
b110 2
b1001 +
b1001 0
b1001 5
b1111111 *
b1111111 /
b1111111 8
b1111001 4
b1110110 7
b0 :
b0 (
b1011 3
b1010 6
b1111 9
b1110111110101011 %
b1110111110101011 -
b11101111101010111100110000001111100011011110 &
b11101111101010111100110000001111100011011110 >
1'
1#
1"
#166
0#
0"
#167
0'
1#
1"
#168
0#
0"
#169
b1000111 ,
b1000111 1
b1000111 2
b110 +
b110 0
b110 5
b1001 *
b1001 /
b1001 8
b1111111 )
b1111111 .
b1111111 ;
b111000 4
b1111001 7
b1110110 :
b0 =
b1100 3
b1011 6
b1010 9
b1111 <
b1111101010111100 %
b1111101010111100 -
b11111010101111001100000011111000110111101110 &
b11111010101111001100000011111000110111101110 >
1'
1#
1"
#170
0#
0"
#171
0'
1#
1"
#172
0#
0"
#173
b1000111 +
b1000111 0
b1000111 5
b110 *
b110 /
b110 8
b1001 )
b1001 .
b1001 ;
b111000 7
b1111001 :
b1110110 =
b1100 6
b1011 9
b1010 <
b1010101111001100 %
b1010101111001100 -
b10101011110011000000111110001101111011101111 &
b10101011110011000000111110001101111011101111 >
1'
1#
1"
#174
0#
0"
#175
0'
1#
1"
#176
0#
0"
#177
b1000000 ,
b1000000 1
b1000000 2
b1000111 *
b1000111 /
b1000111 8
b110 )
b110 .
b110 ;
b111111 4
b111000 :
b1111001 =
b0 3
b1100 9
b1011 <
b1011110011000000 %
b1011110011000000 -
b10111100110000001111100011011110111011111010 &
b10111100110000001111100011011110111011111010 >
1'
1#
1"
#178
0#
0"
#179
0'
1#
1"
#180
0#
0"
#181
b1111111 ,
b1111111 1
b1111111 2
b1000000 +
b1000000 0
b1000000 5
b1000111 )
b1000111 .
b1000111 ;
b0 4
b111111 7
b111000 =
b1111 3
b0 6
b1100 <
b1100110000001111 %
b1100110000001111 -
b11001100000011111000110111101110111110101011 &
b11001100000011111000110111101110111110101011 >
1'
1#
1"
#182
0#
0"
#183
0'
1#
1"
#184
0#
0"
#185
b0 ,
b0 1
b0 2
b1111111 +
b1111111 0
b1111111 5
b1000000 *
b1000000 /
b1000000 8
b1111111 4
b0 7
b111111 :
b1000 3
b1111 6
b0 9
b1100000011111000 %
b1100000011111000 -
b11000000111110001101111011101111101010111100 &
b11000000111110001101111011101111101010111100 >
1'
1#
1"
#186
0#
0"
#187
0'
1#
1"
#188
0#
0"
#189
b1000001 ,
b1000001 1
b1000001 2
b0 +
b0 0
b0 5
b1111111 *
b1111111 /
b1111111 8
b1000000 )
b1000000 .
b1000000 ;
b111110 4
b1111111 7
b0 :
b111111 =
b1101 3
b1000 6
b1111 9
b0 <
b111110001101 %
b111110001101 -
b1111100011011110111011111010101111001100 &
b1111100011011110111011111010101111001100 >
1'
1#
1"
#190
0#
0"
#191
0'
1#
1"
#192
0#
0"
#193
b1000 ,
b1000 1
b1000 2
b1000001 +
b1000001 0
b1000001 5
b0 *
b0 /
b0 8
b1111111 )
b1111111 .
b1111111 ;
b1110111 4
b111110 7
b1111111 :
b0 =
b1110 3
b1101 6
b1000 9
b1111 <
b1111100011011110 %
b1111100011011110 -
b11111000110111101110111110101011110011000000 &
b11111000110111101110111110101011110011000000 >
1'
1#
1"
#194
0#
0"
#195
0'
1#
1"
#196
0#
0"
#197
b1000 +
b1000 0
b1000 5
b1000001 *
b1000001 /
b1000001 8
b0 )
b0 .
b0 ;
b1110111 7
b111110 :
b1111111 =
b1110 6
b1101 9
b1000 <
b1000110111101110 %
b1000110111101110 -
b10001101111011101111101010111100110000001111 &
b10001101111011101111101010111100110000001111 >
1'
1#
1"
#198
0#
0"
#199
0'
1#
1"
#200
0#
0"
#201
b1111111 ,
b1111111 1
b1111111 2
b1000 *
b1000 /
b1000 8
b1000001 )
b1000001 .
b1000001 ;
b0 4
b1110111 :
b111110 =
b1111 3
b1110 9
b1101 <
b1101111011101111 %
b1101111011101111 -
b11011110111011111010101111001100000011111000 &
b11011110111011111010101111001100000011111000 >
1'
1#
1"
#202
0#
0"
#203
0'
1#
1"
#204
0#
0"
#205
b1001 ,
b1001 1
b1001 2
b1111111 +
b1111111 0
b1111111 5
b1000 )
b1000 .
b1000 ;
b1110110 4
b0 7
b1110111 =
b1 (
b1010 3
b1111 6
b1110 <
b1110111011111010 %
b1110111011111010 -
b11101110111110101011110011000000111110001101 &
b11101110111110101011110011000000111110001101 >
1'
1#
1"
#206
0#
0"
#207
0'
1#
1"
#208
0#
0"
#209
b110 ,
b110 1
b110 2
b1001 +
b1001 0
b1001 5
b1111111 *
b1111111 /
b1111111 8
b1111001 4
b1110110 7
b0 :
b0 (
b1011 3
b1010 6
b1111 9
b1110111110101011 %
b1110111110101011 -
b11101111101010111100110000001111100011011110 &
b11101111101010111100110000001111100011011110 >
1'
1#
1"
#210
0#
0"
#211
0'
1#
1"
#212
0#
0"
#213
b1000111 ,
b1000111 1
b1000111 2
b110 +
b110 0
b110 5
b1001 *
b1001 /
b1001 8
b1111111 )
b1111111 .
b1111111 ;
b111000 4
b1111001 7
b1110110 :
b0 =
b1100 3
b1011 6
b1010 9
b1111 <
b1111101010111100 %
b1111101010111100 -
b11111010101111001100000011111000110111101110 &
b11111010101111001100000011111000110111101110 >
1'
1#
1"
#214
0#
0"
#215
0'
1#
1"
#216
0#
0"
#217
b1000111 +
b1000111 0
b1000111 5
b110 *
b110 /
b110 8
b1001 )
b1001 .
b1001 ;
b111000 7
b1111001 :
b1110110 =
b1100 6
b1011 9
b1010 <
b1010101111001100 %
b1010101111001100 -
b10101011110011000000111110001101111011101111 &
b10101011110011000000111110001101111011101111 >
1'
1#
1"
#218
0#
0"
#219
0'
1#
1"
#220
0#
0"
#221
b1000000 ,
b1000000 1
b1000000 2
b1000111 *
b1000111 /
b1000111 8
b110 )
b110 .
b110 ;
b111111 4
b111000 :
b1111001 =
b0 3
b1100 9
b1011 <
b1011110011000000 %
b1011110011000000 -
b10111100110000001111100011011110111011111010 &
b10111100110000001111100011011110111011111010 >
1'
1#
1"
#222
0#
0"
#223
0'
1#
1"
#224
0#
0"
#225
b1111111 ,
b1111111 1
b1111111 2
b1000000 +
b1000000 0
b1000000 5
b1000111 )
b1000111 .
b1000111 ;
b0 4
b111111 7
b111000 =
b1111 3
b0 6
b1100 <
b1100110000001111 %
b1100110000001111 -
b11001100000011111000110111101110111110101011 &
b11001100000011111000110111101110111110101011 >
1'
1#
1"
#226
0#
0"
#227
0'
1#
1"
#228
0#
0"
#229
b0 ,
b0 1
b0 2
b1111111 +
b1111111 0
b1111111 5
b1000000 *
b1000000 /
b1000000 8
b1111111 4
b0 7
b111111 :
b1000 3
b1111 6
b0 9
b1100000011111000 %
b1100000011111000 -
b11000000111110001101111011101111101010111100 &
b11000000111110001101111011101111101010111100 >
1'
1#
1"
#230
0#
0"
#231
0'
1#
1"
#232
0#
0"
#233
b1000001 ,
b1000001 1
b1000001 2
b0 +
b0 0
b0 5
b1111111 *
b1111111 /
b1111111 8
b1000000 )
b1000000 .
b1000000 ;
b111110 4
b1111111 7
b0 :
b111111 =
b1101 3
b1000 6
b1111 9
b0 <
b111110001101 %
b111110001101 -
b1111100011011110111011111010101111001100 &
b1111100011011110111011111010101111001100 >
1'
1#
1"
#234
0#
0"
#235
0'
1#
1"
#236
0#
0"
#237
b1000 ,
b1000 1
b1000 2
b1000001 +
b1000001 0
b1000001 5
b0 *
b0 /
b0 8
b1111111 )
b1111111 .
b1111111 ;
b1110111 4
b111110 7
b1111111 :
b0 =
b1110 3
b1101 6
b1000 9
b1111 <
b1111100011011110 %
b1111100011011110 -
b11111000110111101110111110101011110011000000 &
b11111000110111101110111110101011110011000000 >
1'
1#
1"
#238
0#
0"
#239
0'
1#
1"
#240
0#
0"
#241
b1000 +
b1000 0
b1000 5
b1000001 *
b1000001 /
b1000001 8
b0 )
b0 .
b0 ;
b1110111 7
b111110 :
b1111111 =
b1110 6
b1101 9
b1000 <
b1000110111101110 %
b1000110111101110 -
b10001101111011101111101010111100110000001111 &
b10001101111011101111101010111100110000001111 >
1'
1#
1"
#242
0#
0"
#243
0'
1#
1"
#244
0#
0"
#245
b1111111 ,
b1111111 1
b1111111 2
b1000 *
b1000 /
b1000 8
b1000001 )
b1000001 .
b1000001 ;
b0 4
b1110111 :
b111110 =
b1111 3
b1110 9
b1101 <
b1101111011101111 %
b1101111011101111 -
b11011110111011111010101111001100000011111000 &
b11011110111011111010101111001100000011111000 >
1'
1#
1"
#246
0#
0"
#247
0'
1#
1"
#248
0#
0"
#249
b1001 ,
b1001 1
b1001 2
b1111111 +
b1111111 0
b1111111 5
b1000 )
b1000 .
b1000 ;
b1110110 4
b0 7
b1110111 =
b1 (
b1010 3
b1111 6
b1110 <
b1110111011111010 %
b1110111011111010 -
b11101110111110101011110011000000111110001101 &
b11101110111110101011110011000000111110001101 >
1'
1#
1"
#250
0#
0"
#251
0'
1#
1"
#252
0#
0"
#253
b110 ,
b110 1
b110 2
b1001 +
b1001 0
b1001 5
b1111111 *
b1111111 /
b1111111 8
b1111001 4
b1110110 7
b0 :
b0 (
b1011 3
b1010 6
b1111 9
b1110111110101011 %
b1110111110101011 -
b11101111101010111100110000001111100011011110 &
b11101111101010111100110000001111100011011110 >
1'
1#
1"
#254
0#
0"
#255
0'
1#
1"
#256
0#
0"
#257
b1000111 ,
b1000111 1
b1000111 2
b110 +
b110 0
b110 5
b1001 *
b1001 /
b1001 8
b1111111 )
b1111111 .
b1111111 ;
b111000 4
b1111001 7
b1110110 :
b0 =
b1100 3
b1011 6
b1010 9
b1111 <
b1111101010111100 %
b1111101010111100 -
b11111010101111001100000011111000110111101110 &
b11111010101111001100000011111000110111101110 >
1'
1#
1"
#258
0#
0"
#259
0'
1#
1"
#260
0#
0"
#261
b1000111 +
b1000111 0
b1000111 5
b110 *
b110 /
b110 8
b1001 )
b1001 .
b1001 ;
b111000 7
b1111001 :
b1110110 =
b1100 6
b1011 9
b1010 <
b1010101111001100 %
b1010101111001100 -
b10101011110011000000111110001101111011101111 &
b10101011110011000000111110001101111011101111 >
1'
1#
1"
#262
0#
0"
#263
0'
1#
1"
#264
0#
0"
#265
b1000000 ,
b1000000 1
b1000000 2
b1000111 *
b1000111 /
b1000111 8
b110 )
b110 .
b110 ;
b111111 4
b111000 :
b1111001 =
b0 3
b1100 9
b1011 <
b1011110011000000 %
b1011110011000000 -
b10111100110000001111100011011110111011111010 &
b10111100110000001111100011011110111011111010 >
1'
1#
1"
#266
0#
0"
#267
0'
1#
1"
#268
0#
0"
#269
b1111111 ,
b1111111 1
b1111111 2
b1000000 +
b1000000 0
b1000000 5
b1000111 )
b1000111 .
b1000111 ;
b0 4
b111111 7
b111000 =
b1111 3
b0 6
b1100 <
b1100110000001111 %
b1100110000001111 -
b11001100000011111000110111101110111110101011 &
b11001100000011111000110111101110111110101011 >
1'
1#
1"
