homework/homework11/04time/test.vcd
$date
	Thu Nov 19 09:01:04 2020
$end
$version
	Icarus Verilog
$end
$timescale
	1s
$end
$scope module test $end
$var reg 18 ! SW [17:0] $end
$var reg 1 " clk $end
$scope module u $end
$var wire 1 " CLOCK_50 $end
$var wire 18 # SW [17:0] $end
$var wire 1 $ tik_s $end
$var wire 1 % tik_ms $end
$var wire 1 & tik_min $end
$var wire 10 ' sum_s [9:0] $end
$var wire 10 ( sum_ms [9:0] $end
$var wire 10 ) sum_min [9:0] $end
$var wire 1 * reset $end
$var wire 4 + bcd_s_100 [3:0] $end
$var wire 4 , bcd_s_10 [3:0] $end
$var wire 4 - bcd_s_1 [3:0] $end
$var wire 4 . bcd_ms_100 [3:0] $end
$var wire 4 / bcd_ms_10 [3:0] $end
$var wire 4 0 bcd_ms_1 [3:0] $end
$var wire 4 1 bcd_min_100 [3:0] $end
$var wire 4 2 bcd_min_10 [3:0] $end
$var wire 4 3 bcd_min_1 [3:0] $end
$var wire 7 4 HEX7 [6:0] $end
$var wire 7 5 HEX6 [6:0] $end
$var wire 7 6 HEX5 [6:0] $end
$var wire 7 7 HEX4 [6:0] $end
$var wire 7 8 HEX3 [6:0] $end
$var wire 7 9 HEX2 [6:0] $end
$var wire 7 : HEX1 [6:0] $end
$var wire 7 ; HEX0 [6:0] $end
$scope module u_bcd_min $end
$var wire 4 < bcd_hun [3:0] $end
$var wire 10 = bin [9:0] $end
$var wire 4 > bcd_ten [3:0] $end
$var wire 4 ? bcd_one [3:0] $end
$var reg 4 @ bcd_hun_r [3:0] $end
$var reg 4 A bcd_one_r [3:0] $end
$var reg 4 B bcd_ten_r [3:0] $end
$var reg 10 C bin_r [9:0] $end
$var integer 32 D i [31:0] $end
$scope task check_all $end
$upscope $end
$scope task init_all $end
$upscope $end
$scope task shift_all $end
$upscope $end
$upscope $end
$scope module u_bcd_ms $end
$var wire 10 E bin [9:0] $end
$var wire 4 F bcd_ten [3:0] $end
$var wire 4 G bcd_one [3:0] $end
$var wire 4 H bcd_hun [3:0] $end
$var reg 4 I bcd_hun_r [3:0] $end
$var reg 4 J bcd_one_r [3:0] $end
$var reg 4 K bcd_ten_r [3:0] $end
$var reg 10 L bin_r [9:0] $end
$var integer 32 M i [31:0] $end
$scope task check_all $end
$upscope $end
$scope task init_all $end
$upscope $end
$scope task shift_all $end
$upscope $end
$upscope $end
$scope module u_bcd_s $end
$var wire 4 N bcd_hun [3:0] $end
$var wire 10 O bin [9:0] $end
$var wire 4 P bcd_ten [3:0] $end
$var wire 4 Q bcd_one [3:0] $end
$var reg 4 R bcd_hun_r [3:0] $end
$var reg 4 S bcd_one_r [3:0] $end
$var reg 4 T bcd_ten_r [3:0] $end
$var reg 10 U bin_r [9:0] $end
$var integer 32 V i [31:0] $end
$scope task check_all $end
$upscope $end
$scope task init_all $end
$upscope $end
$scope task shift_all $end
$upscope $end
$upscope $end
$scope module u_cnt_min $end
$var wire 1 * reset $end
$var wire 1 % to_cnt $end
$var reg 10 W sum [9:0] $end
$upscope $end
$scope module u_cnt_ms $end
$var wire 1 * reset $end
$var wire 1 % to_cnt $end
$var reg 10 X sum [9:0] $end
$upscope $end
$scope module u_cnt_s $end
$var wire 1 * reset $end
$var wire 1 % to_cnt $end
$var reg 10 Y sum [9:0] $end
$upscope $end
$scope module u_dec_min_s $end
$var wire 16 Z SW [15:0] $end
$var wire 7 [ HEX3 [6:0] $end
$var wire 7 \ HEX2 [6:0] $end
$var wire 7 ] HEX1 [6:0] $end
$var wire 7 ^ HEX0 [6:0] $end
$scope module u1 $end
$var wire 7 _ HEX0 [6:0] $end
$var wire 4 ` SW [3:0] $end
$var reg 7 a HEX [6:0] $end
$upscope $end
$scope module u2 $end
$var wire 7 b HEX0 [6:0] $end
$var wire 4 c SW [3:0] $end
$var reg 7 d HEX [6:0] $end
$upscope $end
$scope module u3 $end
$var wire 7 e HEX0 [6:0] $end
$var wire 4 f SW [3:0] $end
$var reg 7 g HEX [6:0] $end
$upscope $end
$scope module u4 $end
$var wire 7 h HEX0 [6:0] $end
$var wire 4 i SW [3:0] $end
$var reg 7 j HEX [6:0] $end
$upscope $end
$upscope $end
$scope module u_dec_ms $end
$var wire 16 k SW [15:0] $end
$var wire 7 l HEX3 [6:0] $end
$var wire 7 m HEX2 [6:0] $end
$var wire 7 n HEX1 [6:0] $end
$var wire 7 o HEX0 [6:0] $end
$scope module u1 $end
$var wire 7 p HEX0 [6:0] $end
$var wire 4 q SW [3:0] $end
$var reg 7 r HEX [6:0] $end
$upscope $end
$scope module u2 $end
$var wire 7 s HEX0 [6:0] $end
$var wire 4 t SW [3:0] $end
$var reg 7 u HEX [6:0] $end
$upscope $end
$scope module u3 $end
$var wire 7 v HEX0 [6:0] $end
$var wire 4 w SW [3:0] $end
$var reg 7 x HEX [6:0] $end
$upscope $end
$scope module u4 $end
$var wire 7 y HEX0 [6:0] $end
$var wire 4 z SW [3:0] $end
$var reg 7 { HEX [6:0] $end
$upscope $end
$upscope $end
$scope module u_tik_min $end
$var wire 1 * reset $end
$var wire 1 $ CLOCK_50 $end
$var reg 32 | cnt [31:0] $end
$var reg 1 & tik $end
$upscope $end
$scope module u_tik_ms $end
$var wire 1 " CLOCK_50 $end
$var wire 1 * reset $end
$var reg 32 } cnt [31:0] $end
$var reg 1 % tik $end
$upscope $end
$scope module u_tik_s $end
$var wire 1 % CLOCK_50 $end
$var wire 1 * reset $end
$var reg 32 ~ cnt [31:0] $end
$var reg 1 $ tik $end
$upscope $end
$upscope $end
$upscope $end
$enddefinitions $end
#0
$dumpvars
b0 ~
b0 }
b0 |
b0 {
b1111 z
b1111111 y
b111111 x
b0 w
b1000000 v
b111111 u
b0 t
b1000000 s
b111111 r
b0 q
b1000000 p
b1000000 o
b1000000 n
b1000000 m
b1111111 l
b1111000000000000 k
b111111 j
b0 i
b1000000 h
b111111 g
b0 f
b1000000 e
b111111 d
b0 c
b1000000 b
b111111 a
b0 `
b1000000 _
b1000000 ^
b1000000 ]
b1000000 \
b1000000 [
b0 Z
b0 Y
b0 X
b0 W
b1010 V
b0 U
b0 T
b0 S
b0 R
b0 Q
b0 P
b0 O
b0 N
b1010 M
b0 L
b0 K
b0 J
b0 I
b0 H
b0 G
b0 F
b0 E
b1010 D
b0 C
b0 B
b0 A
b0 @
b0 ?
b0 >
b0 =
b0 <
b1000000 ;
b1000000 :
b1000000 9
b1111111 8
b1000000 7
b1000000 6
b1000000 5
b1000000 4
b0 3
b0 2
b0 1
b0 0
b0 /
b0 .
b0 -
b0 ,
b0 +
1*
b0 )
b0 (
b0 '
0&
0%
0$
b1xxxxxxxxxxxxxxxxx #
0"
b1xxxxxxxxxxxxxxxxx !
$end
#1
0*
b0xxxxxxxxxxxxxxxxx !
b0xxxxxxxxxxxxxxxxx #
1"
#2
0"
#3
b1111001 5
b1111001 \
b1111001 e
b1111001 7
b1111001 ^
b1111001 _
b1111001 ;
b1111001 o
b1111001 p
b110 g
b110 a
b110 r
b1 f
b1 `
b1 q
b1 3
b1 ?
b1 A
b1010 D
b0 C
b100000001 Z
b1 -
b1 Q
b1 S
b1010 V
b0 U
b1111000000000001 k
b1 0
b1 G
b1 J
b1010 M
b0 L
b1 )
b1 =
b1 W
b1 '
b1 O
b1 Y
b1 (
b1 E
b1 X
b1 ~
1%
1"
#4
0"
#5
0%
1"
#6
0"
#7
b1 |
b100100 ;
b100100 o
b100100 p
b100100 7
b100100 ^
b100100 _
b100100 5
b100100 \
b100100 e
b1011011 r
b1011011 a
b1011011 g
b10 q
b10 `
b10 f
b1010 M
b1111000000000010 k
b10 0
b10 G
b10 J
b0 L
b1010 V
b10 -
b10 Q
b10 S
b0 U
b1010 D
b1000000010 Z
b10 3
b10 ?
b10 A
b0 C
1$
b0 ~
b10 (
b10 E
b10 X
b10 '
b10 O
b10 Y
b10 )
b10 =
b10 W
1%
1"
#8
0"
#9
0%
1"
#10
0"
#11
b110000 5
b110000 \
b110000 e
b110000 7
b110000 ^
b110000 _
b110000 ;
b110000 o
b110000 p
b1001111 g
b1001111 a
b1001111 r
b11 f
b11 `
b11 q
b1010 D
b11 3
b11 ?
b11 A
b0 C
b1010 V
b1100000011 Z
b11 -
b11 Q
b11 S
b0 U
b1010 M
b1111000000000011 k
b11 0
b11 G
b11 J
b0 L
b11 )
b11 =
b11 W
b11 '
b11 O
b11 Y
b11 (
b11 E
b11 X
b1 ~
1%
1"
#12
0"
#13
0%
1"
#14
0"
#15
b1000000 ;
b1000000 o
b1000000 p
b11001 7
b11001 ^
b11001 _
b11001 5
b11001 \
b11001 e
b111111 r
b1100110 a
b1100110 g
b0 q
b100 `
b100 f
b1010 M
b1111000000000000 k
b0 0
b0 G
b0 J
b1010 V
b100 -
b100 Q
b100 S
b0 U
b1010 D
b10000000100 Z
b100 3
b100 ?
b100 A
b0 C
0$
b0 ~
b0 (
b0 E
b0 X
b100 '
b100 O
b100 Y
b100 )
b100 =
b100 W
1%
1"
#16
0"
#17
0%
1"
#18
0"
#19
b10010 5
b10010 \
b10010 e
b10010 7
b10010 ^
b10010 _
b1111001 ;
b1111001 o
b1111001 p
b1101101 g
b1101101 a
b110 r
b101 f
b101 `
b1 q
b1010 D
b101 3
b101 ?
b101 A
b0 C
b1010 V
b10100000101 Z
b101 -
b101 Q
b101 S
b0 U
b1111000000000001 k
b1 0
b1 G
b1 J
b1010 M
b0 L
b101 )
b101 =
b101 W
b101 '
b101 O
b101 Y
b1 (
b1 E
b1 X
b1 ~
1%
1"
#20
0"
#21
0%
1"
#22
0"
#23
1&
b0 |
b100100 ;
b100100 o
b100100 p
b10 7
b10 ^
b10 _
b10 5
b10 \
b10 e
b1011011 r
b1111101 a
b1111101 g
b10 q
b110 `
b110 f
b1010 M
b1111000000000010 k
b10 0
b10 G
b10 J
b0 L
b1010 V
b110 -
b110 Q
b110 S
b0 U
b1010 D
b11000000110 Z
b110 3
b110 ?
b110 A
b0 C
1$
b0 ~
b10 (
b10 E
b10 X
b110 '
b110 O
b110 Y
b110 )
b110 =
b110 W
1%
1"
#24
0"
#25
0%
1"
#26
0"
#27
b1111000 5
b1111000 \
b1111000 e
b1111000 7
b1111000 ^
b1111000 _
b110000 ;
b110000 o
b110000 p
b111 g
b111 a
b1001111 r
b111 f
b111 `
b11 q
b1010 D
b111 3
b111 ?
b111 A
b0 C
b1010 V
b11100000111 Z
b111 -
b111 Q
b111 S
b0 U
b1010 M
b1111000000000011 k
b11 0
b11 G
b11 J
b0 L
b111 )
b111 =
b111 W
b111 '
b111 O
b111 Y
b11 (
b11 E
b11 X
b1 ~
1%
1"
#28
0"
#29
0%
1"
#30
0"
#31
b1000000 ;
b1000000 o
b1000000 p
b0 7
b0 ^
b0 _
b0 5
b0 \
b0 e
b111111 r
b1111111 a
b1111111 g
b0 q
b1000 `
b1000 f
b1010 M
b1111000000000000 k
b0 0
b0 G
b0 J
b1010 V
b1000 -
b1000 Q
b1000 S
b0 U
b1010 D
b100000001000 Z
b1000 3
b1000 ?
b1000 A
b0 C
0$
b0 ~
b0 (
b0 E
b0 X
b1000 '
b1000 O
b1000 Y
b1000 )
b1000 =
b1000 W
1%
1"
#32
0"
#33
0%
1"
#34
0"
#35
b10000 5
b10000 \
b10000 e
b10000 7
b10000 ^
b10000 _
b1111001 ;
b1111001 o
b1111001 p
b1101111 g
b1101111 a
b110 r
b1001 f
b1001 `
b1 q
b1010 D
b1001 3
b1001 ?
b1001 A
b0 C
b1010 V
b100100001001 Z
b1001 -
b1001 Q
b1001 S
b0 U
b1111000000000001 k
b1 0
b1 G
b1 J
b1010 M
b0 L
b1001 )
b1001 =
b1001 W
b1001 '
b1001 O
b1001 Y
b1 (
b1 E
b1 X
b1 ~
1%
1"
#36
0"
#37
0%
1"
#38
0"
#39
b1 |
b100100 ;
b100100 o
b100100 p
b1111001 6
b1111001 ]
b1111001 b
b1000000 7
b1000000 ^
b1000000 _
b1111001 4
b1111001 [
b1111001 h
b1000000 5
b1000000 \
b1000000 e
b1011011 r
b110 d
b111111 a
b110 j
b111111 g
b10 q
b1 c
b0 `
b1 i
b0 f
b1010 M
b1111000000000010 k
b10 0
b10 G
b10 J
b0 L
b1 ,
b1 P
b1 T
b1010 V
b0 -
b0 Q
b0 S
b0 U
b1 2
b1 >
b1 B
b1010 D
b1000000010000 Z
b0 3
b0 ?
b0 A
b0 C
1$
b0 ~
b10 (
b10 E
b10 X
b1010 '
b1010 O
b1010 Y
b1010 )
b1010 =
b1010 W
1%
1"
#40
0"
#41
0%
1"
#42
0"
#43
b1111001 5
b1111001 \
b1111001 e
b1111001 7
b1111001 ^
b1111001 _
b110000 ;
b110000 o
b110000 p
b110 g
b110 a
b1001111 r
b1 f
b1 `
b11 q
b1 3
b1 ?
b1 A
b1010 D
b1 2
b1 >
b1 B
b0 C
b1 -
b1 Q
b1 S
b1010 V
b1000100010001 Z
b1 ,
b1 P
b1 T
b0 U
b1010 M
b1111000000000011 k
b11 0
b11 G
b11 J
b0 L
b1011 )
b1011 =
b1011 W
b1011 '
b1011 O
b1011 Y
b11 (
b11 E
b11 X
b1 ~
1%
1"
#44
0"
#45
0%
1"
#46
0"
#47
b1000000 ;
b1000000 o
b1000000 p
b100100 7
b100100 ^
b100100 _
b100100 5
b100100 \
b100100 e
b111111 r
b1011011 a
b1011011 g
b0 q
b10 `
b10 f
b1010 M
b1111000000000000 k
b0 0
b0 G
b0 J
b1010 V
b10 -
b10 Q
b10 S
b1 ,
b1 P
b1 T
b0 U
b1010 D
b10 3
b10 ?
b10 A
b1001000010010 Z
b1 2
b1 >
b1 B
b0 C
0$
b0 ~
b0 (
b0 E
b0 X
b1100 '
b1100 O
b1100 Y
b1100 )
b1100 =
b1100 W
1%
1"
#48
0"
#49
0%
1"
#50
0"
#51
b110000 5
b110000 \
b110000 e
b110000 7
b110000 ^
b110000 _
b1111001 ;
b1111001 o
b1111001 p
b1001111 g
b1001111 a
b110 r
b11 f
b11 `
b1 q
b1010 D
b11 3
b11 ?
b11 A
b1 2
b1 >
b1 B
b0 C
b1010 V
b11 -
b11 Q
b11 S
b1001100010011 Z
b1 ,
b1 P
b1 T
b0 U
b1111000000000001 k
b1 0
b1 G
b1 J
b1010 M
b0 L
b1101 )
b1101 =
b1101 W
b1101 '
b1101 O
b1101 Y
b1 (
b1 E
b1 X
b1 ~
1%
1"
#52
0"
#53
0%
1"
#54
0"
#55
0&
b0 |
b100100 ;
b100100 o
b100100 p
b11001 7
b11001 ^
b11001 _
b11001 5
b11001 \
b11001 e
b1011011 r
b1100110 a
b1100110 g
b10 q
b100 `
b100 f
b1010 M
b1111000000000010 k
b10 0
b10 G
b10 J
b0 L
b1010 V
b100 -
b100 Q
b100 S
b1 ,
b1 P
b1 T
b0 U
b1010 D
b100 3
b100 ?
b100 A
b1010000010100 Z
b1 2
b1 >
b1 B
b0 C
1$
b0 ~
b10 (
b10 E
b10 X
b1110 '
b1110 O
b1110 Y
b1110 )
b1110 =
b1110 W
1%
1"
#56
0"
#57
0%
1"
#58
0"
#59
b10010 5
b10010 \
b10010 e
b10010 7
b10010 ^
b10010 _
b110000 ;
b110000 o
b110000 p
b1101101 g
b1101101 a
b1001111 r
b101 f
b101 `
b11 q
b1010 D
b101 3
b101 ?
b101 A
b1 2
b1 >
b1 B
b0 C
b1010 V
b101 -
b101 Q
b101 S
b1010100010101 Z
b1 ,
b1 P
b1 T
b0 U
b1010 M
b1111000000000011 k
b11 0
b11 G
b11 J
b0 L
b1111 )
b1111 =
b1111 W
b1111 '
b1111 O
b1111 Y
b11 (
b11 E
b11 X
b1 ~
1%
1"
#60
0"
#61
0%
1"
#62
0"
#63
b1000000 ;
b1000000 o
b1000000 p
b1000000 7
b1000000 ^
b1000000 _
b1000000 6
b1000000 ]
b1000000 b
b10 5
b10 \
b10 e
b111111 r
b111111 a
b111111 d
b1111101 g
b0 q
b0 `
b0 c
b110 f
b1010 M
b1111000000000000 k
b0 0
b0 G
b0 J
b1010 V
b0 -
b0 Q
b0 S
b0 ,
b0 P
b0 T
b1010 D
b110 3
b110 ?
b110 A
b1011000000000 Z
b1 2
b1 >
b1 B
b0 C
0$
b0 ~
b0 (
b0 E
b0 X
b0 '
b0 O
b0 Y
b10000 )
b10000 =
b10000 W
1%
1"
#64
0"
#65
0%
1"
#66
0"
#67
b1111000 5
b1111000 \
b1111000 e
b1111001 7
b1111001 ^
b1111001 _
b1111001 ;
b1111001 o
b1111001 p
b111 g
b110 a
b110 r
b111 f
b1 `
b1 q
b1010 D
b111 3
b111 ?
b111 A
b1 2
b1 >
b1 B
b0 C
b1011100000001 Z
b1 -
b1 Q
b1 S
b1010 V
b0 U
b1111000000000001 k
b1 0
b1 G
b1 J
b1010 M
b0 L
b10001 )
b10001 =
b10001 W
b1 '
b1 O
b1 Y
b1 (
b1 E
b1 X
b1 ~
1%
1"
#68
0"
#69
0%
1"
#70
0"
#71
b1 |
b100100 ;
b100100 o
b100100 p
b100100 7
b100100 ^
b100100 _
b0 5
b0 \
b0 e
b1011011 r
b1011011 a
b1111111 g
b10 q
b10 `
b1000 f
b1010 M
b1111000000000010 k
b10 0
b10 G
b10 J
b0 L
b1010 V
b10 -
b10 Q
b10 S
b0 U
b1010 D
b1000 3
b1000 ?
b1000 A
b1100000000010 Z
b1 2
b1 >
b1 B
b0 C
1$
b0 ~
b10 (
b10 E
b10 X
b10 '
b10 O
b10 Y
b10010 )
b10010 =
b10010 W
1%
1"
#72
0"
#73
0%
1"
#74
0"
#75
b10000 5
b10000 \
b10000 e
b110000 7
b110000 ^
b110000 _
b110000 ;
b110000 o
b110000 p
b1101111 g
b1001111 a
b1001111 r
b1001 f
b11 `
b11 q
b1010 D
b1001 3
b1001 ?
b1001 A
b1 2
b1 >
b1 B
b0 C
b1010 V
b1100100000011 Z
b11 -
b11 Q
b11 S
b0 U
b1010 M
b1111000000000011 k
b11 0
b11 G
b11 J
b0 L
b10011 )
b10011 =
b10011 W
b11 '
b11 O
b11 Y
b11 (
b11 E
b11 X
b1 ~
1%
1"
#76
0"
#77
0%
1"
#78
0"
#79
b1000000 ;
b1000000 o
b1000000 p
b11001 7
b11001 ^
b11001 _
b1000000 5
b1000000 \
b1000000 e
b100100 4
b100100 [
b100100 h
b111111 r
b1100110 a
b111111 g
b1011011 j
b0 q
b100 `
b0 f
b10 i
b1010 M
b1111000000000000 k
b0 0
b0 G
b0 J
b1010 V
b100 -
b100 Q
b100 S
b0 U
b1010 D
b0 3
b0 ?
b0 A
b10000000000100 Z
b10 2
b10 >
b10 B
b0 C
0$
b0 ~
b0 (
b0 E
b0 X
b100 '
b100 O
b100 Y
b10100 )
b10100 =
b10100 W
1%
1"
#80
0"
#81
0%
1"
#82
0"
#83
b1111001 5
b1111001 \
b1111001 e
b10010 7
b10010 ^
b10010 _
b1111001 ;
b1111001 o
b1111001 p
b110 g
b1101101 a
b110 r
b1 f
b101 `
b1 q
b1 3
b1 ?
b1 A
b1010 D
b10 2
b10 >
b10 B
b0 C
b1010 V
b10000100000101 Z
b101 -
b101 Q
b101 S
b0 U
b1111000000000001 k
b1 0
b1 G
b1 J
b1010 M
b0 L
b10101 )
b10101 =
b10101 W
b101 '
b101 O
b101 Y
b1 (
b1 E
b1 X
b1 ~
1%
1"
#84
0"
#85
0%
1"
#86
0"
#87
1&
b0 |
b100100 ;
b100100 o
b100100 p
b10 7
b10 ^
b10 _
b100100 5
b100100 \
b100100 e
b1011011 r
b1111101 a
b1011011 g
b10 q
b110 `
b10 f
b1010 M
b1111000000000010 k
b10 0
b10 G
b10 J
b0 L
b1010 V
b110 -
b110 Q
b110 S
b0 U
b1010 D
b10 3
b10 ?
b10 A
b10001000000110 Z
b10 2
b10 >
b10 B
b0 C
1$
b0 ~
b10 (
b10 E
b10 X
b110 '
b110 O
b110 Y
b10110 )
b10110 =
b10110 W
1%
1"
#88
0"
#89
0%
1"
#90
0"
#91
b110000 5
b110000 \
b110000 e
b1111000 7
b1111000 ^
b1111000 _
b110000 ;
b110000 o
b110000 p
b1001111 g
b111 a
b1001111 r
b11 f
b111 `
b11 q
b1010 D
b11 3
b11 ?
b11 A
b10 2
b10 >
b10 B
b0 C
b1010 V
b10001100000111 Z
b111 -
b111 Q
b111 S
b0 U
b1010 M
b1111000000000011 k
b11 0
b11 G
b11 J
b0 L
b10111 )
b10111 =
b10111 W
b111 '
b111 O
b111 Y
b11 (
b11 E
b11 X
b1 ~
1%
1"
#92
0"
#93
0%
1"
#94
0"
#95
b1000000 ;
b1000000 o
b1000000 p
b0 7
b0 ^
b0 _
b11001 5
b11001 \
b11001 e
b111111 r
b1111111 a
b1100110 g
b0 q
b1000 `
b100 f
b1010 M
b1111000000000000 k
b0 0
b0 G
b0 J
b1010 V
b1000 -
b1000 Q
b1000 S
b0 U
b1010 D
b100 3
b100 ?
b100 A
b10010000001000 Z
b10 2
b10 >
b10 B
b0 C
0$
b0 ~
b0 (
b0 E
b0 X
b1000 '
b1000 O
b1000 Y
b11000 )
b11000 =
b11000 W
1%
1"
#96
0"
#97
0%
1"
#98
0"
#99
b10010 5
b10010 \
b10010 e
b10000 7
b10000 ^
b10000 _
b1111001 ;
b1111001 o
b1111001 p
b1101101 g
b1101111 a
b110 r
b101 f
b1001 `
b1 q
b1010 D
b101 3
b101 ?
b101 A
b10 2
b10 >
b10 B
b0 C
b1010 V
b10010100001001 Z
b1001 -
b1001 Q
b1001 S
b0 U
b1111000000000001 k
b1 0
b1 G
b1 J
b1010 M
b0 L
b11001 )
b11001 =
b11001 W
b1001 '
b1001 O
b1001 Y
b1 (
b1 E
b1 X
b1 ~
1%
1"
#100
0"
#101
0%
1"
#102
0"
#103
b1 |
b100100 ;
b100100 o
b100100 p
b1111001 6
b1111001 ]
b1111001 b
b1000000 7
b1000000 ^
b1000000 _
b10 5
b10 \
b10 e
b1011011 r
b110 d
b111111 a
b1111101 g
b10 q
b1 c
b0 `
b110 f
b1010 M
b1111000000000010 k
b10 0
b10 G
b10 J
b0 L
b1 ,
b1 P
b1 T
b1010 V
b0 -
b0 Q
b0 S
b0 U
b1010 D
b110 3
b110 ?
b110 A
b10011000010000 Z
b10 2
b10 >
b10 B
b0 C
1$
b0 ~
b10 (
b10 E
b10 X
b1010 '
b1010 O
b1010 Y
b11010 )
b11010 =
b11010 W
1%
1"
#104
0"
#105
0%
1"
#106
0"
#107
b1111000 5
b1111000 \
b1111000 e
b1111001 7
b1111001 ^
b1111001 _
b110000 ;
b110000 o
b110000 p
b111 g
b110 a
b1001111 r
b111 f
b1 `
b11 q
b1010 D
b111 3
b111 ?
b111 A
b10 2
b10 >
b10 B
b0 C
b1 -
b1 Q
b1 S
b1010 V
b10011100010001 Z
b1 ,
b1 P
b1 T
b0 U
b1010 M
b1111000000000011 k
b11 0
b11 G
b11 J
b0 L
b11011 )
b11011 =
b11011 W
b1011 '
b1011 O
b1011 Y
b11 (
b11 E
b11 X
b1 ~
1%
1"
#108
0"
#109
0%
1"
#110
0"
#111
b1000000 ;
b1000000 o
b1000000 p
b100100 7
b100100 ^
b100100 _
b0 5
b0 \
b0 e
b111111 r
b1011011 a
b1111111 g
b0 q
b10 `
b1000 f
b1010 M
b1111000000000000 k
b0 0
b0 G
b0 J
b1010 V
b10 -
b10 Q
b10 S
b1 ,
b1 P
b1 T
b0 U
b1010 D
b1000 3
b1000 ?
b1000 A
b10100000010010 Z
b10 2
b10 >
b10 B
b0 C
0$
b0 ~
b0 (
b0 E
b0 X
b1100 '
b1100 O
b1100 Y
b11100 )
b11100 =
b11100 W
1%
1"
#112
0"
#113
0%
1"
#114
0"
#115
b10000 5
b10000 \
b10000 e
b110000 7
b110000 ^
b110000 _
b1111001 ;
b1111001 o
b1111001 p
b1101111 g
b1001111 a
b110 r
b1001 f
b11 `
b1 q
b1010 D
b1001 3
b1001 ?
b1001 A
b10 2
b10 >
b10 B
b0 C
b1010 V
b11 -
b11 Q
b11 S
b10100100010011 Z
b1 ,
b1 P
b1 T
b0 U
b1111000000000001 k
b1 0
b1 G
b1 J
b1010 M
b0 L
b11101 )
b11101 =
b11101 W
b1101 '
b1101 O
b1101 Y
b1 (
b1 E
b1 X
b1 ~
1%
1"
#116
0"
#117
0%
1"
#118
0"
#119
0&
b0 |
b100100 ;
b100100 o
b100100 p
b11001 7
b11001 ^
b11001 _
b1000000 5
b1000000 \
b1000000 e
b110000 4
b110000 [
b110000 h
b1011011 r
b1100110 a
b111111 g
b1001111 j
b10 q
b100 `
b0 f
b11 i
b1010 M
b1111000000000010 k
b10 0
b10 G
b10 J
b0 L
b1010 V
b100 -
b100 Q
b100 S
b1 ,
b1 P
b1 T
b0 U
b1010 D
b0 3
b0 ?
b0 A
b11000000010100 Z
b11 2
b11 >
b11 B
b0 C
1$
b0 ~
b10 (
b10 E
b10 X
b1110 '
b1110 O
b1110 Y
b11110 )
b11110 =
b11110 W
1%
1"
#120
0"
#121
0%
1"
#122
0"
#123
b1111001 5
b1111001 \
b1111001 e
b10010 7
b10010 ^
b10010 _
b110000 ;
b110000 o
b110000 p
b110 g
b1101101 a
b1001111 r
b1 f
b101 `
b11 q
b1 3
b1 ?
b1 A
b1010 D
b11 2
b11 >
b11 B
b0 C
b1010 V
b101 -
b101 Q
b101 S
b11000100010101 Z
b1 ,
b1 P
b1 T
b0 U
b1010 M
b1111000000000011 k
b11 0
b11 G
b11 J
b0 L
b11111 )
b11111 =
b11111 W
b1111 '
b1111 O
b1111 Y
b11 (
b11 E
b11 X
b1 ~
1%
1"
#124
0"
#125
0%
1"
#126
0"
#127
b1000000 ;
b1000000 o
b1000000 p
b1000000 7
b1000000 ^
b1000000 _
b1000000 6
b1000000 ]
b1000000 b
b100100 5
b100100 \
b100100 e
b111111 r
b111111 a
b111111 d
b1011011 g
b0 q
b0 `
b0 c
b10 f
b1010 M
b1111000000000000 k
b0 0
b0 G
b0 J
b1010 V
b0 -
b0 Q
b0 S
b0 ,
b0 P
b0 T
b1010 D
b10 3
b10 ?
b10 A
b11001000000000 Z
b11 2
b11 >
b11 B
b0 C
0$
b0 ~
b0 (
b0 E
b0 X
b0 '
b0 O
b0 Y
b100000 )
b100000 =
b100000 W
1%
1"
#128
0"
#129
0%
1"
#130
0"
#131
b110000 5
b110000 \
b110000 e
b1111001 7
b1111001 ^
b1111001 _
b1111001 ;
b1111001 o
b1111001 p
b1001111 g
b110 a
b110 r
b11 f
b1 `
b1 q
b1010 D
b11 3
b11 ?
b11 A
b11 2
b11 >
b11 B
b0 C
b11001100000001 Z
b1 -
b1 Q
b1 S
b1010 V
b0 U
b1111000000000001 k
b1 0
b1 G
b1 J
b1010 M
b0 L
b100001 )
b100001 =
b100001 W
b1 '
b1 O
b1 Y
b1 (
b1 E
b1 X
b1 ~
1%
1"
#132
0"
#133
0%
1"
#134
0"
#135
b1 |
b100100 ;
b100100 o
b100100 p
b100100 7
b100100 ^
b100100 _
b11001 5
b11001 \
b11001 e
b1011011 r
b1011011 a
b1100110 g
b10 q
b10 `
b100 f
b1010 M
b1111000000000010 k
b10 0
b10 G
b10 J
b0 L
b1010 V
b10 -
b10 Q
b10 S
b0 U
b1010 D
b100 3
b100 ?
b100 A
b11010000000010 Z
b11 2
b11 >
b11 B
b0 C
1$
b0 ~
b10 (
b10 E
b10 X
b10 '
b10 O
b10 Y
b100010 )
b100010 =
b100010 W
1%
1"
#136
0"
#137
0%
1"
#138
0"
#139
b10010 5
b10010 \
b10010 e
b110000 7
b110000 ^
b110000 _
b110000 ;
b110000 o
b110000 p
b1101101 g
b1001111 a
b1001111 r
b101 f
b11 `
b11 q
b1010 D
b101 3
b101 ?
b101 A
b11 2
b11 >
b11 B
b0 C
b1010 V
b11010100000011 Z
b11 -
b11 Q
b11 S
b0 U
b1010 M
b1111000000000011 k
b11 0
b11 G
b11 J
b0 L
b100011 )
b100011 =
b100011 W
b11 '
b11 O
b11 Y
b11 (
b11 E
b11 X
b1 ~
1%
1"
#140
0"
#141
0%
1"
#142
0"
#143
b1000000 ;
b1000000 o
b1000000 p
b11001 7
b11001 ^
b11001 _
b10 5
b10 \
b10 e
b111111 r
b1100110 a
b1111101 g
b0 q
b100 `
b110 f
b1010 M
b1111000000000000 k
b0 0
b0 G
b0 J
b1010 V
b100 -
b100 Q
b100 S
b0 U
b1010 D
b110 3
b110 ?
b110 A
b11011000000100 Z
b11 2
b11 >
b11 B
b0 C
0$
b0 ~
b0 (
b0 E
b0 X
b100 '
b100 O
b100 Y
b100100 )
b100100 =
b100100 W
1%
1"
#144
0"
#145
0%
1"
#146
0"
#147
b1111000 5
b1111000 \
b1111000 e
b10010 7
b10010 ^
b10010 _
b1111001 ;
b1111001 o
b1111001 p
b111 g
b1101101 a
b110 r
b111 f
b101 `
b1 q
b1010 D
b111 3
b111 ?
b111 A
b11 2
b11 >
b11 B
b0 C
b1010 V
b11011100000101 Z
b101 -
b101 Q
b101 S
b0 U
b1111000000000001 k
b1 0
b1 G
b1 J
b1010 M
b0 L
b100101 )
b100101 =
b100101 W
b101 '
b101 O
b101 Y
b1 (
b1 E
b1 X
b1 ~
1%
1"
#148
0"
#149
0%
1"
#150
0"
#151
1&
b0 |
b100100 ;
b100100 o
b100100 p
b10 7
b10 ^
b10 _
b0 5
b0 \
b0 e
b1011011 r
b1111101 a
b1111111 g
b10 q
b110 `
b1000 f
b1010 M
b1111000000000010 k
b10 0
b10 G
b10 J
b0 L
b1010 V
b110 -
b110 Q
b110 S
b0 U
b1010 D
b1000 3
b1000 ?
b1000 A
b11100000000110 Z
b11 2
b11 >
b11 B
b0 C
1$
b0 ~
b10 (
b10 E
b10 X
b110 '
b110 O
b110 Y
b100110 )
b100110 =
b100110 W
1%
1"
#152
0"
#153
0%
1"
