homework/homework12/02light/test.vcd
$date
	Tue Dec  1 08:55:34 2020
$end
$version
	Icarus Verilog
$end
$timescale
	1s
$end
$scope module test $end
$var wire 4 ! light_sn_rgyl [3:0] $end
$var wire 4 " light_ew_rgyl [3:0] $end
$var wire 1 # en $end
$var wire 8 $ cnt_sn [7:0] $end
$var wire 8 % cnt_ew [7:0] $end
$var wire 4 & bcd_sn_10 [3:0] $end
$var wire 4 ' bcd_sn_1 [3:0] $end
$var wire 4 ( bcd_ew_10 [3:0] $end
$var wire 4 ) bcd_ew_1 [3:0] $end
$var reg 1 * clk $end
$var reg 1 + reset $end
$scope module u_bcd_ew $end
$var wire 4 , bcd_hun [3:0] $end
$var wire 4 - bcd_one [3:0] $end
$var wire 4 . bcd_ten [3:0] $end
$var wire 8 / bin [7:0] $end
$var reg 4 0 bcd_hun_r [3:0] $end
$var reg 4 1 bcd_one_r [3:0] $end
$var reg 4 2 bcd_ten_r [3:0] $end
$var reg 8 3 bin_r [7:0] $end
$var integer 32 4 i [31:0] $end
$scope task check_all $end
$upscope $end
$scope task init_all $end
$upscope $end
$scope task shift_all $end
$upscope $end
$upscope $end
$scope module u_bcd_sn $end
$var wire 4 5 bcd_hun [3:0] $end
$var wire 4 6 bcd_one [3:0] $end
$var wire 4 7 bcd_ten [3:0] $end
$var wire 8 8 bin [7:0] $end
$var reg 4 9 bcd_hun_r [3:0] $end
$var reg 4 : bcd_one_r [3:0] $end
$var reg 4 ; bcd_ten_r [3:0] $end
$var reg 8 < bin_r [7:0] $end
$var integer 32 = i [31:0] $end
$scope task check_all $end
$upscope $end
$scope task init_all $end
$upscope $end
$scope task shift_all $end
$upscope $end
$upscope $end
$scope module u_cnt_ew $end
$var wire 1 * clk $end
$var wire 1 + reset $end
$var wire 1 # en $end
$var reg 8 > cnt [7:0] $end
$var reg 4 ? state [3:0] $end
$upscope $end
$scope module u_cnt_sn $end
$var wire 1 * clk $end
$var wire 1 + reset $end
$var wire 1 # en $end
$var reg 8 @ cnt [7:0] $end
$var reg 4 A state [3:0] $end
$upscope $end
$scope module u_light $end
$var wire 1 * clk $end
$var wire 1 + reset $end
$var wire 1 # on $end
$var wire 4 B light_sn_rgyl [3:0] $end
$var wire 4 C light_ew_rgyl [3:0] $end
$var reg 8 D cnt [7:0] $end
$var reg 4 E status [3:0] $end
$upscope $end
$upscope $end
$enddefinitions $end
#0
$dumpvars
b0 E
b0 D
b1000 C
b1000 B
b0 A
b11101 @
b100 ?
b111001 >
b1000 =
b0 <
b10 ;
b1001 :
b0 9
b11101 8
b10 7
b1001 6
b0 5
b1000 4
b0 3
b101 2
b111 1
b0 0
b111001 /
b101 .
b111 -
b0 ,
1+
0*
b111 )
b101 (
b1001 '
b10 &
b111001 %
b11101 $
0#
b1000 "
b1000 !
$end
#1
b1000 =
b1001 '
b1001 6
b1001 :
b10 &
b10 7
b10 ;
b0 <
b1000 4
b111 )
b111 -
b111 1
b101 (
b101 .
b101 2
b0 3
b11101 $
b11101 8
b11101 @
b111001 %
b111001 /
b111001 >
1*
#2
0*
0+
#3
b1000 4
b111 )
b111 -
b111 1
b101 (
b101 .
b101 2
b0 3
b1000 =
b1001 '
b1001 6
b1001 :
b10 &
b10 7
b10 ;
b0 <
b1 D
b111001 %
b111001 /
b111001 >
b11101 $
b11101 8
b11101 @
1*
#4
0*
#5
b1000 =
b1001 '
b1001 6
b1001 :
b10 &
b10 7
b10 ;
b0 <
b1000 4
b111 )
b111 -
b111 1
b101 (
b101 .
b101 2
b0 3
b11101 $
b11101 8
b11101 @
b111001 %
b111001 /
b111001 >
b10 D
1*
#6
0*
#7
b1000 4
b111 )
b111 -
b111 1
b101 (
b101 .
b101 2
b0 3
b1000 =
b1001 '
b1001 6
b1001 :
b10 &
b10 7
b10 ;
b0 <
b100 !
b100 B
1#
b110 E
b0 D
b111001 %
b111001 /
b111001 >
b11101 $
b11101 8
b11101 @
1*
#8
0*
#9
b1000 =
b1000 '
b1000 6
b1000 :
b10 &
b10 7
b10 ;
b0 <
b1000 4
b110 )
b110 -
b110 1
b101 (
b101 .
b101 2
b0 3
b11100 $
b11100 8
b11100 @
b111000 %
b111000 /
b111000 >
b1 D
1*
#10
0*
#11
b1000 4
b101 )
b101 -
b101 1
b101 (
b101 .
b101 2
b0 3
b1000 =
b111 '
b111 6
b111 :
b10 &
b10 7
b10 ;
b0 <
b10 D
b110111 %
b110111 /
b110111 >
b11011 $
b11011 8
b11011 @
1*
#12
0*
#13
b1000 =
b110 '
b110 6
b110 :
b10 &
b10 7
b10 ;
b0 <
b1000 4
b100 )
b100 -
b100 1
b101 (
b101 .
b101 2
b0 3
b11010 $
b11010 8
b11010 @
b110110 %
b110110 /
b110110 >
b11 D
1*
#14
0*
#15
b1000 4
b11 )
b11 -
b11 1
b101 (
b101 .
b101 2
b0 3
b1000 =
b101 '
b101 6
b101 :
b10 &
b10 7
b10 ;
b0 <
b100 D
b110101 %
b110101 /
b110101 >
b11001 $
b11001 8
b11001 @
1*
#16
0*
#17
b1000 =
b100 '
b100 6
b100 :
b10 &
b10 7
b10 ;
b0 <
b1000 4
b10 )
b10 -
b10 1
b101 (
b101 .
b101 2
b0 3
b11000 $
b11000 8
b11000 @
b110100 %
b110100 /
b110100 >
b101 D
1*
#18
0*
#19
b1000 4
b1 )
b1 -
b1 1
b101 (
b101 .
b101 2
b0 3
b1000 =
b11 '
b11 6
b11 :
b10 &
b10 7
b10 ;
b0 <
b110 D
b110011 %
b110011 /
b110011 >
b10111 $
b10111 8
b10111 @
1*
#20
0*
#21
b1000 =
b10 '
b10 6
b10 :
b10 &
b10 7
b10 ;
b0 <
b1000 4
b0 )
b0 -
b0 1
b101 (
b101 .
b101 2
b0 3
b10110 $
b10110 8
b10110 @
b110010 %
b110010 /
b110010 >
b111 D
1*
#22
0*
#23
b1001 )
b1001 -
b1001 1
b1000 4
b100 (
b100 .
b100 2
b0 3
b1000 =
b1 '
b1 6
b1 :
b10 &
b10 7
b10 ;
b0 <
b1000 D
b110001 %
b110001 /
b110001 >
b10101 $
b10101 8
b10101 @
1*
#24
0*
#25
b1000 =
b0 '
b0 6
b0 :
b10 &
b10 7
b10 ;
b0 <
b1000 4
b1000 )
b1000 -
b1000 1
b100 (
b100 .
b100 2
b0 3
b10100 $
b10100 8
b10100 @
b110000 %
b110000 /
b110000 >
b1001 D
1*
#26
0*
#27
b1000 4
b111 )
b111 -
b111 1
b100 (
b100 .
b100 2
b0 3
b1001 '
b1001 6
b1001 :
b1000 =
b1 &
b1 7
b1 ;
b0 <
b1010 D
b101111 %
b101111 /
b101111 >
b10011 $
b10011 8
b10011 @
1*
#28
0*
#29
b1000 =
b1000 '
b1000 6
b1000 :
b1 &
b1 7
b1 ;
b0 <
b1000 4
b110 )
b110 -
b110 1
b100 (
b100 .
b100 2
b0 3
b10010 $
b10010 8
b10010 @
b101110 %
b101110 /
b101110 >
b1011 D
1*
#30
0*
#31
b1000 4
b101 )
b101 -
b101 1
b100 (
b100 .
b100 2
b0 3
b1000 =
b111 '
b111 6
b111 :
b1 &
b1 7
b1 ;
b0 <
b1100 D
b101101 %
b101101 /
b101101 >
b10001 $
b10001 8
b10001 @
1*
#32
0*
#33
b1000 =
b110 '
b110 6
b110 :
b1 &
b1 7
b1 ;
b0 <
b1000 4
b100 )
b100 -
b100 1
b100 (
b100 .
b100 2
b0 3
b10000 $
b10000 8
b10000 @
b101100 %
b101100 /
b101100 >
b1101 D
1*
#34
0*
#35
b1000 4
b11 )
b11 -
b11 1
b100 (
b100 .
b100 2
b0 3
b1000 =
b101 '
b101 6
b101 :
b1 &
b1 7
b1 ;
b0 <
b1110 D
b101011 %
b101011 /
b101011 >
b1111 $
b1111 8
b1111 @
1*
#36
0*
#37
b1000 =
b100 '
b100 6
b100 :
b1 &
b1 7
b1 ;
b0 <
b1000 4
b10 )
b10 -
b10 1
b100 (
b100 .
b100 2
b0 3
b1110 $
b1110 8
b1110 @
b101010 %
b101010 /
b101010 >
b1111 D
1*
#38
0*
#39
b1000 4
b1 )
b1 -
b1 1
b100 (
b100 .
b100 2
b0 3
b1000 =
b11 '
b11 6
b11 :
b1 &
b1 7
b1 ;
b0 <
b10000 D
b101001 %
b101001 /
b101001 >
b1101 $
b1101 8
b1101 @
1*
#40
0*
#41
b1000 =
b10 '
b10 6
b10 :
b1 &
b1 7
b1 ;
b0 <
b1000 4
b0 )
b0 -
b0 1
b100 (
b100 .
b100 2
b0 3
b1100 $
b1100 8
b1100 @
b101000 %
b101000 /
b101000 >
b10001 D
1*
#42
0*
#43
b1001 )
b1001 -
b1001 1
b1000 4
b11 (
b11 .
b11 2
b0 3
b1000 =
b1 '
b1 6
b1 :
b1 &
b1 7
b1 ;
b0 <
b10010 D
b100111 %
b100111 /
b100111 >
b1011 $
b1011 8
b1011 @
1*
#44
0*
#45
b1000 =
b0 '
b0 6
b0 :
b1 &
b1 7
b1 ;
b0 <
b1000 4
b1000 )
b1000 -
b1000 1
b11 (
b11 .
b11 2
b0 3
b1010 $
b1010 8
b1010 @
b100110 %
b100110 /
b100110 >
b10011 D
1*
#46
0*
#47
b1000 4
b111 )
b111 -
b111 1
b11 (
b11 .
b11 2
b0 3
b1001 '
b1001 6
b1001 :
b1000 =
b0 &
b0 7
b0 ;
b0 <
b10100 D
b100101 %
b100101 /
b100101 >
b1001 $
b1001 8
b1001 @
1*
#48
0*
#49
b1000 =
b1000 '
b1000 6
b1000 :
b0 <
b1000 4
b110 )
b110 -
b110 1
b11 (
b11 .
b11 2
b0 3
b1000 $
b1000 8
b1000 @
b100100 %
b100100 /
b100100 >
b10101 D
1*
#50
0*
#51
b1000 4
b101 )
b101 -
b101 1
b11 (
b11 .
b11 2
b0 3
b1000 =
b111 '
b111 6
b111 :
b0 <
b10110 D
b100011 %
b100011 /
b100011 >
b111 $
b111 8
b111 @
1*
#52
0*
#53
b1000 =
b110 '
b110 6
b110 :
b0 <
b1000 4
b100 )
b100 -
b100 1
b11 (
b11 .
b11 2
b0 3
b110 $
b110 8
b110 @
b100010 %
b100010 /
b100010 >
b10111 D
1*
#54
0*
#55
b1000 4
b11 )
b11 -
b11 1
b11 (
b11 .
b11 2
b0 3
b1000 =
b101 '
b101 6
b101 :
b0 <
b11000 D
b100001 %
b100001 /
b100001 >
b101 $
b101 8
b101 @
1*
#56
0*
#57
b1000 =
b100 '
b100 6
b100 :
b0 <
b1000 4
b10 )
b10 -
b10 1
b11 (
b11 .
b11 2
b0 3
b100 $
b100 8
b100 @
b100000 %
b100000 /
b100000 >
b11001 D
1*
#58
0*
#59
b1000 4
b1 )
b1 -
b1 1
b11 (
b11 .
b11 2
b0 3
b1000 =
b11 '
b11 6
b11 :
b0 <
b11010 D
b11111 %
b11111 /
b11111 >
b11 $
b11 8
b11 @
1*
#60
0*
#61
b1000 =
b10 '
b10 6
b10 :
b0 <
b1000 4
b0 )
b0 -
b0 1
b11 (
b11 .
b11 2
b0 3
b10 $
b10 8
b10 @
b11110 %
b11110 /
b11110 >
b11011 D
1*
#62
0*
#63
b1001 )
b1001 -
b1001 1
b1000 4
b10 (
b10 .
b10 2
b0 3
b1000 =
b1 '
b1 6
b1 :
b0 <
b11100 D
b11101 %
b11101 /
b11101 >
b1 $
b1 8
b1 @
1*
#64
0*
#65
b1000 =
b0 '
b0 6
b0 :
b1000 4
b1000 )
b1000 -
b1000 1
b10 (
b10 .
b10 2
b0 3
b0 $
b0 8
b0 @
b11100 %
b11100 /
b11100 >
b11101 D
1*
#66
0*
#67
b1000 4
b111 )
b111 -
b111 1
b10 (
b10 .
b10 2
b0 3
b100 '
b100 6
b100 :
b1000 =
b0 <
b10 !
b10 B
b111 E
b0 D
b11011 %
b11011 /
b11011 >
b100 $
b100 8
b100 @
b1 A
1*
#68
0*
#69
b1000 =
b11 '
b11 6
b11 :
b0 <
b1000 4
b110 )
b110 -
b110 1
b10 (
b10 .
b10 2
b0 3
b11 $
b11 8
b11 @
b11010 %
b11010 /
b11010 >
b1 D
1*
#70
0*
#71
b1000 4
b101 )
b101 -
b101 1
b10 (
b10 .
b10 2
b0 3
b1000 =
b10 '
b10 6
b10 :
b0 <
b10 D
b11001 %
b11001 /
b11001 >
b10 $
b10 8
b10 @
1*
#72
0*
#73
b1000 =
b1 '
b1 6
b1 :
b0 <
b1000 4
b100 )
b100 -
b100 1
b10 (
b10 .
b10 2
b0 3
b1 $
b1 8
b1 @
b11000 %
b11000 /
b11000 >
b11 D
1*
#74
0*
#75
b1000 4
b11 )
b11 -
b11 1
b10 (
b10 .
b10 2
b0 3
b1000 =
b0 '
b0 6
b0 :
b100 D
b10111 %
b10111 /
b10111 >
b0 $
b0 8
b0 @
1*
#76
0*
#77
b1 &
b1 7
b1 ;
b100 '
b100 6
b100 :
b1000 =
b0 <
b1000 4
b10 )
b10 -
b10 1
b10 (
b10 .
b10 2
b0 3
b1110 $
b1110 8
b1110 @
b10 A
b10110 %
b10110 /
b10110 >
b1 !
b1 B
b1000 E
b0 D
1*
#78
0*
#79
b1000 4
b1 )
b1 -
b1 1
b10 (
b10 .
b10 2
b0 3
b1000 =
b11 '
b11 6
b11 :
b1 &
b1 7
b1 ;
b0 <
b1 D
b10101 %
b10101 /
b10101 >
b1101 $
b1101 8
b1101 @
1*
#80
0*
#81
b1000 =
b10 '
b10 6
b10 :
b1 &
b1 7
b1 ;
b0 <
b1000 4
b0 )
b0 -
b0 1
b10 (
b10 .
b10 2
b0 3
b1100 $
b1100 8
b1100 @
b10100 %
b10100 /
b10100 >
b10 D
1*
#82
0*
#83
b1001 )
b1001 -
b1001 1
b1000 4
b1 (
b1 .
b1 2
b0 3
b1000 =
b1 '
b1 6
b1 :
b1 &
b1 7
b1 ;
b0 <
b11 D
b10011 %
b10011 /
b10011 >
b1011 $
b1011 8
b1011 @
1*
#84
0*
#85
b1000 =
b0 '
b0 6
b0 :
b1 &
b1 7
b1 ;
b0 <
b1000 4
b1000 )
b1000 -
b1000 1
b1 (
b1 .
b1 2
b0 3
b1010 $
b1010 8
b1010 @
b10010 %
b10010 /
b10010 >
b100 D
1*
#86
0*
#87
b1000 4
b111 )
b111 -
b111 1
b1 (
b1 .
b1 2
b0 3
b1001 '
b1001 6
b1001 :
b1000 =
b0 &
b0 7
b0 ;
b0 <
b101 D
b10001 %
b10001 /
b10001 >
b1001 $
b1001 8
b1001 @
1*
#88
0*
#89
b1000 =
b1000 '
b1000 6
b1000 :
b0 <
b1000 4
b110 )
b110 -
b110 1
b1 (
b1 .
b1 2
b0 3
b1000 $
b1000 8
b1000 @
b10000 %
b10000 /
b10000 >
b110 D
1*
#90
0*
#91
b1000 4
b101 )
b101 -
b101 1
b1 (
b1 .
b1 2
b0 3
b1000 =
b111 '
b111 6
b111 :
b0 <
b111 D
b1111 %
b1111 /
b1111 >
b111 $
b111 8
b111 @
1*
#92
0*
#93
b1000 =
b110 '
b110 6
b110 :
b0 <
b1000 4
b100 )
b100 -
b100 1
b1 (
b1 .
b1 2
b0 3
b110 $
b110 8
b110 @
b1110 %
b1110 /
b1110 >
b1000 D
1*
#94
0*
#95
b1000 4
b11 )
b11 -
b11 1
b1 (
b1 .
b1 2
b0 3
b1000 =
b101 '
b101 6
b101 :
b0 <
b1001 D
b1101 %
b1101 /
b1101 >
b101 $
b101 8
b101 @
1*
#96
0*
#97
b1000 =
b100 '
b100 6
b100 :
b0 <
b1000 4
b10 )
b10 -
b10 1
b1 (
b1 .
b1 2
b0 3
b100 $
b100 8
b100 @
b1100 %
b1100 /
b1100 >
b1010 D
1*
#98
0*
#99
b1000 4
b1 )
b1 -
b1 1
b1 (
b1 .
b1 2
b0 3
b1000 =
b11 '
b11 6
b11 :
b0 <
b1011 D
b1011 %
b1011 /
b1011 >
b11 $
b11 8
b11 @
1*
#100
0*
#101
b1000 =
b10 '
b10 6
b10 :
b0 <
b1000 4
b0 )
b0 -
b0 1
b1 (
b1 .
b1 2
b0 3
b10 $
b10 8
b10 @
b1010 %
b1010 /
b1010 >
b1100 D
1*
#102
0*
#103
b1001 )
b1001 -
b1001 1
b1000 4
b0 (
b0 .
b0 2
b0 3
b1000 =
b1 '
b1 6
b1 :
b0 <
b1101 D
b1001 %
b1001 /
b1001 >
b1 $
b1 8
b1 @
1*
#104
0*
#105
b1000 =
b0 '
b0 6
b0 :
b1000 4
b1000 )
b1000 -
b1000 1
b0 3
b0 $
b0 8
b0 @
b1000 %
b1000 /
b1000 >
b1110 D
1*
#106
0*
#107
b1000 4
b111 )
b111 -
b111 1
b0 3
b100 '
b100 6
b100 :
b1000 =
b0 <
b10 !
b10 B
b1001 E
b0 D
b111 %
b111 /
b111 >
b100 $
b100 8
b100 @
b11 A
1*
#108
0*
#109
b1000 =
b11 '
b11 6
b11 :
b0 <
b1000 4
b110 )
b110 -
b110 1
b0 3
b11 $
b11 8
b11 @
b110 %
b110 /
b110 >
b1 D
1*
#110
0*
#111
b1000 4
b101 )
b101 -
b101 1
b0 3
b1000 =
b10 '
b10 6
b10 :
b0 <
b10 D
b101 %
b101 /
b101 >
b10 $
b10 8
b10 @
1*
#112
0*
#113
b1000 =
b1 '
b1 6
b1 :
b0 <
b1000 4
b100 )
b100 -
b100 1
b0 3
b1 $
b1 8
b1 @
b100 %
b100 /
b100 >
b11 D
1*
#114
0*
#115
b1000 4
b11 )
b11 -
b11 1
b0 3
b1000 =
b0 '
b0 6
b0 :
b100 D
b11 %
b11 /
b11 >
b0 $
b0 8
b0 @
1*
#116
0*
#117
b110 &
b110 7
b110 ;
b1001 '
b1001 6
b1001 :
b1000 =
b0 <
b1000 4
b10 )
b10 -
b10 1
b0 3
b1000 !
b1000 B
b1000101 $
b1000101 8
b1000101 @
b100 A
b10 %
b10 /
b10 >
b1010 E
b0 D
1*
#118
0*
#119
b1000 4
b1 )
b1 -
b1 1
b0 3
b1000 =
b1000 '
b1000 6
b1000 :
b110 &
b110 7
b110 ;
b0 <
b1 D
b1 %
b1 /
b1 >
b1000100 $
b1000100 8
b1000100 @
1*
#120
0*
#121
b1000 =
b111 '
b111 6
b111 :
b110 &
b110 7
b110 ;
b0 <
b1000 4
b0 )
b0 -
b0 1
b1000011 $
b1000011 8
b1000011 @
b0 %
b0 /
b0 >
b10 D
1*
#122
0*
#123
b11 (
b11 .
b11 2
b1001 )
b1001 -
b1001 1
b1000 4
b0 3
b1000 =
b110 '
b110 6
b110 :
b110 &
b110 7
b110 ;
b0 <
b100 "
b100 C
b1 E
b0 D
b100111 %
b100111 /
b100111 >
b0 ?
b1000010 $
b1000010 8
b1000010 @
1*
#124
0*
#125
b1000 =
b101 '
b101 6
b101 :
b110 &
b110 7
b110 ;
b0 <
b1000 4
b1000 )
b1000 -
b1000 1
b11 (
b11 .
b11 2
b0 3
b1000001 $
b1000001 8
b1000001 @
b100110 %
b100110 /
b100110 >
b1 D
1*
#126
0*
#127
b1000 4
b111 )
b111 -
b111 1
b11 (
b11 .
b11 2
b0 3
b1000 =
b100 '
b100 6
b100 :
b110 &
b110 7
b110 ;
b0 <
b10 D
b100101 %
b100101 /
b100101 >
b1000000 $
b1000000 8
b1000000 @
1*
#128
0*
#129
b1000 =
b11 '
b11 6
b11 :
b110 &
b110 7
b110 ;
b0 <
b1000 4
b110 )
b110 -
b110 1
b11 (
b11 .
b11 2
b0 3
b111111 $
b111111 8
b111111 @
b100100 %
b100100 /
b100100 >
b11 D
1*
#130
0*
#131
b1000 4
b101 )
b101 -
b101 1
b11 (
b11 .
b11 2
b0 3
b1000 =
b10 '
b10 6
b10 :
b110 &
b110 7
b110 ;
b0 <
b100 D
b100011 %
b100011 /
b100011 >
b111110 $
b111110 8
b111110 @
1*
#132
0*
#133
b1000 =
b1 '
b1 6
b1 :
b110 &
b110 7
b110 ;
b0 <
b1000 4
b100 )
b100 -
b100 1
b11 (
b11 .
b11 2
b0 3
b111101 $
b111101 8
b111101 @
b100010 %
b100010 /
b100010 >
b101 D
1*
#134
0*
#135
b1000 4
b11 )
b11 -
b11 1
b11 (
b11 .
b11 2
b0 3
b1000 =
b0 '
b0 6
b0 :
b110 &
b110 7
b110 ;
b0 <
b110 D
b100001 %
b100001 /
b100001 >
b111100 $
b111100 8
b111100 @
1*
#136
0*
#137
b1001 '
b1001 6
b1001 :
b1000 =
b101 &
b101 7
b101 ;
b0 <
b1000 4
b10 )
b10 -
b10 1
b11 (
b11 .
b11 2
b0 3
b111011 $
b111011 8
b111011 @
b100000 %
b100000 /
b100000 >
b111 D
1*
#138
0*
#139
b1000 4
b1 )
b1 -
b1 1
b11 (
b11 .
b11 2
b0 3
b1000 =
b1000 '
b1000 6
b1000 :
b101 &
b101 7
b101 ;
b0 <
b1000 D
b11111 %
b11111 /
b11111 >
b111010 $
b111010 8
b111010 @
1*
#140
0*
#141
b1000 =
b111 '
b111 6
b111 :
b101 &
b101 7
b101 ;
b0 <
b1000 4
b0 )
b0 -
b0 1
b11 (
b11 .
b11 2
b0 3
b111001 $
b111001 8
b111001 @
b11110 %
b11110 /
b11110 >
b1001 D
1*
#142
0*
#143
b1001 )
b1001 -
b1001 1
b1000 4
b10 (
b10 .
b10 2
b0 3
b1000 =
b110 '
b110 6
b110 :
b101 &
b101 7
b101 ;
b0 <
b1010 D
b11101 %
b11101 /
b11101 >
b111000 $
b111000 8
b111000 @
1*
#144
0*
#145
b1000 =
b101 '
b101 6
b101 :
b101 &
b101 7
b101 ;
b0 <
b1000 4
b1000 )
b1000 -
b1000 1
b10 (
b10 .
b10 2
b0 3
b110111 $
b110111 8
b110111 @
b11100 %
b11100 /
b11100 >
b1011 D
1*
#146
0*
#147
b1000 4
b111 )
b111 -
b111 1
b10 (
b10 .
b10 2
b0 3
b1000 =
b100 '
b100 6
b100 :
b101 &
b101 7
b101 ;
b0 <
b1100 D
b11011 %
b11011 /
b11011 >
b110110 $
b110110 8
b110110 @
1*
#148
0*
#149
b1000 =
b11 '
b11 6
b11 :
b101 &
b101 7
b101 ;
b0 <
b1000 4
b110 )
b110 -
b110 1
b10 (
b10 .
b10 2
b0 3
b110101 $
b110101 8
b110101 @
b11010 %
b11010 /
b11010 >
b1101 D
1*
#150
0*
#151
b1000 4
b101 )
b101 -
b101 1
b10 (
b10 .
b10 2
b0 3
b1000 =
b10 '
b10 6
b10 :
b101 &
b101 7
b101 ;
b0 <
b1110 D
b11001 %
b11001 /
b11001 >
b110100 $
b110100 8
b110100 @
1*
#152
0*
#153
b1000 =
b1 '
b1 6
b1 :
b101 &
b101 7
b101 ;
b0 <
b1000 4
b100 )
b100 -
b100 1
b10 (
b10 .
b10 2
b0 3
b110011 $
b110011 8
b110011 @
b11000 %
b11000 /
b11000 >
b1111 D
1*
#154
0*
#155
b1000 4
b11 )
b11 -
b11 1
b10 (
b10 .
b10 2
b0 3
b1000 =
b0 '
b0 6
b0 :
b101 &
b101 7
b101 ;
b0 <
b10000 D
b10111 %
b10111 /
b10111 >
b110010 $
b110010 8
b110010 @
1*
#156
0*
#157
b1001 '
b1001 6
b1001 :
b1000 =
b100 &
b100 7
b100 ;
b0 <
b1000 4
b10 )
b10 -
b10 1
b10 (
b10 .
b10 2
b0 3
b110001 $
b110001 8
b110001 @
b10110 %
b10110 /
b10110 >
b10001 D
1*
#158
0*
#159
b1000 4
b1 )
b1 -
b1 1
b10 (
b10 .
b10 2
b0 3
b1000 =
b1000 '
b1000 6
b1000 :
b100 &
b100 7
b100 ;
b0 <
b10010 D
b10101 %
b10101 /
b10101 >
b110000 $
b110000 8
b110000 @
1*
#160
0*
#161
b1000 =
b111 '
b111 6
b111 :
b100 &
b100 7
b100 ;
b0 <
b1000 4
b0 )
b0 -
b0 1
b10 (
b10 .
b10 2
b0 3
b101111 $
b101111 8
b101111 @
b10100 %
b10100 /
b10100 >
b10011 D
1*
#162
0*
#163
b1001 )
b1001 -
b1001 1
b1000 4
b1 (
b1 .
b1 2
b0 3
b1000 =
b110 '
b110 6
b110 :
b100 &
b100 7
b100 ;
b0 <
b10100 D
b10011 %
b10011 /
b10011 >
b101110 $
b101110 8
b101110 @
1*
#164
0*
#165
b1000 =
b101 '
b101 6
b101 :
b100 &
b100 7
b100 ;
b0 <
b1000 4
b1000 )
b1000 -
b1000 1
b1 (
b1 .
b1 2
b0 3
b101101 $
b101101 8
b101101 @
b10010 %
b10010 /
b10010 >
b10101 D
1*
#166
0*
#167
b1000 4
b111 )
b111 -
b111 1
b1 (
b1 .
b1 2
b0 3
b1000 =
b100 '
b100 6
b100 :
b100 &
b100 7
b100 ;
b0 <
b10110 D
b10001 %
b10001 /
b10001 >
b101100 $
b101100 8
b101100 @
1*
#168
0*
#169
b1000 =
b11 '
b11 6
b11 :
b100 &
b100 7
b100 ;
b0 <
b1000 4
b110 )
b110 -
b110 1
b1 (
b1 .
b1 2
b0 3
b101011 $
b101011 8
b101011 @
b10000 %
b10000 /
b10000 >
b10111 D
1*
#170
0*
#171
b1000 4
b101 )
b101 -
b101 1
b1 (
b1 .
b1 2
b0 3
b1000 =
b10 '
b10 6
b10 :
b100 &
b100 7
b100 ;
b0 <
b11000 D
b1111 %
b1111 /
b1111 >
b101010 $
b101010 8
b101010 @
1*
#172
0*
#173
b1000 =
b1 '
b1 6
b1 :
b100 &
b100 7
b100 ;
b0 <
b1000 4
b100 )
b100 -
b100 1
b1 (
b1 .
b1 2
b0 3
b101001 $
b101001 8
b101001 @
b1110 %
b1110 /
b1110 >
b11001 D
1*
#174
0*
#175
b1000 4
b11 )
b11 -
b11 1
b1 (
b1 .
b1 2
b0 3
b1000 =
b0 '
b0 6
b0 :
b100 &
b100 7
b100 ;
b0 <
b11010 D
b1101 %
b1101 /
b1101 >
b101000 $
b101000 8
b101000 @
1*
#176
0*
#177
b1001 '
b1001 6
b1001 :
b1000 =
b11 &
b11 7
b11 ;
b0 <
b1000 4
b10 )
b10 -
b10 1
b1 (
b1 .
b1 2
b0 3
b100111 $
b100111 8
b100111 @
b1100 %
b1100 /
b1100 >
b11011 D
1*
#178
0*
#179
b1000 4
b1 )
b1 -
b1 1
b1 (
b1 .
b1 2
b0 3
b1000 =
b1000 '
b1000 6
b1000 :
b11 &
b11 7
b11 ;
b0 <
b11100 D
b1011 %
b1011 /
b1011 >
b100110 $
b100110 8
b100110 @
1*
#180
0*
#181
b1000 =
b111 '
b111 6
b111 :
b11 &
b11 7
b11 ;
b0 <
b1000 4
b0 )
b0 -
b0 1
b1 (
b1 .
b1 2
b0 3
b100101 $
b100101 8
b100101 @
b1010 %
b1010 /
b1010 >
b11101 D
1*
#182
0*
#183
b1001 )
b1001 -
b1001 1
b1000 4
b0 (
b0 .
b0 2
b0 3
b1000 =
b110 '
b110 6
b110 :
b11 &
b11 7
b11 ;
b0 <
b11110 D
b1001 %
b1001 /
b1001 >
b100100 $
b100100 8
b100100 @
1*
#184
0*
#185
b1000 =
b101 '
b101 6
b101 :
b11 &
b11 7
b11 ;
b0 <
b1000 4
b1000 )
b1000 -
b1000 1
b0 3
b100011 $
b100011 8
b100011 @
b1000 %
b1000 /
b1000 >
b11111 D
1*
#186
0*
#187
b1000 4
b111 )
b111 -
b111 1
b0 3
b1000 =
b100 '
b100 6
b100 :
b11 &
b11 7
b11 ;
b0 <
b100000 D
b111 %
b111 /
b111 >
b100010 $
b100010 8
b100010 @
1*
#188
0*
#189
b1000 =
b11 '
b11 6
b11 :
b11 &
b11 7
b11 ;
b0 <
b1000 4
b110 )
b110 -
b110 1
b0 3
b100001 $
b100001 8
b100001 @
b110 %
b110 /
b110 >
b100001 D
1*
#190
0*
#191
b1000 4
b101 )
b101 -
b101 1
b0 3
b1000 =
b10 '
b10 6
b10 :
b11 &
b11 7
b11 ;
b0 <
b100010 D
b101 %
b101 /
b101 >
b100000 $
b100000 8
b100000 @
1*
#192
0*
#193
b1000 =
b1 '
b1 6
b1 :
b11 &
b11 7
b11 ;
b0 <
b1000 4
b100 )
b100 -
b100 1
b0 3
b11111 $
b11111 8
b11111 @
b100 %
b100 /
b100 >
b100011 D
1*
#194
0*
#195
b1000 4
b11 )
b11 -
b11 1
b0 3
b1000 =
b0 '
b0 6
b0 :
b11 &
b11 7
b11 ;
b0 <
b100100 D
b11 %
b11 /
b11 >
b11110 $
b11110 8
b11110 @
1*
#196
0*
#197
b1001 '
b1001 6
b1001 :
b1000 =
b10 &
b10 7
b10 ;
b0 <
b1000 4
b10 )
b10 -
b10 1
b0 3
b11101 $
b11101 8
b11101 @
b10 %
b10 /
b10 >
b100101 D
1*
#198
0*
#199
b1000 4
b1 )
b1 -
b1 1
b0 3
b1000 =
b1000 '
b1000 6
b1000 :
b10 &
b10 7
b10 ;
b0 <
b100110 D
b1 %
b1 /
b1 >
b11100 $
b11100 8
b11100 @
1*
#200
0*
#201
b1000 =
b111 '
b111 6
b111 :
b10 &
b10 7
b10 ;
b0 <
b1000 4
b0 )
b0 -
b0 1
b11011 $
b11011 8
b11011 @
b0 %
b0 /
b0 >
b100111 D
1*
#202
0*
#203
b100 )
b100 -
b100 1
b1000 4
b0 3
b1000 =
b110 '
b110 6
b110 :
b10 &
b10 7
b10 ;
b0 <
b10 "
b10 C
b10 E
b0 D
b100 %
b100 /
b100 >
b1 ?
b11010 $
b11010 8
b11010 @
1*
#204
0*
#205
b1000 =
b101 '
b101 6
b101 :
b10 &
b10 7
b10 ;
b0 <
b1000 4
b11 )
b11 -
b11 1
b0 3
b11001 $
b11001 8
b11001 @
b11 %
b11 /
b11 >
b1 D
1*
#206
0*
#207
b1000 4
b10 )
b10 -
b10 1
b0 3
b1000 =
b100 '
b100 6
b100 :
b10 &
b10 7
b10 ;
b0 <
b10 D
b10 %
b10 /
b10 >
b11000 $
b11000 8
b11000 @
1*
#208
0*
