homework/homework12/02light/test.vcd
$date
	Sat Nov 28 12:04:58 2020
$end
$version
	Icarus Verilog
$end
$timescale
	1s
$end
$scope module test $end
$var wire 4 ! light_sn_rgyl [3:0] $end
$var wire 4 " light_ew_rgyl [3:0] $end
$var wire 1 # en $end
$var wire 8 $ cnt_sn [7:0] $end
$var wire 8 % cnt_ew [7:0] $end
$var reg 1 & clk $end
$var reg 1 ' reset $end
$scope module u_cnt_ew $end
$var wire 1 & clk $end
$var wire 1 ' reset $end
$var wire 1 # en $end
$var reg 8 ( cnt [7:0] $end
$var reg 4 ) state [3:0] $end
$upscope $end
$scope module u_cnt_sn $end
$var wire 1 & clk $end
$var wire 1 ' reset $end
$var wire 1 # en $end
$var reg 8 * cnt [7:0] $end
$var reg 4 + state [3:0] $end
$upscope $end
$scope module u_light $end
$var wire 1 & clk $end
$var wire 1 ' reset $end
$var wire 1 # on $end
$var wire 4 , light_sn_rgyl [3:0] $end
$var wire 4 - light_ew_rgyl [3:0] $end
$var reg 8 . cnt [7:0] $end
$var reg 4 / status [3:0] $end
$upscope $end
$upscope $end
$enddefinitions $end
#0
$dumpvars
b0 /
b0 .
b1000 -
b1000 ,
b0 +
b11101 *
b100 )
b111001 (
1'
0&
b111001 %
b11101 $
0#
b1000 "
b1000 !
$end
#1
b11101 $
b11101 *
b111001 %
b111001 (
1&
#2
0&
0'
#3
b1 .
b111001 %
b111001 (
b11101 $
b11101 *
1&
#4
0&
#5
b11101 $
b11101 *
b111001 %
b111001 (
b10 .
1&
#6
0&
#7
b100 !
b100 ,
1#
b110 /
b0 .
b111001 %
b111001 (
b11101 $
b11101 *
1&
#8
0&
#9
b11100 $
b11100 *
b111000 %
b111000 (
b1 .
1&
#10
0&
#11
b10 .
b110111 %
b110111 (
b11011 $
b11011 *
1&
#12
0&
#13
b11010 $
b11010 *
b110110 %
b110110 (
b11 .
1&
#14
0&
#15
b100 .
b110101 %
b110101 (
b11001 $
b11001 *
1&
#16
0&
#17
b11000 $
b11000 *
b110100 %
b110100 (
b101 .
1&
#18
0&
#19
b110 .
b110011 %
b110011 (
b10111 $
b10111 *
1&
#20
0&
#21
b10110 $
b10110 *
b110010 %
b110010 (
b111 .
1&
#22
0&
#23
b1000 .
b110001 %
b110001 (
b10101 $
b10101 *
1&
#24
0&
#25
b10100 $
b10100 *
b110000 %
b110000 (
b1001 .
1&
#26
0&
#27
b1010 .
b101111 %
b101111 (
b10011 $
b10011 *
1&
#28
0&
#29
b10010 $
b10010 *
b101110 %
b101110 (
b1011 .
1&
#30
0&
#31
b1100 .
b101101 %
b101101 (
b10001 $
b10001 *
1&
#32
0&
#33
b10000 $
b10000 *
b101100 %
b101100 (
b1101 .
1&
#34
0&
#35
b1110 .
b101011 %
b101011 (
b1111 $
b1111 *
1&
#36
0&
#37
b1110 $
b1110 *
b101010 %
b101010 (
b1111 .
1&
#38
0&
#39
b10000 .
b101001 %
b101001 (
b1101 $
b1101 *
1&
#40
0&
#41
b1100 $
b1100 *
b101000 %
b101000 (
b10001 .
1&
#42
0&
#43
b10010 .
b100111 %
b100111 (
b1011 $
b1011 *
1&
#44
0&
#45
b1010 $
b1010 *
b100110 %
b100110 (
b10011 .
1&
#46
0&
#47
b10100 .
b100101 %
b100101 (
b1001 $
b1001 *
1&
#48
0&
#49
b1000 $
b1000 *
b100100 %
b100100 (
b10101 .
1&
#50
0&
#51
b10110 .
b100011 %
b100011 (
b111 $
b111 *
1&
#52
0&
#53
b110 $
b110 *
b100010 %
b100010 (
b10111 .
1&
#54
0&
#55
b11000 .
b100001 %
b100001 (
b101 $
b101 *
1&
#56
0&
#57
b100 $
b100 *
b100000 %
b100000 (
b11001 .
1&
#58
0&
#59
b11010 .
b11111 %
b11111 (
b11 $
b11 *
1&
#60
0&
#61
b10 $
b10 *
b11110 %
b11110 (
b11011 .
1&
#62
0&
#63
b11100 .
b11101 %
b11101 (
b1 $
b1 *
1&
#64
0&
#65
b0 $
b0 *
b11100 %
b11100 (
b11101 .
1&
#66
0&
#67
b10 !
b10 ,
b111 /
b0 .
b11011 %
b11011 (
b100 $
b100 *
b1 +
1&
#68
0&
#69
b11 $
b11 *
b11010 %
b11010 (
b1 .
1&
#70
0&
#71
b10 .
b11001 %
b11001 (
b10 $
b10 *
1&
#72
0&
#73
b1 $
b1 *
b11000 %
b11000 (
b11 .
1&
#74
0&
#75
b100 .
b10111 %
b10111 (
b0 $
b0 *
1&
#76
0&
#77
b1110 $
b1110 *
b10 +
b10110 %
b10110 (
b1 !
b1 ,
b1000 /
b0 .
1&
#78
0&
#79
b1 .
b10101 %
b10101 (
b1101 $
b1101 *
1&
#80
0&
#81
b1100 $
b1100 *
b10100 %
b10100 (
b10 .
1&
#82
0&
#83
b11 .
b10011 %
b10011 (
b1011 $
b1011 *
1&
#84
0&
#85
b1010 $
b1010 *
b10010 %
b10010 (
b100 .
1&
#86
0&
#87
b101 .
b10001 %
b10001 (
b1001 $
b1001 *
1&
#88
0&
#89
b1000 $
b1000 *
b10000 %
b10000 (
b110 .
1&
#90
0&
#91
b111 .
b1111 %
b1111 (
b111 $
b111 *
1&
#92
0&
#93
b110 $
b110 *
b1110 %
b1110 (
b1000 .
1&
#94
0&
#95
b1001 .
b1101 %
b1101 (
b101 $
b101 *
1&
#96
0&
#97
b100 $
b100 *
b1100 %
b1100 (
b1010 .
1&
#98
0&
#99
b1011 .
b1011 %
b1011 (
b11 $
b11 *
1&
#100
0&
#101
b10 $
b10 *
b1010 %
b1010 (
b1100 .
1&
#102
0&
#103
b1101 .
b1001 %
b1001 (
b1 $
b1 *
1&
#104
0&
#105
b0 $
b0 *
b1000 %
b1000 (
b1110 .
1&
#106
0&
#107
b10 !
b10 ,
b1001 /
b0 .
b111 %
b111 (
b100 $
b100 *
b11 +
1&
#108
0&
#109
b11 $
b11 *
b110 %
b110 (
b1 .
1&
#110
0&
#111
b10 .
b101 %
b101 (
b10 $
b10 *
1&
#112
0&
#113
b1 $
b1 *
b100 %
b100 (
b11 .
1&
#114
0&
#115
b100 .
b11 %
b11 (
b0 $
b0 *
1&
#116
0&
#117
b1000 !
b1000 ,
b1000101 $
b1000101 *
b100 +
b10 %
b10 (
b1010 /
b0 .
1&
#118
0&
#119
b1 .
b1 %
b1 (
b1000100 $
b1000100 *
1&
#120
0&
#121
b1000011 $
b1000011 *
b0 %
b0 (
b10 .
1&
#122
0&
#123
b100 "
b100 -
b1 /
b0 .
b100111 %
b100111 (
b0 )
b1000010 $
b1000010 *
1&
#124
0&
#125
b1000001 $
b1000001 *
b100110 %
b100110 (
b1 .
1&
#126
0&
#127
b10 .
b100101 %
b100101 (
b1000000 $
b1000000 *
1&
#128
0&
#129
b111111 $
b111111 *
b100100 %
b100100 (
b11 .
1&
#130
0&
#131
b100 .
b100011 %
b100011 (
b111110 $
b111110 *
1&
#132
0&
#133
b111101 $
b111101 *
b100010 %
b100010 (
b101 .
1&
#134
0&
#135
b110 .
b100001 %
b100001 (
b111100 $
b111100 *
1&
#136
0&
#137
b111011 $
b111011 *
b100000 %
b100000 (
b111 .
1&
#138
0&
#139
b1000 .
b11111 %
b11111 (
b111010 $
b111010 *
1&
#140
0&
#141
b111001 $
b111001 *
b11110 %
b11110 (
b1001 .
1&
#142
0&
#143
b1010 .
b11101 %
b11101 (
b111000 $
b111000 *
1&
#144
0&
#145
b110111 $
b110111 *
b11100 %
b11100 (
b1011 .
1&
#146
0&
#147
b1100 .
b11011 %
b11011 (
b110110 $
b110110 *
1&
#148
0&
#149
b110101 $
b110101 *
b11010 %
b11010 (
b1101 .
1&
#150
0&
#151
b1110 .
b11001 %
b11001 (
b110100 $
b110100 *
1&
#152
0&
#153
b110011 $
b110011 *
b11000 %
b11000 (
b1111 .
1&
#154
0&
#155
b10000 .
b10111 %
b10111 (
b110010 $
b110010 *
1&
#156
0&
#157
b110001 $
b110001 *
b10110 %
b10110 (
b10001 .
1&
#158
0&
#159
b10010 .
b10101 %
b10101 (
b110000 $
b110000 *
1&
#160
0&
#161
b101111 $
b101111 *
b10100 %
b10100 (
b10011 .
1&
#162
0&
#163
b10100 .
b10011 %
b10011 (
b101110 $
b101110 *
1&
#164
0&
#165
b101101 $
b101101 *
b10010 %
b10010 (
b10101 .
1&
#166
0&
#167
b10110 .
b10001 %
b10001 (
b101100 $
b101100 *
1&
#168
0&
#169
b101011 $
b101011 *
b10000 %
b10000 (
b10111 .
1&
#170
0&
#171
b11000 .
b1111 %
b1111 (
b101010 $
b101010 *
1&
#172
0&
#173
b101001 $
b101001 *
b1110 %
b1110 (
b11001 .
1&
#174
0&
#175
b11010 .
b1101 %
b1101 (
b101000 $
b101000 *
1&
#176
0&
#177
b100111 $
b100111 *
b1100 %
b1100 (
b11011 .
1&
#178
0&
#179
b11100 .
b1011 %
b1011 (
b100110 $
b100110 *
1&
#180
0&
#181
b100101 $
b100101 *
b1010 %
b1010 (
b11101 .
1&
#182
0&
#183
b11110 .
b1001 %
b1001 (
b100100 $
b100100 *
1&
#184
0&
#185
b100011 $
b100011 *
b1000 %
b1000 (
b11111 .
1&
#186
0&
#187
b100000 .
b111 %
b111 (
b100010 $
b100010 *
1&
#188
0&
#189
b100001 $
b100001 *
b110 %
b110 (
b100001 .
1&
#190
0&
#191
b100010 .
b101 %
b101 (
b100000 $
b100000 *
1&
#192
0&
#193
b11111 $
b11111 *
b100 %
b100 (
b100011 .
1&
#194
0&
#195
b100100 .
b11 %
b11 (
b11110 $
b11110 *
1&
#196
0&
#197
b11101 $
b11101 *
b10 %
b10 (
b100101 .
1&
#198
0&
#199
b100110 .
b1 %
b1 (
b11100 $
b11100 *
1&
#200
0&
#201
b11011 $
b11011 *
b0 %
b0 (
b100111 .
1&
#202
0&
#203
b10 "
b10 -
b10 /
b0 .
b100 %
b100 (
b1 )
b11010 $
b11010 *
1&
#204
0&
#205
b11001 $
b11001 *
b11 %
b11 (
b1 .
1&
#206
0&
#207
b10 .
b10 %
b10 (
b11000 $
b11000 *
1&
#208
0&
#209
b10111 $
b10111 *
b1 %
b1 (
b11 .
1&
#210
0&
#211
b100 .
b0 %
b0 (
b10110 $
b10110 *
1&
#212
0&
#213
b10101 $
b10101 *
b1110 %
b1110 (
b10 )
b1 "
b1 -
b11 /
b0 .
1&
#214
0&
#215
b1 .
b1101 %
b1101 (
b10100 $
b10100 *
1&
#216
0&
#217
b10011 $
b10011 *
b1100 %
b1100 (
b10 .
1&
#218
0&
#219
b11 .
b1011 %
b1011 (
b10010 $
b10010 *
1&
#220
0&
#221
b10001 $
b10001 *
b1010 %
b1010 (
b100 .
1&
#222
0&
#223
b101 .
b1001 %
b1001 (
b10000 $
b10000 *
1&
#224
0&
#225
b1111 $
b1111 *
b1000 %
b1000 (
b110 .
1&
#226
0&
#227
b111 .
b111 %
b111 (
b1110 $
b1110 *
1&
#228
0&
#229
b1101 $
b1101 *
b110 %
b110 (
b1000 .
1&
#230
0&
#231
b1001 .
b101 %
b101 (
b1100 $
b1100 *
1&
#232
0&
#233
b1011 $
b1011 *
b100 %
b100 (
b1010 .
1&
#234
0&
#235
b1011 .
b11 %
b11 (
b1010 $
b1010 *
1&
#236
0&
#237
b1001 $
b1001 *
b10 %
b10 (
b1100 .
1&
#238
0&
#239
b1101 .
b1 %
b1 (
b1000 $
b1000 *
1&
#240
0&
#241
b111 $
b111 *
b0 %
b0 (
b1110 .
1&
#242
0&
#243
b10 "
b10 -
b100 /
b0 .
b100 %
b100 (
b11 )
b110 $
b110 *
1&
#244
0&
#245
b101 $
b101 *
b11 %
b11 (
b1 .
1&
#246
0&
#247
b10 .
b10 %
b10 (
b100 $
b100 *
1&
#248
0&
#249
b11 $
b11 *
b1 %
b1 (
b11 .
1&
#250
0&
#251
b100 .
b0 %
b0 (
b10 $
b10 *
1&
#252
0&
#253
b1000 "
b1000 -
b1 $
b1 *
b111011 %
b111011 (
b100 )
b101 /
b0 .
1&
#254
0&
#255
b1 .
b111010 %
b111010 (
b0 $
b0 *
1&
#256
0&
#257
b11101 $
b11101 *
b0 +
b111001 %
b111001 (
b100 !
b100 ,
b110 /
b0 .
1&
#258
0&
#259
b1 .
b111000 %
b111000 (
b11100 $
b11100 *
1&
#260
0&
#261
b11011 $
b11011 *
b110111 %
b110111 (
b10 .
1&
#262
0&
#263
b11 .
b110110 %
b110110 (
b11010 $
b11010 *
1&
#264
0&
#265
b11001 $
b11001 *
b110101 %
b110101 (
b100 .
1&
#266
0&
#267
b101 .
b110100 %
b110100 (
b11000 $
b11000 *
1&
#268
0&
#269
b10111 $
b10111 *
b110011 %
b110011 (
b110 .
1&
#270
0&
#271
b111 .
b110010 %
b110010 (
b10110 $
b10110 *
1&
#272
0&
#273
b10101 $
b10101 *
b110001 %
b110001 (
b1000 .
1&
#274
0&
#275
b1001 .
b110000 %
b110000 (
b10100 $
b10100 *
1&
#276
0&
#277
b10011 $
b10011 *
b101111 %
b101111 (
b1010 .
1&
#278
0&
#279
b1011 .
b101110 %
b101110 (
b10010 $
b10010 *
1&
#280
0&
#281
b10001 $
b10001 *
b101101 %
b101101 (
b1100 .
1&
#282
0&
#283
b1101 .
b101100 %
b101100 (
b10000 $
b10000 *
1&
#284
0&
#285
b1111 $
b1111 *
b101011 %
b101011 (
b1110 .
1&
#286
0&
#287
b1111 .
b101010 %
b101010 (
b1110 $
b1110 *
1&
#288
0&
#289
b1101 $
b1101 *
b101001 %
b101001 (
b10000 .
1&
#290
0&
#291
b10001 .
b101000 %
b101000 (
b1100 $
b1100 *
1&
#292
0&
#293
b1011 $
b1011 *
b100111 %
b100111 (
b10010 .
1&
#294
0&
#295
b10011 .
b100110 %
b100110 (
b1010 $
b1010 *
1&
#296
0&
#297
b1001 $
b1001 *
b100101 %
b100101 (
b10100 .
1&
#298
0&
#299
b10101 .
b100100 %
b100100 (
b1000 $
b1000 *
1&
#300
0&
#301
b111 $
b111 *
b100011 %
b100011 (
b10110 .
1&
#302
0&
#303
b10111 .
b100010 %
b100010 (
b110 $
b110 *
1&
#304
0&
#305
b101 $
b101 *
b100001 %
b100001 (
b11000 .
1&
#306
0&
#307
b11001 .
b100000 %
b100000 (
b100 $
b100 *
1&
#308
0&
#309
b11 $
b11 *
b11111 %
b11111 (
b11010 .
1&
#310
0&
#311
b11011 .
b11110 %
b11110 (
b10 $
b10 *
1&
#312
0&
#313
b1 $
b1 *
b11101 %
b11101 (
b11100 .
1&
#314
0&
#315
b11101 .
b11100 %
b11100 (
b0 $
b0 *
1&
#316
0&
#317
b100 $
b100 *
b1 +
b11011 %
b11011 (
b10 !
b10 ,
b111 /
b0 .
1&
#318
0&
#319
b1 .
b11010 %
b11010 (
b11 $
b11 *
1&
#320
0&
#321
b10 $
b10 *
b11001 %
b11001 (
b10 .
1&
#322
0&
#323
b11 .
b11000 %
b11000 (
b1 $
b1 *
1&
#324
0&
#325
b0 $
b0 *
b10111 %
b10111 (
b100 .
1&
#326
0&
#327
b1 !
b1 ,
b1000 /
b0 .
b10110 %
b10110 (
b1110 $
b1110 *
b10 +
1&
#328
0&
#329
b1101 $
b1101 *
b10101 %
b10101 (
b1 .
1&
#330
0&
#331
b10 .
b10100 %
b10100 (
b1100 $
b1100 *
1&
#332
0&
#333
b1011 $
b1011 *
b10011 %
b10011 (
b11 .
1&
#334
0&
#335
b100 .
b10010 %
b10010 (
b1010 $
b1010 *
1&
#336
0&
#337
b1001 $
b1001 *
b10001 %
b10001 (
b101 .
1&
#338
0&
#339
b110 .
b10000 %
b10000 (
b1000 $
b1000 *
1&
#340
0&
#341
b111 $
b111 *
b1111 %
b1111 (
b111 .
1&
#342
0&
#343
b1000 .
b1110 %
b1110 (
b110 $
b110 *
1&
#344
0&
#345
b101 $
b101 *
b1101 %
b1101 (
b1001 .
1&
#346
0&
#347
b1010 .
b1100 %
b1100 (
b100 $
b100 *
1&
#348
0&
#349
b11 $
b11 *
b1011 %
b1011 (
b1011 .
1&
#350
0&
#351
b1100 .
b1010 %
b1010 (
b10 $
b10 *
1&
#352
0&
#353
b1 $
b1 *
b1001 %
b1001 (
b1101 .
1&
#354
0&
#355
b1110 .
b1000 %
b1000 (
b0 $
b0 *
1&
#356
0&
#357
b100 $
b100 *
b11 +
b111 %
b111 (
b10 !
b10 ,
b1001 /
b0 .
1&
#358
0&
#359
b1 .
b110 %
b110 (
b11 $
b11 *
1&
#360
0&
#361
b10 $
b10 *
b101 %
b101 (
b10 .
1&
#362
0&
#363
b11 .
b100 %
b100 (
b1 $
b1 *
1&
#364
0&
#365
b0 $
b0 *
b11 %
b11 (
b100 .
1&
#366
0&
#367
b1000 !
b1000 ,
b1010 /
b0 .
b10 %
b10 (
b1000101 $
b1000101 *
b100 +
1&
#368
0&
#369
b1000100 $
b1000100 *
b1 %
b1 (
b1 .
1&
#370
0&
#371
b10 .
b0 %
b0 (
b1000011 $
b1000011 *
1&
#372
0&
#373
b1000010 $
b1000010 *
b100111 %
b100111 (
b0 )
b100 "
b100 -
b1 /
b0 .
1&
#374
0&
#375
b1 .
b100110 %
b100110 (
b1000001 $
b1000001 *
1&
#376
0&
#377
b1000000 $
b1000000 *
b100101 %
b100101 (
b10 .
1&
#378
0&
#379
b11 .
b100100 %
b100100 (
b111111 $
b111111 *
1&
#380
0&
#381
b111110 $
b111110 *
b100011 %
b100011 (
b100 .
1&
#382
0&
#383
b101 .
b100010 %
b100010 (
b111101 $
b111101 *
1&
#384
0&
#385
b111100 $
b111100 *
b100001 %
b100001 (
b110 .
1&
#386
0&
#387
b111 .
b100000 %
b100000 (
b111011 $
b111011 *
1&
#388
0&
#389
b111010 $
b111010 *
b11111 %
b11111 (
b1000 .
1&
#390
0&
#391
b1001 .
b11110 %
b11110 (
b111001 $
b111001 *
1&
#392
0&
#393
b111000 $
b111000 *
b11101 %
b11101 (
b1010 .
1&
#394
0&
#395
b1011 .
b11100 %
b11100 (
b110111 $
b110111 *
1&
#396
0&
#397
b110110 $
b110110 *
b11011 %
b11011 (
b1100 .
1&
#398
0&
#399
b1101 .
b11010 %
b11010 (
b110101 $
b110101 *
1&
#400
0&
#401
b110100 $
b110100 *
b11001 %
b11001 (
b1110 .
1&
#402
0&
#403
b1111 .
b11000 %
b11000 (
b110011 $
b110011 *
1&
#404
0&
#405
b110010 $
b110010 *
b10111 %
b10111 (
b10000 .
1&
#406
0&
#407
b10001 .
b10110 %
b10110 (
b110001 $
b110001 *
1&
#408
0&
#409
b110000 $
b110000 *
b10101 %
b10101 (
b10010 .
1&
#410
0&
#411
b10011 .
b10100 %
b10100 (
b101111 $
b101111 *
1&
#412
0&
#413
b101110 $
b101110 *
b10011 %
b10011 (
b10100 .
1&
#414
0&
#415
b10101 .
b10010 %
b10010 (
b101101 $
b101101 *
1&
#416
0&
#417
b101100 $
b101100 *
b10001 %
b10001 (
b10110 .
1&
#418
0&
#419
b10111 .
b10000 %
b10000 (
b101011 $
b101011 *
1&
#420
0&
#421
b101010 $
b101010 *
b1111 %
b1111 (
b11000 .
1&
#422
0&
#423
b11001 .
b1110 %
b1110 (
b101001 $
b101001 *
1&
#424
0&
#425
b101000 $
b101000 *
b1101 %
b1101 (
b11010 .
1&
#426
0&
#427
b11011 .
b1100 %
b1100 (
b100111 $
b100111 *
1&
#428
0&
#429
b100110 $
b100110 *
b1011 %
b1011 (
b11100 .
1&
#430
0&
#431
b11101 .
b1010 %
b1010 (
b100101 $
b100101 *
1&
#432
0&
#433
b100100 $
b100100 *
b1001 %
b1001 (
b11110 .
1&
#434
0&
#435
b11111 .
b1000 %
b1000 (
b100011 $
b100011 *
1&
#436
0&
#437
b100010 $
b100010 *
b111 %
b111 (
b100000 .
1&
#438
0&
#439
b100001 .
b110 %
b110 (
b100001 $
b100001 *
1&
#440
0&
#441
b100000 $
b100000 *
b101 %
b101 (
b100010 .
1&
#442
0&
#443
b100011 .
b100 %
b100 (
b11111 $
b11111 *
1&
#444
0&
#445
b11110 $
b11110 *
b11 %
b11 (
b100100 .
1&
#446
0&
#447
b100101 .
b10 %
b10 (
b11101 $
b11101 *
1&
#448
0&
#449
b11100 $
b11100 *
b1 %
b1 (
b100110 .
1&
#450
0&
#451
b100111 .
b0 %
b0 (
b11011 $
b11011 *
1&
#452
0&
#453
b11010 $
b11010 *
b100 %
b100 (
b1 )
b10 "
b10 -
b10 /
b0 .
1&
#454
0&
#455
b1 .
b11 %
b11 (
b11001 $
b11001 *
1&
#456
0&
#457
b11000 $
b11000 *
b10 %
b10 (
b10 .
1&
#458
0&
#459
b11 .
b1 %
b1 (
b10111 $
b10111 *
1&
#460
0&
#461
b10110 $
b10110 *
b0 %
b0 (
b100 .
1&
#462
0&
#463
b1 "
b1 -
b11 /
b0 .
b1110 %
b1110 (
b10 )
b10101 $
b10101 *
1&
#464
0&
#465
b10100 $
b10100 *
b1101 %
b1101 (
b1 .
1&
#466
0&
#467
b10 .
b1100 %
b1100 (
b10011 $
b10011 *
1&
#468
0&
#469
b10010 $
b10010 *
b1011 %
b1011 (
b11 .
1&
#470
0&
#471
b100 .
b1010 %
b1010 (
b10001 $
b10001 *
1&
#472
0&
#473
b10000 $
b10000 *
b1001 %
b1001 (
b101 .
1&
#474
0&
#475
b110 .
b1000 %
b1000 (
b1111 $
b1111 *
1&
#476
0&
#477
b1110 $
b1110 *
b111 %
b111 (
b111 .
1&
#478
0&
#479
b1000 .
b110 %
b110 (
b1101 $
b1101 *
1&
#480
0&
#481
b1100 $
b1100 *
b101 %
b101 (
b1001 .
1&
#482
0&
#483
b1010 .
b100 %
b100 (
b1011 $
b1011 *
1&
#484
0&
#485
b1010 $
b1010 *
b11 %
b11 (
b1011 .
1&
#486
0&
#487
b1100 .
b10 %
b10 (
b1001 $
b1001 *
1&
#488
0&
#489
b1000 $
b1000 *
b1 %
b1 (
b1101 .
1&
#490
0&
#491
b1110 .
b0 %
b0 (
b111 $
b111 *
1&
#492
0&
#493
b110 $
b110 *
b100 %
b100 (
b11 )
b10 "
b10 -
b100 /
b0 .
1&
#494
0&
#495
b1 .
b11 %
b11 (
b101 $
b101 *
1&
#496
0&
#497
b100 $
b100 *
b10 %
b10 (
b10 .
1&
#498
0&
#499
b11 .
b1 %
b1 (
b11 $
b11 *
1&
#500
0&
#501
b10 $
b10 *
b0 %
b0 (
b100 .
1&
#502
0&
#503
b1000 "
b1000 -
b101 /
b0 .
b111011 %
b111011 (
b100 )
b1 $
b1 *
1&
#504
0&
#505
b0 $
b0 *
b111010 %
b111010 (
b1 .
1&
#506
0&
#507
b100 !
b100 ,
b110 /
b0 .
b111001 %
b111001 (
b11101 $
b11101 *
b0 +
1&
#508
0&
#509
b11100 $
b11100 *
b111000 %
b111000 (
b1 .
1&
#510
0&
#511
b10 .
b110111 %
b110111 (
b11011 $
b11011 *
1&
#512
0&
#513
b11010 $
b11010 *
b110110 %
b110110 (
b11 .
1&
#514
0&
#515
b100 .
b110101 %
b110101 (
b11001 $
b11001 *
1&
#516
0&
#517
b11000 $
b11000 *
b110100 %
b110100 (
b101 .
1&
#518
0&
#519
b110 .
b110011 %
b110011 (
b10111 $
b10111 *
1&
#520
0&
#521
b10110 $
b10110 *
b110010 %
b110010 (
b111 .
1&
#522
0&
#523
b1000 .
b110001 %
b110001 (
b10101 $
b10101 *
1&
#524
0&
#525
b10100 $
b10100 *
b110000 %
b110000 (
b1001 .
1&
#526
0&
#527
b1010 .
b101111 %
b101111 (
b10011 $
b10011 *
1&
#528
0&
#529
b10010 $
b10010 *
b101110 %
b101110 (
b1011 .
1&
#530
0&
#531
b1100 .
b101101 %
b101101 (
b10001 $
b10001 *
1&
#532
0&
#533
b10000 $
b10000 *
b101100 %
b101100 (
b1101 .
1&
#534
0&
#535
b1110 .
b101011 %
b101011 (
b1111 $
b1111 *
1&
#536
0&
#537
b1110 $
b1110 *
b101010 %
b101010 (
b1111 .
1&
#538
0&
#539
b10000 .
b101001 %
b101001 (
b1101 $
b1101 *
1&
#540
0&
#541
b1100 $
b1100 *
b101000 %
b101000 (
b10001 .
1&
#542
0&
#543
b10010 .
b100111 %
b100111 (
b1011 $
b1011 *
1&
#544
0&
#545
b1010 $
b1010 *
b100110 %
b100110 (
b10011 .
1&
#546
0&
#547
b10100 .
b100101 %
b100101 (
b1001 $
b1001 *
1&
#548
0&
#549
b1000 $
b1000 *
b100100 %
b100100 (
b10101 .
1&
#550
0&
#551
b10110 .
b100011 %
b100011 (
b111 $
b111 *
1&
#552
0&
#553
b110 $
b110 *
b100010 %
b100010 (
b10111 .
1&
#554
0&
#555
b11000 .
b100001 %
b100001 (
b101 $
b101 *
1&
#556
0&
#557
b100 $
b100 *
b100000 %
b100000 (
b11001 .
1&
#558
0&
#559
b11010 .
b11111 %
b11111 (
b11 $
b11 *
1&
#560
0&
#561
b10 $
b10 *
b11110 %
b11110 (
b11011 .
1&
#562
0&
#563
b11100 .
b11101 %
b11101 (
b1 $
b1 *
1&
#564
0&
#565
b0 $
b0 *
b11100 %
b11100 (
b11101 .
1&
#566
0&
#567
b10 !
b10 ,
b111 /
b0 .
b11011 %
b11011 (
b100 $
b100 *
b1 +
1&
#568
0&
#569
b11 $
b11 *
b11010 %
b11010 (
b1 .
1&
#570
0&
#571
b10 .
b11001 %
b11001 (
b10 $
b10 *
1&
#572
0&
#573
b1 $
b1 *
b11000 %
b11000 (
b11 .
1&
#574
0&
#575
b100 .
b10111 %
b10111 (
b0 $
b0 *
1&
#576
0&
#577
b1110 $
b1110 *
b10 +
b10110 %
b10110 (
b1 !
b1 ,
b1000 /
b0 .
1&
#578
0&
#579
b1 .
b10101 %
b10101 (
b1101 $
b1101 *
1&
#580
0&
#581
b1100 $
b1100 *
b10100 %
b10100 (
b10 .
1&
#582
0&
#583
b11 .
b10011 %
b10011 (
b1011 $
b1011 *
1&
#584
0&
#585
b1010 $
b1010 *
b10010 %
b10010 (
b100 .
1&
#586
0&
#587
b101 .
b10001 %
b10001 (
b1001 $
b1001 *
1&
#588
0&
#589
b1000 $
b1000 *
b10000 %
b10000 (
b110 .
1&
#590
0&
#591
b111 .
b1111 %
b1111 (
b111 $
b111 *
1&
#592
0&
#593
b110 $
b110 *
b1110 %
b1110 (
b1000 .
1&
#594
0&
#595
b1001 .
b1101 %
b1101 (
b101 $
b101 *
1&
#596
0&
#597
b100 $
b100 *
b1100 %
b1100 (
b1010 .
1&
#598
0&
#599
b1011 .
b1011 %
b1011 (
b11 $
b11 *
1&
#600
0&
#601
b10 $
b10 *
b1010 %
b1010 (
b1100 .
1&
#602
0&
#603
b1101 .
b1001 %
b1001 (
b1 $
b1 *
1&
#604
0&
#605
b0 $
b0 *
b1000 %
b1000 (
b1110 .
1&
#606
0&
#607
b10 !
b10 ,
b1001 /
b0 .
b111 %
b111 (
b100 $
b100 *
b11 +
1&
#608
0&
#609
b11 $
b11 *
b110 %
b110 (
b1 .
1&
#610
0&
#611
b10 .
b101 %
b101 (
b10 $
b10 *
1&
#612
0&
#613
b1 $
b1 *
b100 %
b100 (
b11 .
1&
#614
0&
#615
b100 .
b11 %
b11 (
b0 $
b0 *
1&
#616
0&
#617
b1000 !
b1000 ,
b1000101 $
b1000101 *
b100 +
b10 %
b10 (
b1010 /
b0 .
1&
#618
0&
#619
b1 .
b1 %
b1 (
b1000100 $
b1000100 *
1&
#620
0&
#621
b1000011 $
b1000011 *
b0 %
b0 (
b10 .
1&
#622
0&
#623
b100 "
b100 -
b1 /
b0 .
b100111 %
b100111 (
b0 )
b1000010 $
b1000010 *
1&
#624
0&
#625
b1000001 $
b1000001 *
b100110 %
b100110 (
b1 .
1&
#626
0&
#627
b10 .
b100101 %
b100101 (
b1000000 $
b1000000 *
1&
#628
0&
#629
b111111 $
b111111 *
b100100 %
b100100 (
b11 .
1&
#630
0&
#631
b100 .
b100011 %
b100011 (
b111110 $
b111110 *
1&
#632
0&
#633
b111101 $
b111101 *
b100010 %
b100010 (
b101 .
1&
#634
0&
#635
b110 .
b100001 %
b100001 (
b111100 $
b111100 *
1&
#636
0&
#637
b111011 $
b111011 *
b100000 %
b100000 (
b111 .
1&
#638
0&
#639
b1000 .
b11111 %
b11111 (
b111010 $
b111010 *
1&
#640
0&
#641
b111001 $
b111001 *
b11110 %
b11110 (
b1001 .
1&
#642
0&
#643
b1010 .
b11101 %
b11101 (
b111000 $
b111000 *
1&
#644
0&
#645
b110111 $
b110111 *
b11100 %
b11100 (
b1011 .
1&
#646
0&
#647
b1100 .
b11011 %
b11011 (
b110110 $
b110110 *
1&
#648
0&
#649
b110101 $
b110101 *
b11010 %
b11010 (
b1101 .
1&
#650
0&
#651
b1110 .
b11001 %
b11001 (
b110100 $
b110100 *
1&
#652
0&
#653
b110011 $
b110011 *
b11000 %
b11000 (
b1111 .
1&
#654
0&
#655
b10000 .
b10111 %
b10111 (
b110010 $
b110010 *
1&
#656
0&
#657
b110001 $
b110001 *
b10110 %
b10110 (
b10001 .
1&
#658
0&
#659
b10010 .
b10101 %
b10101 (
b110000 $
b110000 *
1&
#660
0&
#661
b101111 $
b101111 *
b10100 %
b10100 (
b10011 .
1&
#662
0&
#663
b10100 .
b10011 %
b10011 (
b101110 $
b101110 *
1&
#664
0&
#665
b101101 $
b101101 *
b10010 %
b10010 (
b10101 .
1&
#666
0&
#667
b10110 .
b10001 %
b10001 (
b101100 $
b101100 *
1&
#668
0&
#669
b101011 $
b101011 *
b10000 %
b10000 (
b10111 .
1&
#670
0&
#671
b11000 .
b1111 %
b1111 (
b101010 $
b101010 *
1&
#672
0&
#673
b101001 $
b101001 *
b1110 %
b1110 (
b11001 .
1&
#674
0&
#675
b11010 .
b1101 %
b1101 (
b101000 $
b101000 *
1&
#676
0&
#677
b100111 $
b100111 *
b1100 %
b1100 (
b11011 .
1&
#678
0&
