homework/homework12/02light/test.vcd
$date
	Fri Nov 27 14:34:24 2020
$end
$version
	Icarus Verilog
$end
$timescale
	1s
$end
$scope module test $end
$var wire 4 ! light_sn_rgyl [3:0] $end
$var wire 4 " light_ew_rgyl [3:0] $end
$var wire 8 # cnt [7:0] $end
$var reg 1 $ clk $end
$var reg 1 % en $end
$var reg 1 & reset $end
$scope module u_cnt $end
$var wire 1 $ clk $end
$var wire 1 % en $end
$var wire 1 & reset $end
$var wire 4 ' light_rgyl [3:0] $end
$var reg 8 ( cnt [7:0] $end
$var reg 4 ) flag_now [3:0] $end
$upscope $end
$scope module u_light $end
$var wire 1 $ clk $end
$var wire 1 & reset $end
$var wire 4 * light_sn_rgyl [3:0] $end
$var wire 4 + light_ew_rgyl [3:0] $end
$var reg 4 , status [3:0] $end
$scope task wait_and_change $end
$upscope $end
$upscope $end
$upscope $end
$enddefinitions $end
#0
$dumpvars
b0 ,
b1000 +
b1000 *
b0 )
b0 (
b1000 '
1&
x%
0$
b0 #
b1000 "
b1000 !
$end
#1
1$
#2
0$
0&
#3
b111011 #
b111011 (
b1000 )
1$
#4
0$
#5
b111010 #
b111010 (
1$
#6
0$
#7
b111001 #
b111001 (
b100 !
b100 *
b110 ,
1$
#8
0$
#9
b111000 #
b111000 (
1$
#10
0$
#11
b110111 #
b110111 (
1$
#12
0$
#13
b110110 #
b110110 (
1$
#14
0$
#15
b110101 #
b110101 (
1$
#16
0$
#17
b110100 #
b110100 (
1$
#18
0$
#19
b110011 #
b110011 (
1$
#20
0$
#21
b110010 #
b110010 (
1$
#22
0$
#23
b110001 #
b110001 (
1$
#24
0$
#25
b110000 #
b110000 (
1$
#26
0$
#27
b101111 #
b101111 (
1$
#28
0$
#29
b101110 #
b101110 (
1$
#30
0$
#31
b101101 #
b101101 (
1$
#32
0$
#33
b101100 #
b101100 (
1$
#34
0$
#35
b101011 #
b101011 (
1$
#36
0$
#37
b101010 #
b101010 (
1$
#38
0$
#39
b101001 #
b101001 (
1$
#40
0$
#41
b101000 #
b101000 (
1$
#42
0$
#43
b100111 #
b100111 (
1$
#44
0$
#45
b100110 #
b100110 (
1$
#46
0$
#47
b100101 #
b100101 (
1$
#48
0$
#49
b100100 #
b100100 (
1$
#50
0$
#51
b100011 #
b100011 (
1$
#52
0$
#53
b100010 #
b100010 (
1$
#54
0$
#55
b100001 #
b100001 (
1$
#56
0$
#57
b100000 #
b100000 (
1$
#58
0$
#59
b11111 #
b11111 (
1$
#60
0$
#61
b11110 #
b11110 (
1$
#62
0$
#63
b11101 #
b11101 (
1$
#64
0$
#65
b11100 #
b11100 (
1$
#66
0$
#67
b11011 #
b11011 (
b10 !
b10 *
b111 ,
1$
#68
0$
#69
b11010 #
b11010 (
1$
#70
0$
#71
b11001 #
b11001 (
1$
#72
0$
#73
b11000 #
b11000 (
1$
#74
0$
#75
b10111 #
b10111 (
1$
#76
0$
#77
b10110 #
b10110 (
b1 !
b1 *
b1000 ,
1$
#78
0$
#79
b10101 #
b10101 (
1$
#80
0$
#81
b10100 #
b10100 (
1$
#82
0$
#83
b10011 #
b10011 (
1$
#84
0$
#85
b10010 #
b10010 (
1$
#86
0$
#87
b10001 #
b10001 (
1$
#88
0$
#89
b10000 #
b10000 (
1$
#90
0$
#91
b1111 #
b1111 (
1$
#92
0$
#93
b1110 #
b1110 (
1$
#94
0$
#95
b1101 #
b1101 (
1$
#96
0$
#97
b1100 #
b1100 (
1$
#98
0$
#99
b1011 #
b1011 (
1$
#100
0$
#101
b1010 #
b1010 (
1$
#102
0$
#103
b1001 #
b1001 (
1$
#104
0$
#105
b1000 #
b1000 (
1$
#106
0$
#107
b111 #
b111 (
b10 !
b10 *
b1001 ,
1$
#108
0$
#109
b110 #
b110 (
1$
#110
0$
#111
b101 #
b101 (
1$
#112
0$
#113
b100 #
b100 (
1$
#114
0$
#115
b11 #
b11 (
1$
#116
0$
#117
b10 #
b10 (
b1000 !
b1000 *
b1010 ,
1$
#118
0$
#119
b1 #
b1 (
1$
#120
0$
#121
b0 #
b0 (
1$
#122
0$
#123
b1100 )
b100 "
b100 '
b100 +
b1 ,
1$
#124
0$
#125
b100111 #
b100111 (
b100 )
1$
#126
0$
#127
b100110 #
b100110 (
1$
#128
0$
#129
b100101 #
b100101 (
1$
#130
0$
#131
b100100 #
b100100 (
1$
#132
0$
#133
b100011 #
b100011 (
1$
#134
0$
#135
b100010 #
b100010 (
1$
#136
0$
#137
b100001 #
b100001 (
1$
#138
0$
#139
b100000 #
b100000 (
1$
#140
0$
#141
b11111 #
b11111 (
1$
#142
0$
#143
b11110 #
b11110 (
1$
#144
0$
#145
b11101 #
b11101 (
1$
#146
0$
#147
b11100 #
b11100 (
1$
#148
0$
#149
b11011 #
b11011 (
1$
#150
0$
#151
b11010 #
b11010 (
1$
#152
0$
#153
b11001 #
b11001 (
1$
#154
0$
#155
b11000 #
b11000 (
1$
#156
0$
#157
b10111 #
b10111 (
1$
#158
0$
#159
b10110 #
b10110 (
1$
#160
0$
#161
b10101 #
b10101 (
1$
#162
0$
#163
b10100 #
b10100 (
1$
#164
0$
#165
b10011 #
b10011 (
1$
#166
0$
#167
b10010 #
b10010 (
1$
#168
0$
#169
b10001 #
b10001 (
1$
#170
0$
#171
b10000 #
b10000 (
1$
#172
0$
#173
b1111 #
b1111 (
1$
#174
0$
#175
b1110 #
b1110 (
1$
#176
0$
#177
b1101 #
b1101 (
1$
#178
0$
#179
b1100 #
b1100 (
1$
#180
0$
#181
b1011 #
b1011 (
1$
#182
0$
#183
b1010 #
b1010 (
1$
#184
0$
#185
b1001 #
b1001 (
1$
#186
0$
#187
b1000 #
b1000 (
1$
#188
0$
#189
b111 #
b111 (
1$
#190
0$
#191
b110 #
b110 (
1$
#192
0$
#193
b101 #
b101 (
1$
#194
0$
#195
b100 #
b100 (
1$
#196
0$
#197
b11 #
b11 (
1$
#198
0$
#199
b10 #
b10 (
1$
#200
0$
#201
b1 #
b1 (
1$
#202
0$
#203
b0 #
b0 (
b10 "
b10 '
b10 +
b10 ,
1$
#204
0$
#205
b100 #
b100 (
b10 )
1$
#206
0$
#207
b11 #
b11 (
1$
#208
0$
#209
b10 #
b10 (
1$
#210
0$
#211
b1 #
b1 (
1$
#212
0$
#213
b0 #
b0 (
b1 "
b1 '
b1 +
b11 ,
1$
#214
0$
#215
b1110 #
b1110 (
b1 )
1$
#216
0$
#217
b1101 #
b1101 (
1$
#218
0$
#219
b1100 #
b1100 (
1$
#220
0$
#221
b1011 #
b1011 (
1$
#222
0$
#223
b1010 #
b1010 (
1$
#224
0$
#225
b1001 #
b1001 (
1$
#226
0$
#227
b1000 #
b1000 (
1$
#228
0$
#229
b111 #
b111 (
1$
#230
0$
#231
b110 #
b110 (
1$
#232
0$
#233
b101 #
b101 (
1$
#234
0$
#235
b100 #
b100 (
1$
#236
0$
#237
b11 #
b11 (
1$
#238
0$
#239
b10 #
b10 (
1$
#240
0$
#241
b1 #
b1 (
1$
#242
0$
#243
b0 #
b0 (
b10 "
b10 '
b10 +
b100 ,
1$
#244
0$
#245
b100 #
b100 (
b10 )
1$
#246
0$
#247
b11 #
b11 (
1$
#248
0$
#249
b10 #
b10 (
1$
#250
0$
#251
b1 #
b1 (
1$
#252
0$
#253
b0 #
b0 (
b1000 "
b1000 '
b1000 +
b101 ,
1$
#254
0$
#255
b111011 #
b111011 (
b1000 )
1$
#256
0$
#257
b111010 #
b111010 (
b100 !
b100 *
b110 ,
1$
#258
0$
#259
b111001 #
b111001 (
1$
#260
0$
#261
b111000 #
b111000 (
1$
#262
0$
#263
b110111 #
b110111 (
1$
#264
0$
#265
b110110 #
b110110 (
1$
#266
0$
#267
b110101 #
b110101 (
1$
#268
0$
#269
b110100 #
b110100 (
1$
#270
0$
#271
b110011 #
b110011 (
1$
#272
0$
#273
b110010 #
b110010 (
1$
#274
0$
#275
b110001 #
b110001 (
1$
#276
0$
#277
b110000 #
b110000 (
1$
#278
0$
#279
b101111 #
b101111 (
1$
#280
0$
#281
b101110 #
b101110 (
1$
#282
0$
#283
b101101 #
b101101 (
1$
#284
0$
#285
b101100 #
b101100 (
1$
#286
0$
#287
b101011 #
b101011 (
1$
#288
0$
#289
b101010 #
b101010 (
1$
#290
0$
#291
b101001 #
b101001 (
1$
#292
0$
#293
b101000 #
b101000 (
1$
#294
0$
#295
b100111 #
b100111 (
1$
#296
0$
#297
b100110 #
b100110 (
1$
#298
0$
#299
b100101 #
b100101 (
1$
#300
0$
#301
b100100 #
b100100 (
1$
#302
0$
#303
b100011 #
b100011 (
1$
#304
0$
#305
b100010 #
b100010 (
1$
#306
0$
#307
b100001 #
b100001 (
1$
#308
0$
#309
b100000 #
b100000 (
1$
#310
0$
#311
b11111 #
b11111 (
1$
#312
0$
#313
b11110 #
b11110 (
1$
#314
0$
#315
b11101 #
b11101 (
1$
#316
0$
#317
b11100 #
b11100 (
b10 !
b10 *
b111 ,
1$
#318
0$
#319
b11011 #
b11011 (
1$
#320
0$
#321
b11010 #
b11010 (
1$
#322
0$
#323
b11001 #
b11001 (
1$
#324
0$
#325
b11000 #
b11000 (
1$
#326
0$
#327
b10111 #
b10111 (
b1 !
b1 *
b1000 ,
1$
#328
0$
#329
b10110 #
b10110 (
1$
#330
0$
#331
b10101 #
b10101 (
1$
#332
0$
#333
b10100 #
b10100 (
1$
#334
0$
#335
b10011 #
b10011 (
1$
#336
0$
#337
b10010 #
b10010 (
1$
#338
0$
#339
b10001 #
b10001 (
1$
#340
0$
#341
b10000 #
b10000 (
1$
#342
0$
#343
b1111 #
b1111 (
1$
#344
0$
#345
b1110 #
b1110 (
1$
#346
0$
#347
b1101 #
b1101 (
1$
#348
0$
#349
b1100 #
b1100 (
1$
#350
0$
#351
b1011 #
b1011 (
1$
#352
0$
#353
b1010 #
b1010 (
1$
#354
0$
#355
b1001 #
b1001 (
1$
#356
0$
#357
b1000 #
b1000 (
b10 !
b10 *
b1001 ,
1$
#358
0$
#359
b111 #
b111 (
1$
#360
0$
#361
b110 #
b110 (
1$
#362
0$
#363
b101 #
b101 (
1$
#364
0$
#365
b100 #
b100 (
1$
#366
0$
#367
b11 #
b11 (
b1000 !
b1000 *
b1010 ,
1$
#368
0$
#369
b10 #
b10 (
1$
#370
0$
#371
b1 #
b1 (
1$
#372
0$
#373
b0 #
b0 (
b100 "
b100 '
b100 +
b1 ,
1$
#374
0$
#375
b100111 #
b100111 (
b100 )
1$
#376
0$
#377
b100110 #
b100110 (
1$
#378
0$
#379
b100101 #
b100101 (
1$
#380
0$
#381
b100100 #
b100100 (
1$
#382
0$
#383
b100011 #
b100011 (
1$
#384
0$
#385
b100010 #
b100010 (
1$
#386
0$
#387
b100001 #
b100001 (
1$
#388
0$
#389
b100000 #
b100000 (
1$
#390
0$
#391
b11111 #
b11111 (
1$
#392
0$
#393
b11110 #
b11110 (
1$
#394
0$
#395
b11101 #
b11101 (
1$
#396
0$
#397
b11100 #
b11100 (
1$
#398
0$
#399
b11011 #
b11011 (
1$
#400
0$
#401
b11010 #
b11010 (
1$
#402
0$
#403
b11001 #
b11001 (
1$
#404
0$
#405
b11000 #
b11000 (
1$
#406
0$
#407
b10111 #
b10111 (
1$
#408
0$
#409
b10110 #
b10110 (
1$
#410
0$
#411
b10101 #
b10101 (
1$
#412
0$
#413
b10100 #
b10100 (
1$
#414
0$
#415
b10011 #
b10011 (
1$
#416
0$
#417
b10010 #
b10010 (
1$
#418
0$
#419
b10001 #
b10001 (
1$
#420
0$
#421
b10000 #
b10000 (
1$
#422
0$
#423
b1111 #
b1111 (
1$
#424
0$
#425
b1110 #
b1110 (
1$
#426
0$
#427
b1101 #
b1101 (
1$
#428
0$
#429
b1100 #
b1100 (
1$
#430
0$
#431
b1011 #
b1011 (
1$
#432
0$
#433
b1010 #
b1010 (
1$
#434
0$
#435
b1001 #
b1001 (
1$
#436
0$
#437
b1000 #
b1000 (
1$
#438
0$
#439
b111 #
b111 (
1$
#440
0$
#441
b110 #
b110 (
1$
#442
0$
#443
b101 #
b101 (
1$
#444
0$
#445
b100 #
b100 (
1$
#446
0$
#447
b11 #
b11 (
1$
#448
0$
#449
b10 #
b10 (
1$
#450
0$
#451
b1 #
b1 (
1$
#452
0$
#453
b0 #
b0 (
b10 "
b10 '
b10 +
b10 ,
1$
#454
0$
#455
b100 #
b100 (
b10 )
1$
#456
0$
#457
b11 #
b11 (
1$
#458
0$
#459
b10 #
b10 (
1$
#460
0$
#461
b1 #
b1 (
1$
#462
0$
#463
b0 #
b0 (
b1 "
b1 '
b1 +
b11 ,
1$
#464
0$
#465
b1110 #
b1110 (
b1 )
1$
#466
0$
#467
b1101 #
b1101 (
1$
#468
0$
#469
b1100 #
b1100 (
1$
#470
0$
#471
b1011 #
b1011 (
1$
#472
0$
#473
b1010 #
b1010 (
1$
#474
0$
#475
b1001 #
b1001 (
1$
#476
0$
#477
b1000 #
b1000 (
1$
#478
0$
#479
b111 #
b111 (
1$
#480
0$
#481
b110 #
b110 (
1$
#482
0$
#483
b101 #
b101 (
1$
#484
0$
#485
b100 #
b100 (
1$
#486
0$
#487
b11 #
b11 (
1$
#488
0$
#489
b10 #
b10 (
1$
#490
0$
#491
b1 #
b1 (
1$
#492
0$
#493
b0 #
b0 (
b10 "
b10 '
b10 +
b100 ,
1$
#494
0$
#495
b100 #
b100 (
b10 )
1$
#496
0$
#497
b11 #
b11 (
1$
#498
0$
#499
b10 #
b10 (
1$
#500
0$
#501
b1 #
b1 (
1$
#502
0$
#503
b0 #
b0 (
b1000 "
b1000 '
b1000 +
b101 ,
1$
#504
0$
#505
b111011 #
b111011 (
b1000 )
1$
#506
0$
#507
b111010 #
b111010 (
b100 !
b100 *
b110 ,
1$
#508
0$
#509
b111001 #
b111001 (
1$
#510
0$
#511
b111000 #
b111000 (
1$
#512
0$
#513
b110111 #
b110111 (
1$
#514
0$
#515
b110110 #
b110110 (
1$
#516
0$
#517
b110101 #
b110101 (
1$
#518
0$
#519
b110100 #
b110100 (
1$
#520
0$
#521
b110011 #
b110011 (
1$
#522
0$
#523
b110010 #
b110010 (
1$
#524
0$
#525
b110001 #
b110001 (
1$
#526
0$
#527
b110000 #
b110000 (
1$
#528
0$
#529
b101111 #
b101111 (
1$
#530
0$
#531
b101110 #
b101110 (
1$
#532
0$
#533
b101101 #
b101101 (
1$
#534
0$
#535
b101100 #
b101100 (
1$
#536
0$
#537
b101011 #
b101011 (
1$
#538
0$
#539
b101010 #
b101010 (
1$
#540
0$
#541
b101001 #
b101001 (
1$
#542
0$
#543
b101000 #
b101000 (
1$
#544
0$
#545
b100111 #
b100111 (
1$
#546
0$
#547
b100110 #
b100110 (
1$
#548
0$
#549
b100101 #
b100101 (
1$
#550
0$
#551
b100100 #
b100100 (
1$
#552
0$
#553
b100011 #
b100011 (
1$
#554
0$
#555
b100010 #
b100010 (
1$
#556
0$
#557
b100001 #
b100001 (
1$
#558
0$
#559
b100000 #
b100000 (
1$
#560
0$
#561
b11111 #
b11111 (
1$
#562
0$
#563
b11110 #
b11110 (
1$
#564
0$
#565
b11101 #
b11101 (
1$
#566
0$
#567
b11100 #
b11100 (
b10 !
b10 *
b111 ,
1$
#568
0$
#569
b11011 #
b11011 (
1$
#570
0$
#571
b11010 #
b11010 (
1$
#572
0$
#573
b11001 #
b11001 (
1$
#574
0$
#575
b11000 #
b11000 (
1$
#576
0$
#577
b10111 #
b10111 (
b1 !
b1 *
b1000 ,
1$
#578
0$
#579
b10110 #
b10110 (
1$
#580
0$
#581
b10101 #
b10101 (
1$
#582
0$
#583
b10100 #
b10100 (
1$
#584
0$
#585
b10011 #
b10011 (
1$
#586
0$
#587
b10010 #
b10010 (
1$
#588
0$
#589
b10001 #
b10001 (
1$
#590
0$
#591
b10000 #
b10000 (
1$
#592
0$
#593
b1111 #
b1111 (
1$
#594
0$
#595
b1110 #
b1110 (
1$
#596
0$
#597
b1101 #
b1101 (
1$
#598
0$
#599
b1100 #
b1100 (
1$
#600
0$
#601
b1011 #
b1011 (
1$
#602
0$
#603
b1010 #
b1010 (
1$
#604
0$
#605
b1001 #
b1001 (
1$
#606
0$
#607
b1000 #
b1000 (
b10 !
b10 *
b1001 ,
1$
#608
0$
#609
b111 #
b111 (
1$
#610
0$
#611
b110 #
b110 (
1$
#612
0$
#613
b101 #
b101 (
1$
#614
0$
#615
b100 #
b100 (
1$
#616
0$
#617
b11 #
b11 (
b1000 !
b1000 *
b1010 ,
1$
#618
0$
#619
b10 #
b10 (
1$
#620
0$
#621
b1 #
b1 (
1$
#622
0$
#623
b0 #
b0 (
b100 "
b100 '
b100 +
b1 ,
1$
#624
0$
#625
b100111 #
b100111 (
b100 )
1$
#626
0$
#627
b100110 #
b100110 (
1$
#628
0$
#629
b100101 #
b100101 (
1$
#630
0$
#631
b100100 #
b100100 (
1$
#632
0$
#633
b100011 #
b100011 (
1$
#634
0$
#635
b100010 #
b100010 (
1$
#636
0$
#637
b100001 #
b100001 (
1$
#638
0$
#639
b100000 #
b100000 (
1$
#640
0$
#641
b11111 #
b11111 (
1$
#642
0$
#643
b11110 #
b11110 (
1$
#644
0$
#645
b11101 #
b11101 (
1$
#646
0$
#647
b11100 #
b11100 (
1$
#648
0$
#649
b11011 #
b11011 (
1$
#650
0$
#651
b11010 #
b11010 (
1$
#652
0$
#653
b11001 #
b11001 (
1$
#654
0$
#655
b11000 #
b11000 (
1$
#656
0$
#657
b10111 #
b10111 (
1$
#658
0$
#659
b10110 #
b10110 (
1$
#660
0$
#661
b10101 #
b10101 (
1$
#662
0$
#663
b10100 #
b10100 (
1$
#664
0$
#665
b10011 #
b10011 (
1$
#666
0$
#667
b10010 #
b10010 (
1$
#668
0$
#669
b10001 #
b10001 (
1$
#670
0$
#671
b10000 #
b10000 (
1$
#672
0$
#673
b1111 #
b1111 (
1$
#674
0$
#675
b1110 #
b1110 (
1$
#676
0$
#677
b1101 #
b1101 (
1$
#678
0$
#679
b1100 #
b1100 (
1$
#680
0$
#681
b1011 #
b1011 (
1$
#682
0$
#683
b1010 #
b1010 (
1$
#684
0$
#685
b1001 #
b1001 (
1$
#686
0$
#687
b1000 #
b1000 (
1$
#688
0$
#689
b111 #
b111 (
1$
#690
0$
#691
b110 #
b110 (
1$
#692
0$
#693
b101 #
b101 (
1$
#694
0$
#695
b100 #
b100 (
1$
#696
0$
#697
b11 #
b11 (
1$
#698
0$
#699
b10 #
b10 (
1$
#700
0$
#701
b1 #
b1 (
1$
#702
0$
#703
b0 #
b0 (
b10 "
b10 '
b10 +
b10 ,
1$
#704
0$
#705
b100 #
b100 (
b10 )
1$
#706
0$
#707
b11 #
b11 (
1$
#708
0$
#709
b10 #
b10 (
1$
#710
0$
#711
b1 #
b1 (
1$
#712
0$
#713
b0 #
b0 (
b1 "
b1 '
b1 +
b11 ,
1$
#714
0$
#715
b1110 #
b1110 (
b1 )
1$
#716
0$
#717
b1101 #
b1101 (
1$
#718
0$
#719
b1100 #
b1100 (
1$
#720
0$
#721
b1011 #
b1011 (
1$
#722
0$
#723
b1010 #
b1010 (
1$
#724
0$
#725
b1001 #
b1001 (
1$
#726
0$
#727
b1000 #
b1000 (
1$
#728
0$
#729
b111 #
b111 (
1$
#730
0$
#731
b110 #
b110 (
1$
#732
0$
#733
b101 #
b101 (
1$
#734
0$
#735
b100 #
b100 (
1$
#736
0$
#737
b11 #
b11 (
1$
#738
0$
#739
b10 #
b10 (
1$
#740
0$
#741
b1 #
b1 (
1$
#742
0$
#743
b0 #
b0 (
b10 "
b10 '
b10 +
b100 ,
1$
#744
0$
#745
b100 #
b100 (
b10 )
1$
#746
0$
#747
b11 #
b11 (
1$
#748
0$
#749
b10 #
b10 (
1$
#750
0$
#751
b1 #
b1 (
1$
#752
0$
#753
b0 #
b0 (
b1000 "
b1000 '
b1000 +
b101 ,
1$
#754
0$
#755
b111011 #
b111011 (
b1000 )
1$
#756
0$
#757
b111010 #
b111010 (
b100 !
b100 *
b110 ,
1$
#758
0$
#759
b111001 #
b111001 (
1$
#760
0$
#761
b111000 #
b111000 (
1$
#762
0$
#763
b110111 #
b110111 (
1$
#764
0$
#765
b110110 #
b110110 (
1$
#766
0$
#767
b110101 #
b110101 (
1$
#768
0$
#769
b110100 #
b110100 (
1$
#770
0$
#771
b110011 #
b110011 (
1$
#772
0$
#773
b110010 #
b110010 (
1$
#774
0$
#775
b110001 #
b110001 (
1$
#776
0$
#777
b110000 #
b110000 (
1$
#778
0$
#779
b101111 #
b101111 (
1$
#780
0$
#781
b101110 #
b101110 (
1$
#782
0$
#783
b101101 #
b101101 (
1$
#784
0$
#785
b101100 #
b101100 (
1$
#786
0$
#787
b101011 #
b101011 (
1$
#788
0$
#789
b101010 #
b101010 (
1$
#790
0$
#791
b101001 #
b101001 (
1$
#792
0$
#793
b101000 #
b101000 (
1$
#794
0$
#795
b100111 #
b100111 (
1$
#796
0$
#797
b100110 #
b100110 (
1$
#798
0$
#799
b100101 #
b100101 (
1$
#800
0$
#801
b100100 #
b100100 (
1$
