homework/homework14/test.vcd
$date
	Thu Dec 10 20:40:44 2020
$end
$version
	Icarus Verilog
$end
$timescale
	1s
$end
$scope module test $end
$var wire 18 ! LEDR [17:0] $end
$var wire 7 " HEX7 [6:0] $end
$var wire 7 # HEX6 [6:0] $end
$var wire 7 $ HEX5 [6:0] $end
$var wire 7 % HEX4 [6:0] $end
$var wire 7 & HEX3 [6:0] $end
$var wire 7 ' HEX2 [6:0] $end
$var wire 7 ( HEX1 [6:0] $end
$var wire 7 ) HEX0 [6:0] $end
$var reg 1 * CLOCK_50 $end
$var reg 8 + KEY [7:0] $end
$var reg 18 , SW [17:0] $end
$scope module u_top $end
$var wire 1 * CLOCK_50 $end
$var wire 8 - KEY [7:0] $end
$var wire 18 . SW [17:0] $end
$var wire 1 / bit_choose $end
$var wire 1 0 mod_choose $end
$var wire 1 1 val_add $end
$var wire 1 2 val_sub $end
$var wire 1 3 val_set $end
$var wire 1 4 reset $end
$var wire 6 5 out_s [5:0] $end
$var wire 6 6 out_m [5:0] $end
$var wire 6 7 out_h [5:0] $end
$var wire 4 8 led [3:0] $end
$var wire 1 9 en $end
$var wire 1 : clk $end
$var wire 1 ; clear $end
$var wire 1 < alarming $end
$var wire 1 = alarm_on $end
$var wire 18 > LEDR [17:0] $end
$var wire 7 ? HEX7 [6:0] $end
$var wire 7 @ HEX6 [6:0] $end
$var wire 7 A HEX5 [6:0] $end
$var wire 7 B HEX4 [6:0] $end
$var wire 7 C HEX3 [6:0] $end
$var wire 7 D HEX2 [6:0] $end
$var wire 7 E HEX1 [6:0] $end
$var wire 7 F HEX0 [6:0] $end
$scope module u_alarm_on $end
$var wire 1 4 reset $end
$var wire 1 = en $end
$var wire 1 : clk $end
$var reg 7 G HEX [6:0] $end
$upscope $end
$scope module u_alarming $end
$var wire 1 4 reset $end
$var wire 1 < en $end
$var wire 1 : clk $end
$var reg 7 H HEX [6:0] $end
$upscope $end
$scope module u_ctrl $end
$var wire 1 = alarm_on $end
$var wire 1 / bit_choose $end
$var wire 1 ; clear $end
$var wire 1 9 en $end
$var wire 1 0 mod_choose $end
$var wire 1 4 reset $end
$var wire 1 I stopwatch_pause_resume $end
$var wire 1 J stopwatch_set $end
$var wire 1 1 val_add $end
$var wire 1 3 val_set $end
$var wire 1 2 val_sub $end
$var wire 2 K switch [1:0] $end
$var wire 6 L stop_s [5:0] $end
$var wire 6 M stop_m [5:0] $end
$var wire 6 N stop_h [5:0] $end
$var wire 6 O saved_s [5:0] $end
$var wire 6 P saved_m [5:0] $end
$var wire 6 Q saved_h [5:0] $end
$var wire 6 R out_s [5:0] $end
$var wire 6 S out_m [5:0] $end
$var wire 6 T out_h [5:0] $end
$var wire 4 U led [3:0] $end
$var wire 6 V clock_s [5:0] $end
$var wire 6 W clock_m [5:0] $end
$var wire 6 X clock_h [5:0] $end
$var wire 1 : clk $end
$var wire 1 < alarming $end
$var reg 1 Y alarm_loaded $end
$var reg 1 Z alarm_set $end
$var reg 1 [ bit_now $end
$var reg 1 \ clock_set $end
$var reg 2 ] mod_now [1:0] $end
$var reg 6 ^ set_h [5:0] $end
$var reg 6 _ set_m [5:0] $end
$var reg 6 ` set_s [5:0] $end
$var reg 1 a status $end
$var reg 6 b temp_h [5:0] $end
$var reg 6 c temp_m [5:0] $end
$var reg 6 d temp_s [5:0] $end
$scope module u_alarm $end
$var wire 1 ; clear $end
$var wire 1 e en $end
$var wire 1 4 reset $end
$var wire 1 Z set $end
$var wire 6 f set_h [5:0] $end
$var wire 6 g set_m [5:0] $end
$var wire 6 h set_s [5:0] $end
$var wire 1 i time_is_right $end
$var wire 6 j hms_s [5:0] $end
$var wire 6 k hms_m [5:0] $end
$var wire 6 l hms_h [5:0] $end
$var wire 1 : clk $end
$var wire 1 m alarm_on $end
$var reg 1 < alarming $end
$var reg 6 n saved_h [5:0] $end
$var reg 6 o saved_m [5:0] $end
$var reg 6 p saved_s [5:0] $end
$var reg 1 q status $end
$upscope $end
$scope module u_choose $end
$var wire 6 r alarm_h [5:0] $end
$var wire 6 s alarm_m [5:0] $end
$var wire 6 t alarm_s [5:0] $end
$var wire 1 9 en $end
$var wire 1 4 reset $end
$var wire 2 u switch [1:0] $end
$var wire 6 v temp_h [5:0] $end
$var wire 6 w temp_m [5:0] $end
$var wire 6 x temp_s [5:0] $end
$var wire 6 y stopwatch_s [5:0] $end
$var wire 6 z stopwatch_m [5:0] $end
$var wire 6 { stopwatch_h [5:0] $end
$var wire 6 | out_s [5:0] $end
$var wire 6 } out_m [5:0] $end
$var wire 6 ~ out_h [5:0] $end
$var wire 6 !" clock_s [5:0] $end
$var wire 6 "" clock_m [5:0] $end
$var wire 6 #" clock_h [5:0] $end
$var wire 1 : clk $end
$upscope $end
$scope module u_clock $end
$var wire 1 $" en $end
$var wire 1 4 reset $end
$var wire 1 \ set $end
$var wire 6 %" set_h [5:0] $end
$var wire 6 &" set_m [5:0] $end
$var wire 6 '" set_s [5:0] $end
$var wire 1 : clk $end
$var reg 6 (" out_h [5:0] $end
$var reg 6 )" out_m [5:0] $end
$var reg 6 *" out_s [5:0] $end
$var reg 1 +" status $end
$upscope $end
$scope module u_show_bit $end
$var wire 1 [ bit $end
$var wire 1 ," en $end
$var wire 4 -" led [3:0] $end
$upscope $end
$scope module u_stop $end
$var wire 1 9 en $end
$var wire 1 I pause_resume $end
$var wire 1 4 reset $end
$var wire 1 J set $end
$var wire 1 : clk $end
$var reg 6 ." out_h [5:0] $end
$var reg 6 /" out_m [5:0] $end
$var reg 6 0" out_s [5:0] $end
$var reg 1 1" status $end
$upscope $end
$upscope $end
$scope module u_display_time $end
$var wire 1 9 en $end
$var wire 6 2" h [5:0] $end
$var wire 6 3" m [5:0] $end
$var wire 1 4 reset $end
$var wire 6 4" s [5:0] $end
$var wire 4 5" s_10 [3:0] $end
$var wire 4 6" s_1 [3:0] $end
$var wire 4 7" m_10 [3:0] $end
$var wire 4 8" m_1 [3:0] $end
$var wire 4 9" h_10 [3:0] $end
$var wire 4 :" h_1 [3:0] $end
$var wire 1 : clk $end
$var wire 7 ;" HEX7 [6:0] $end
$var wire 7 <" HEX6 [6:0] $end
$var wire 7 =" HEX5 [6:0] $end
$var wire 7 >" HEX4 [6:0] $end
$var wire 7 ?" HEX3 [6:0] $end
$var wire 7 @" HEX2 [6:0] $end
$scope module bcd_h $end
$var wire 4 A" bcd_hun [3:0] $end
$var wire 4 B" bcd_one [3:0] $end
$var wire 4 C" bcd_ten [3:0] $end
$var wire 6 D" bin [5:0] $end
$var reg 4 E" bcd_hun_r [3:0] $end
$var reg 4 F" bcd_one_r [3:0] $end
$var reg 4 G" bcd_ten_r [3:0] $end
$var reg 6 H" bin_r [5:0] $end
$var integer 32 I" i [31:0] $end
$scope task check_all $end
$upscope $end
$scope task init_all $end
$upscope $end
$scope task shift_all $end
$upscope $end
$upscope $end
$scope module bcd_m $end
$var wire 4 J" bcd_hun [3:0] $end
$var wire 4 K" bcd_one [3:0] $end
$var wire 4 L" bcd_ten [3:0] $end
$var wire 6 M" bin [5:0] $end
$var reg 4 N" bcd_hun_r [3:0] $end
$var reg 4 O" bcd_one_r [3:0] $end
$var reg 4 P" bcd_ten_r [3:0] $end
$var reg 6 Q" bin_r [5:0] $end
$var integer 32 R" i [31:0] $end
$scope task check_all $end
$upscope $end
$scope task init_all $end
$upscope $end
$scope task shift_all $end
$upscope $end
$upscope $end
$scope module bcd_s $end
$var wire 4 S" bcd_hun [3:0] $end
$var wire 4 T" bcd_one [3:0] $end
$var wire 4 U" bcd_ten [3:0] $end
$var wire 6 V" bin [5:0] $end
$var reg 4 W" bcd_hun_r [3:0] $end
$var reg 4 X" bcd_one_r [3:0] $end
$var reg 4 Y" bcd_ten_r [3:0] $end
$var reg 6 Z" bin_r [5:0] $end
$var integer 32 [" i [31:0] $end
$scope task check_all $end
$upscope $end
$scope task init_all $end
$upscope $end
$scope task shift_all $end
$upscope $end
$upscope $end
$scope module dec_h_1 $end
$var wire 7 \" HEX0 [6:0] $end
$var wire 4 ]" SW [3:0] $end
$var reg 7 ^" HEX [6:0] $end
$upscope $end
$scope module dec_h_10 $end
$var wire 7 _" HEX0 [6:0] $end
$var wire 4 `" SW [3:0] $end
$var reg 7 a" HEX [6:0] $end
$upscope $end
$scope module dec_m_1 $end
$var wire 7 b" HEX0 [6:0] $end
$var wire 4 c" SW [3:0] $end
$var reg 7 d" HEX [6:0] $end
$upscope $end
$scope module dec_m_10 $end
$var wire 7 e" HEX0 [6:0] $end
$var wire 4 f" SW [3:0] $end
$var reg 7 g" HEX [6:0] $end
$upscope $end
$scope module dec_s_1 $end
$var wire 7 h" HEX0 [6:0] $end
$var wire 4 i" SW [3:0] $end
$var reg 7 j" HEX [6:0] $end
$upscope $end
$scope module dec_s_10 $end
$var wire 7 k" HEX0 [6:0] $end
$var wire 4 l" SW [3:0] $end
$var reg 7 m" HEX [6:0] $end
$upscope $end
$upscope $end
$scope module u_tik $end
$var wire 1 * CLOCK_50 $end
$var wire 1 4 reset $end
$var reg 32 n" cnt [31:0] $end
$var reg 1 : tik $end
$var reg 32 o" tmp [31:0] $end
$upscope $end
$upscope $end
$upscope $end
$enddefinitions $end
#0
$dumpvars
b0 o"
b0 n"
b111111 m"
b0 l"
b1000000 k"
b111111 j"
b0 i"
b1000000 h"
b111111 g"
b0 f"
b1000000 e"
b111111 d"
b0 c"
b1000000 b"
b111111 a"
b0 `"
b1000000 _"
b1111111 ^"
b1000 ]"
b0 \"
b110 ["
b0 Z"
b0 Y"
b0 X"
b0 W"
b0 V"
b0 U"
b0 T"
b0 S"
b110 R"
b0 Q"
b0 P"
b0 O"
b0 N"
b0 M"
b0 L"
b0 K"
b0 J"
b110 I"
b0 H"
b0 G"
b1000 F"
b0 E"
b1000 D"
b0 C"
b1000 B"
b0 A"
b1000000 @"
b1000000 ?"
b1000000 >"
b1000000 ="
b0 <"
b1000000 ;"
b1000 :"
b0 9"
b0 8"
b0 7"
b0 6"
b0 5"
b0 4"
b0 3"
b1000 2"
01"
b0 0"
b0 /"
b0 ."
b0 -"
0,"
0+"
b0 *"
b0 )"
b1000 ("
b0 '"
b0 &"
b0 %"
0$"
b1000 #"
b0 ""
b0 !"
b1000 ~
b0 }
b0 |
b0 {
b0 z
b0 y
b0 x
b0 w
b0 v
b0 u
b0 t
b0 s
b0 r
0q
b0 p
b0 o
b1000 n
1m
b1000 l
b0 k
b0 j
1i
b0 h
b0 g
b0 f
0e
b0 d
b0 c
b0 b
0a
b0 `
b0 _
b0 ^
b0 ]
0\
0[
0Z
0Y
b1000 X
b0 W
b0 V
b0 U
b1000 T
b0 S
b0 R
b1000 Q
b0 P
b0 O
b0 N
b0 M
b0 L
b0 K
0J
0I
b1 H
b1 G
b1 F
b1 E
b1000000 D
b1000000 C
b1000000 B
b1000000 A
b0 @
b1000000 ?
b0zz00zzzzzzzzzzzz >
1=
0<
0;
0:
19
b0 8
b1000 7
b0 6
b0 5
14
03
02
01
00
0/
b11 .
b11111111 -
b11 ,
b11111111 +
0*
b1 )
b1 (
b1000000 '
b1000000 &
b1000000 %
b1000000 $
b0 #
b1000000 "
b0zz00zzzzzzzzzzzz !
$end
#1
1*
#2
04
0*
b10 ,
b10 .
#3
b1111001 '
b1111001 D
b1111001 @"
b1111001 h"
b110 j"
b1 6"
b1 T"
b1 i"
b1 X"
b110 ["
b0 Z"
b1 5
b1 R
b1 |
b1 4"
b1 V"
0i
b10 )
b10 F
b10 G
b1000 b
b1000 r
b1000 v
1<
b1 V
b1 j
b1 !"
b1 *"
1:
1*
#4
0*
#5
0:
1*
#6
0*
#7
b100100 '
b100100 D
b100100 @"
b100100 h"
b1011011 j"
b110 ["
b10 6"
b10 T"
b10 i"
b10 X"
b0 Z"
b10 5
b10 R
b10 |
b10 4"
b10 V"
b10 V
b10 j
b10 !"
b10 *"
b1 d
b1 t
b1 x
b100 )
b100 F
b100 G
b10 (
b10 E
b10 H
1:
1*
#8
0*
#9
0:
1*
#10
0*
#11
b110000 '
b110000 D
b110000 @"
b110000 h"
b1001111 j"
b110 ["
b11 6"
b11 T"
b11 i"
b11 X"
b0 Z"
b11 5
b11 R
b11 |
b11 4"
b11 V"
b100 (
b100 E
b100 H
b1000 )
b1000 F
b1000 G
b10 d
b10 t
b10 x
b11 V
b11 j
b11 !"
b11 *"
1:
1*
#12
0*
#13
0:
1*
#14
0*
#15
b11001 '
b11001 D
b11001 @"
b11001 h"
b1100110 j"
b110 ["
b100 6"
b100 T"
b100 i"
b100 X"
b0 Z"
b100 5
b100 R
b100 |
b100 4"
b100 V"
b100 V
b100 j
b100 !"
b100 *"
b11 d
b11 t
b11 x
b10000 )
b10000 F
b10000 G
b1000 (
b1000 E
b1000 H
1:
1*
#16
0*
#17
0:
1*
#18
0*
#19
b10010 '
b10010 D
b10010 @"
b10010 h"
b1101101 j"
b110 ["
b101 6"
b101 T"
b101 i"
b101 X"
b0 Z"
b101 5
b101 R
b101 |
b101 4"
b101 V"
b10000 (
b10000 E
b10000 H
b100000 )
b100000 F
b100000 G
b100 d
b100 t
b100 x
b101 V
b101 j
b101 !"
b101 *"
1:
1*
#20
0*
#21
0:
1*
#22
0*
#23
b10 '
b10 D
b10 @"
b10 h"
b1111101 j"
b110 ["
b110 6"
b110 T"
b110 i"
b110 X"
b0 Z"
b110 5
b110 R
b110 |
b110 4"
b110 V"
b110 V
b110 j
b110 !"
b110 *"
b101 d
b101 t
b101 x
b1000000 )
b1000000 F
b1000000 G
b100000 (
b100000 E
b100000 H
1:
1*
#24
0*
#25
0:
1*
#26
0*
#27
b1111000 '
b1111000 D
b1111000 @"
b1111000 h"
b111 j"
b110 ["
b111 6"
b111 T"
b111 i"
b111 X"
b0 Z"
b111 5
b111 R
b111 |
b111 4"
b111 V"
b1000000 (
b1000000 E
b1000000 H
b1 )
b1 F
b1 G
b110 d
b110 t
b110 x
b111 V
b111 j
b111 !"
b111 *"
1:
1*
#28
0*
#29
0:
1*
#30
0*
#31
b0 '
b0 D
b0 @"
b0 h"
b1111111 j"
b110 ["
b1000 6"
b1000 T"
b1000 i"
b1000 X"
b0 Z"
b1000 5
b1000 R
b1000 |
b1000 4"
b1000 V"
b1000 V
b1000 j
b1000 !"
b1000 *"
b111 d
b111 t
b111 x
b10 )
b10 F
b10 G
b1 (
b1 E
b1 H
1:
1*
#32
0*
#33
0:
1*
#34
0*
#35
b10000 '
b10000 D
b10000 @"
b10000 h"
b1101111 j"
b110 ["
b1001 6"
b1001 T"
b1001 i"
b1001 X"
b0 Z"
b1001 5
b1001 R
b1001 |
b1001 4"
b1001 V"
b10 (
b10 E
b10 H
b100 )
b100 F
b100 G
b1000 d
b1000 t
b1000 x
b1001 V
b1001 j
b1001 !"
b1001 *"
1:
1*
#36
0*
#37
0:
1*
#38
0*
#39
b1111001 &
b1111001 C
b1111001 ?"
b1111001 k"
b1000000 '
b1000000 D
b1000000 @"
b1000000 h"
b110 m"
b111111 j"
b1 5"
b1 U"
b1 l"
b1 Y"
b110 ["
b0 6"
b0 T"
b0 i"
b0 X"
b0 Z"
b1010 5
b1010 R
b1010 |
b1010 4"
b1010 V"
b1010 V
b1010 j
b1010 !"
b1010 *"
b1001 d
b1001 t
b1001 x
b1000 )
b1000 F
b1000 G
b100 (
b100 E
b100 H
1:
1*
#40
0*
#41
0:
1*
#42
0*
#43
b1111001 '
b1111001 D
b1111001 @"
b1111001 h"
b110 j"
b1 6"
b1 T"
b1 i"
b1 X"
b110 ["
b1 5"
b1 U"
b1 l"
b1 Y"
b0 Z"
b1011 5
b1011 R
b1011 |
b1011 4"
b1011 V"
b1000 (
b1000 E
b1000 H
b10000 )
b10000 F
b10000 G
b1010 d
b1010 t
b1010 x
b1011 V
b1011 j
b1011 !"
b1011 *"
1:
1*
#44
0*
#45
0:
1*
#46
0*
#47
b100100 '
b100100 D
b100100 @"
b100100 h"
b1011011 j"
b110 ["
b10 6"
b10 T"
b10 i"
b10 X"
b1 5"
b1 U"
b1 l"
b1 Y"
b0 Z"
b1100 5
b1100 R
b1100 |
b1100 4"
b1100 V"
b1100 V
b1100 j
b1100 !"
b1100 *"
b1011 d
b1011 t
b1011 x
b100000 )
b100000 F
b100000 G
b10000 (
b10000 E
b10000 H
1:
1*
#48
0*
#49
0:
1*
#50
0*
#51
b110000 '
b110000 D
b110000 @"
b110000 h"
b1001111 j"
b110 ["
b11 6"
b11 T"
b11 i"
b11 X"
b1 5"
b1 U"
b1 l"
b1 Y"
b0 Z"
b1101 5
b1101 R
b1101 |
b1101 4"
b1101 V"
b100000 (
b100000 E
b100000 H
b1000000 )
b1000000 F
b1000000 G
b1100 d
b1100 t
b1100 x
b1101 V
b1101 j
b1101 !"
b1101 *"
1:
1*
#52
0*
#53
0:
1*
#54
0*
#55
b11001 '
b11001 D
b11001 @"
b11001 h"
b1100110 j"
b110 ["
b100 6"
b100 T"
b100 i"
b100 X"
b1 5"
b1 U"
b1 l"
b1 Y"
b0 Z"
b1110 5
b1110 R
b1110 |
b1110 4"
b1110 V"
b1110 V
b1110 j
b1110 !"
b1110 *"
b1101 d
b1101 t
b1101 x
b1 )
b1 F
b1 G
b1000000 (
b1000000 E
b1000000 H
1:
1*
#56
0*
#57
0:
1*
#58
0*
#59
b10010 '
b10010 D
b10010 @"
b10010 h"
b1101101 j"
b110 ["
b101 6"
b101 T"
b101 i"
b101 X"
b1 5"
b1 U"
b1 l"
b1 Y"
b0 Z"
b1111 5
b1111 R
b1111 |
b1111 4"
b1111 V"
b1 (
b1 E
b1 H
b10 )
b10 F
b10 G
b1110 d
b1110 t
b1110 x
b1111 V
b1111 j
b1111 !"
b1111 *"
1:
1*
#60
0*
#61
0:
1*
#62
0*
#63
b10 '
b10 D
b10 @"
b10 h"
b1111101 j"
b110 ["
b110 6"
b110 T"
b110 i"
b110 X"
b1 5"
b1 U"
b1 l"
b1 Y"
b0 Z"
b10000 5
b10000 R
b10000 |
b10000 4"
b10000 V"
b10000 V
b10000 j
b10000 !"
b10000 *"
b1111 d
b1111 t
b1111 x
b100 )
b100 F
b100 G
b10 (
b10 E
b10 H
1:
1*
#64
0*
#65
0:
1*
#66
0*
#67
b1111000 '
b1111000 D
b1111000 @"
b1111000 h"
b111 j"
b110 ["
b111 6"
b111 T"
b111 i"
b111 X"
b1 5"
b1 U"
b1 l"
b1 Y"
b0 Z"
b10001 5
b10001 R
b10001 |
b10001 4"
b10001 V"
b100 (
b100 E
b100 H
b1000 )
b1000 F
b1000 G
b10000 d
b10000 t
b10000 x
b10001 V
b10001 j
b10001 !"
b10001 *"
1:
1*
#68
0*
#69
0:
1*
#70
0*
#71
b0 '
b0 D
b0 @"
b0 h"
b1111111 j"
b110 ["
b1000 6"
b1000 T"
b1000 i"
b1000 X"
b1 5"
b1 U"
b1 l"
b1 Y"
b0 Z"
b10010 5
b10010 R
b10010 |
b10010 4"
b10010 V"
b10010 V
b10010 j
b10010 !"
b10010 *"
b10001 d
b10001 t
b10001 x
b10000 )
b10000 F
b10000 G
b1000 (
b1000 E
b1000 H
1:
1*
#72
0*
#73
0:
1*
#74
0*
#75
b10000 '
b10000 D
b10000 @"
b10000 h"
b1101111 j"
b110 ["
b1001 6"
b1001 T"
b1001 i"
b1001 X"
b1 5"
b1 U"
b1 l"
b1 Y"
b0 Z"
b10011 5
b10011 R
b10011 |
b10011 4"
b10011 V"
b10000 (
b10000 E
b10000 H
b100000 )
b100000 F
b100000 G
b10010 d
b10010 t
b10010 x
b10011 V
b10011 j
b10011 !"
b10011 *"
1:
1*
#76
0*
#77
0:
1*
#78
0*
#79
b1000000 '
b1000000 D
b1000000 @"
b1000000 h"
b100100 &
b100100 C
b100100 ?"
b100100 k"
b111111 j"
b1011011 m"
b110 ["
b0 6"
b0 T"
b0 i"
b0 X"
b10 5"
b10 U"
b10 l"
b10 Y"
b0 Z"
b10100 5
b10100 R
b10100 |
b10100 4"
b10100 V"
b10100 V
b10100 j
b10100 !"
b10100 *"
b10011 d
b10011 t
b10011 x
b1000000 )
b1000000 F
b1000000 G
b100000 (
b100000 E
b100000 H
1:
1*
#80
0*
#81
0:
1*
#82
0*
#83
b1111001 '
b1111001 D
b1111001 @"
b1111001 h"
b110 j"
b1 6"
b1 T"
b1 i"
b1 X"
b110 ["
b10 5"
b10 U"
b10 l"
b10 Y"
b0 Z"
b10101 5
b10101 R
b10101 |
b10101 4"
b10101 V"
b1000000 (
b1000000 E
b1000000 H
b1 )
b1 F
b1 G
b10100 d
b10100 t
b10100 x
b10101 V
b10101 j
b10101 !"
b10101 *"
1:
1*
#84
0*
#85
0:
1*
#86
0*
#87
b100100 '
b100100 D
b100100 @"
b100100 h"
b1011011 j"
b110 ["
b10 6"
b10 T"
b10 i"
b10 X"
b10 5"
b10 U"
b10 l"
b10 Y"
b0 Z"
b10110 5
b10110 R
b10110 |
b10110 4"
b10110 V"
b10110 V
b10110 j
b10110 !"
b10110 *"
b10101 d
b10101 t
b10101 x
b10 )
b10 F
b10 G
b1 (
b1 E
b1 H
1:
1*
#88
0*
#89
0:
1*
#90
0*
#91
b110000 '
b110000 D
b110000 @"
b110000 h"
b1001111 j"
b110 ["
b11 6"
b11 T"
b11 i"
b11 X"
b10 5"
b10 U"
b10 l"
b10 Y"
b0 Z"
b10111 5
b10111 R
b10111 |
b10111 4"
b10111 V"
b10 (
b10 E
b10 H
b100 )
b100 F
b100 G
b10110 d
b10110 t
b10110 x
b10111 V
b10111 j
b10111 !"
b10111 *"
1:
1*
#92
0*
#93
0:
1*
#94
0*
#95
b11001 '
b11001 D
b11001 @"
b11001 h"
b1100110 j"
b110 ["
b100 6"
b100 T"
b100 i"
b100 X"
b10 5"
b10 U"
b10 l"
b10 Y"
b0 Z"
b11000 5
b11000 R
b11000 |
b11000 4"
b11000 V"
b11000 V
b11000 j
b11000 !"
b11000 *"
b10111 d
b10111 t
b10111 x
b1000 )
b1000 F
b1000 G
b100 (
b100 E
b100 H
1:
1*
#96
0*
#97
0:
1*
#98
0*
#99
b10010 '
b10010 D
b10010 @"
b10010 h"
b1101101 j"
b110 ["
b101 6"
b101 T"
b101 i"
b101 X"
b10 5"
b10 U"
b10 l"
b10 Y"
b0 Z"
b11001 5
b11001 R
b11001 |
b11001 4"
b11001 V"
b1000 (
b1000 E
b1000 H
b10000 )
b10000 F
b10000 G
b11000 d
b11000 t
b11000 x
b11001 V
b11001 j
b11001 !"
b11001 *"
1:
1*
#100
0*
#101
0:
1*
#102
1;
0*
b1010 ,
b1010 .
#103
b10 '
b10 D
b10 @"
b10 h"
b1111101 j"
b110 ["
b110 6"
b110 T"
b110 i"
b110 X"
b10 5"
b10 U"
b10 l"
b10 Y"
b0 Z"
b11010 5
b11010 R
b11010 |
b11010 4"
b11010 V"
b11010 V
b11010 j
b11010 !"
b11010 *"
0<
b11001 d
b11001 t
b11001 x
b100000 )
b100000 F
b100000 G
b10000 (
b10000 E
b10000 H
1:
1*
#104
0*
#105
0:
0;
1*
b10 ,
b10 .
#106
0*
#107
b1111000 '
b1111000 D
b1111000 @"
b1111000 h"
b111 j"
b110 ["
b111 6"
b111 T"
b111 i"
b111 X"
b10 5"
b10 U"
b10 l"
b10 Y"
b0 Z"
b11011 5
b11011 R
b11011 |
b11011 4"
b11011 V"
b1 (
b1 E
b1 H
b1000000 )
b1000000 F
b1000000 G
b11010 d
b11010 t
b11010 x
b11011 V
b11011 j
b11011 !"
b11011 *"
1:
1*
#108
0*
#109
0:
1*
#110
0*
#111
b0 '
b0 D
b0 @"
b0 h"
b1111111 j"
b110 ["
b1000 6"
b1000 T"
b1000 i"
b1000 X"
b10 5"
b10 U"
b10 l"
b10 Y"
b0 Z"
b11100 5
b11100 R
b11100 |
b11100 4"
b11100 V"
b11100 V
b11100 j
b11100 !"
b11100 *"
b11011 d
b11011 t
b11011 x
b1 )
b1 F
b1 G
1:
1*
#112
0*
#113
0:
1*
#114
0*
#115
b10000 '
b10000 D
b10000 @"
b10000 h"
b1101111 j"
b110 ["
b1001 6"
b1001 T"
b1001 i"
b1001 X"
b10 5"
b10 U"
b10 l"
b10 Y"
b0 Z"
b11101 5
b11101 R
b11101 |
b11101 4"
b11101 V"
b10 )
b10 F
b10 G
b11100 d
b11100 t
b11100 x
b11101 V
b11101 j
b11101 !"
b11101 *"
1:
1*
#116
0*
#117
0:
1*
#118
0*
#119
b1000000 '
b1000000 D
b1000000 @"
b1000000 h"
b110000 &
b110000 C
b110000 ?"
b110000 k"
b111111 j"
b1001111 m"
b110 ["
b0 6"
b0 T"
b0 i"
b0 X"
b11 5"
b11 U"
b11 l"
b11 Y"
b0 Z"
b11110 5
b11110 R
b11110 |
b11110 4"
b11110 V"
b11110 V
b11110 j
b11110 !"
b11110 *"
b11101 d
b11101 t
b11101 x
b100 )
b100 F
b100 G
1:
1*
#120
0*
#121
0:
1*
#122
0*
#123
b1111001 '
b1111001 D
b1111001 @"
b1111001 h"
b110 j"
b1 6"
b1 T"
b1 i"
b1 X"
b110 ["
b11 5"
b11 U"
b11 l"
b11 Y"
b0 Z"
b11111 5
b11111 R
b11111 |
b11111 4"
b11111 V"
b1000 )
b1000 F
b1000 G
b11110 d
b11110 t
b11110 x
b11111 V
b11111 j
b11111 !"
b11111 *"
1:
1*
#124
0*
#125
0:
1*
#126
0*
#127
b100100 '
b100100 D
b100100 @"
b100100 h"
b1011011 j"
b110 ["
b10 6"
b10 T"
b10 i"
b10 X"
b11 5"
b11 U"
b11 l"
b11 Y"
b0 Z"
b100000 5
b100000 R
b100000 |
b100000 4"
b100000 V"
b100000 V
b100000 j
b100000 !"
b100000 *"
b11111 d
b11111 t
b11111 x
b10000 )
b10000 F
b10000 G
1:
1*
#128
0*
#129
0:
1*
#130
0*
#131
b110000 '
b110000 D
b110000 @"
b110000 h"
b1001111 j"
b110 ["
b11 6"
b11 T"
b11 i"
b11 X"
b11 5"
b11 U"
b11 l"
b11 Y"
b0 Z"
b100001 5
b100001 R
b100001 |
b100001 4"
b100001 V"
b100000 )
b100000 F
b100000 G
b100000 d
b100000 t
b100000 x
b100001 V
b100001 j
b100001 !"
b100001 *"
1:
1*
#132
0*
#133
0:
1*
#134
0*
#135
b11001 '
b11001 D
b11001 @"
b11001 h"
b1100110 j"
b110 ["
b100 6"
b100 T"
b100 i"
b100 X"
b11 5"
b11 U"
b11 l"
b11 Y"
b0 Z"
b100010 5
b100010 R
b100010 |
b100010 4"
b100010 V"
b100010 V
b100010 j
b100010 !"
b100010 *"
b100001 d
b100001 t
b100001 x
b1000000 )
b1000000 F
b1000000 G
1:
1*
#136
0*
#137
0:
1*
#138
0*
#139
b10010 '
b10010 D
b10010 @"
b10010 h"
b1101101 j"
b110 ["
b101 6"
b101 T"
b101 i"
b101 X"
b11 5"
b11 U"
b11 l"
b11 Y"
b0 Z"
b100011 5
b100011 R
b100011 |
b100011 4"
b100011 V"
b1 )
b1 F
b1 G
b100010 d
b100010 t
b100010 x
b100011 V
b100011 j
b100011 !"
b100011 *"
1:
1*
#140
0*
#141
0:
1*
#142
0*
#143
b10 '
b10 D
b10 @"
b10 h"
b1111101 j"
b110 ["
b110 6"
b110 T"
b110 i"
b110 X"
b11 5"
b11 U"
b11 l"
b11 Y"
b0 Z"
b100100 5
b100100 R
b100100 |
b100100 4"
b100100 V"
b100100 V
b100100 j
b100100 !"
b100100 *"
b100011 d
b100011 t
b100011 x
b10 )
b10 F
b10 G
1:
1*
#144
0*
#145
0:
1*
#146
0*
#147
b1111000 '
b1111000 D
b1111000 @"
b1111000 h"
b111 j"
b110 ["
b111 6"
b111 T"
b111 i"
b111 X"
b11 5"
b11 U"
b11 l"
b11 Y"
b0 Z"
b100101 5
b100101 R
b100101 |
b100101 4"
b100101 V"
b100 )
b100 F
b100 G
b100100 d
b100100 t
b100100 x
b100101 V
b100101 j
b100101 !"
b100101 *"
1:
1*
#148
0*
#149
0:
1*
#150
0*
#151
b0 '
b0 D
b0 @"
b0 h"
b1111111 j"
b110 ["
b1000 6"
b1000 T"
b1000 i"
b1000 X"
b11 5"
b11 U"
b11 l"
b11 Y"
b0 Z"
b100110 5
b100110 R
b100110 |
b100110 4"
b100110 V"
b100110 V
b100110 j
b100110 !"
b100110 *"
b100101 d
b100101 t
b100101 x
b1000 )
b1000 F
b1000 G
1:
1*
#152
0*
#153
0:
1*
#154
0*
#155
b10000 '
b10000 D
b10000 @"
b10000 h"
b1101111 j"
b110 ["
b1001 6"
b1001 T"
b1001 i"
b1001 X"
b11 5"
b11 U"
b11 l"
b11 Y"
b0 Z"
b100111 5
b100111 R
b100111 |
b100111 4"
b100111 V"
b10000 )
b10000 F
b10000 G
b100110 d
b100110 t
b100110 x
b100111 V
b100111 j
b100111 !"
b100111 *"
1:
1*
#156
0*
#157
0:
1*
#158
0*
#159
b1000000 '
b1000000 D
b1000000 @"
b1000000 h"
b11001 &
b11001 C
b11001 ?"
b11001 k"
b111111 j"
b1100110 m"
b110 ["
b0 6"
b0 T"
b0 i"
b0 X"
b100 5"
b100 U"
b100 l"
b100 Y"
b0 Z"
b101000 5
b101000 R
b101000 |
b101000 4"
b101000 V"
b101000 V
b101000 j
b101000 !"
b101000 *"
b100111 d
b100111 t
b100111 x
b100000 )
b100000 F
b100000 G
1:
1*
#160
0*
#161
0:
1*
#162
0*
